Division,WeightClassKg,Place,Name,Team,BodyweightKg,Best3SquatKg,Best3BenchKg,Best3DeadliftKg,TotalKg,Equipment,Event,Sex
Boys,51.71,1,Dj Grogan,Marshall,50.53,127.01,81.65,138.35,347,Single-ply,SBD,M
Boys,55.79,2,Edward Green,Daingerfield,51.94,124.74,68.04,154.22,347,Single-ply,SBD,M
Boys,55.79,3,Scott Byrd,Longview,51.89,113.4,63.5,136.08,312.98,Single-ply,SBD,M
Boys,55.79,4,Blake Myers,Simms Bowie,51.8,104.33,54.43,120.2,278.96,Single-ply,SBD,M
Boys,51.71,5,Daniel Hines,Texarkana Liberty-Eylau,50.98,90.72,47.63,106.59,244.94,Single-ply,SBD,M
Boys,51.71,6,David Blackwell,Nacogdoches,51.17,97.52,38.56,102.06,238.14,Single-ply,SBD,M
Boys,51.71,7,Devin Nutt,Diana New Diana,50.8,90.72,,,90.72,Single-ply,S,M
Boys,51.71,DQ,Dylan Rogers,White Oak,51.53,,,,,Single-ply,S,M
Boys,59.87,1,Thomas Howard,Texarkana Liberty-Eylau,55.97,156.49,92.99,163.29,412.77,Single-ply,SBD,M
Boys,55.79,2,Manuel Rojas,Hallsville,53.07,115.67,74.84,140.61,331.12,Single-ply,SBD,M
Boys,55.79,3,Micah Ethington,Nacogdoches,53.52,117.93,56.7,131.54,306.17,Single-ply,SBD,M
Boys,59.87,1,Jake Pearlman,Texarkana Pleasant Grove,58.33,151.95,90.72,167.83,410.5,Single-ply,SBD,M
Boys,59.87,2,Ricky Reed,Daingerfield,58.88,147.42,79.38,167.83,394.63,Single-ply,SBD,M
Boys,59.87,3,Keith Hopkins,Daingerfield,58.51,149.69,68.04,172.37,390.09,Single-ply,SBD,M
Boys,67.13,4,Colm Donohoe,Texarkana Pleasant Grove,59.96,136.08,90.72,151.95,378.75,Single-ply,SBD,M
Boys,59.87,5,Tres Allen,Simms Bowie,59.33,136.08,72.57,161.03,369.68,Single-ply,SBD,M
Boys,59.87,6,Quade Taliaferro,Gladewater Sabine,58.97,124.74,70.31,151.95,347,Single-ply,SBD,M
Boys,59.87,7,Alex Pierson,Longview,56.84,129.27,68.04,142.88,340.19,Single-ply,SBD,M
Boys,59.87,8,Forest Lemon,Nacogdoches,57.24,115.67,65.77,136.08,317.51,Single-ply,SBD,M
Boys,59.87,9,Keegan Moyers,Gladewater Sabine,57.42,108.86,61.23,115.67,285.76,Single-ply,SBD,M
Boys,59.87,10,Collin Taylor,Diana New Diana,56.25,108.86,56.7,117.93,283.5,Single-ply,SBD,M
Boys,59.87,11,Brennan Huckabay,Gladewater Union Grove,59.42,88.45,72.57,111.13,272.16,Single-ply,SBD,M
Boys,67.13,DQ,Dedrick Brooks,Diana New Diana,60.1,,,,,Single-ply,SBD,M
Boys,67.13,1,Roy Butler,Texarkana Liberty-Eylau,66.22,199.58,145.15,183.7,528.44,Single-ply,SBD,M
Boys,67.13,2,Andric Okra,Marshall,65.41,170.1,106.59,190.51,467.2,Single-ply,SBD,M
Boys,67.13,3,Trevor Martin,White Oak,66.41,183.7,90.72,188.24,462.66,Single-ply,SBD,M
Boys,67.13,4,Gage Rainer,Simms Bowie,65.41,163.29,95.25,185.97,444.52,Single-ply,SBD,M
Boys,74.84,5,Santos Estrada,Hallsville,67.36,165.56,108.86,170.1,444.52,Single-ply,SBD,M
Boys,74.84,6,Alan Phillips,Ore City,67.36,165.56,88.45,190.51,444.52,Single-ply,SBD,M
Boys,67.13,7,Nicholas McGuire,Hughes Springs,63.5,151.95,92.99,172.37,417.3,Single-ply,SBD,M
Boys,67.13,8,Jalen Johnson,Longview,65.32,165.56,92.99,151.95,410.5,Single-ply,SBD,M
Boys,67.13,9,Theo Lhoid,Longview,61.78,151.95,106.59,142.88,401.43,Single-ply,SBD,M
Boys,67.13,10,Dominic Ford,Marshall,63.14,167.83,86.18,147.42,401.43,Single-ply,SBD,M
Boys,67.13,11,Jake Blauuw,Texarkana Pleasant Grove,63.59,133.81,104.33,163.29,401.43,Single-ply,SBD,M
Boys,74.84,12,Cody Stevenson,Hallsville,67.36,154.22,95.25,145.15,394.63,Single-ply,SBD,M
Boys,67.13,13,Hayden Hughes,White Oak,66.22,138.35,81.65,158.76,378.75,Single-ply,SBD,M
Boys,67.13,14,Shawn Wright,Mcleod,64.95,120.2,79.38,170.1,369.68,Single-ply,SBD,M
Boys,74.84,15,Conrad Tycksen,Gladewater Sabine,67.31,136.08,72.57,158.76,367.41,Single-ply,SBD,M
Boys,67.13,16,Jacobic Randle,Nacogdoches,66.04,136.08,74.84,151.95,362.87,Single-ply,SBD,M
Boys,67.13,17,Caleb Fisher,Big Sandy,65.77,124.74,88.45,136.08,349.27,Single-ply,SBD,M
Boys,67.13,18,Ramiro Gacia,New London West Rusk,65.32,106.59,77.11,149.69,333.39,Single-ply,SBD,M
Boys,67.13,19,Dillon Walton,Mcleod,65.86,106.59,61.23,136.08,303.91,Single-ply,SBD,M
Boys,67.13,20,Josh Ashworth,Simms Bowie,62.78,90.72,52.16,133.81,276.69,Single-ply,SBD,M
Boys,67.13,21,Zack Jackson,Elysian Fields,65.77,131.54,115.67,,247.21,Single-ply,SB,M
Boys,67.13,22,Zach Ott,White Oak,66.95,154.22,,,154.22,Single-ply,S,M
Boys,74.84,DQ,Josh Simms,White Oak,67.31,,,,,Single-ply,S,M
Boys,67.13,DQ,De'Shun Brewer,Texarkana Liberty-Eylau,62.69,,,,,Single-ply,S,M
Boys,82.1,1,Dakota Anthony,Longview,75.02,229.06,108.86,242.67,580.6,Single-ply,SBD,M
Boys,74.84,2,Graeson Bruce,Simms Bowie,72.48,208.65,95.25,217.72,521.63,Single-ply,SBD,M
Boys,74.84,3,Santos Gonzales,New London West Rusk,72.67,179.17,111.13,215.46,505.76,Single-ply,SBD,M
Boys,74.84,4,Alex Cuarenta,Nacogdoches,74.66,204.12,88.45,195.04,487.61,Single-ply,SBD,M
Boys,74.84,5,Randall Bernethy,White Oak,70.94,170.1,140.61,165.56,476.27,Single-ply,SBD,M
Boys,74.84,6,Jason Hailey,Texarkana Liberty-Eylau,73.48,197.31,90.72,188.24,476.27,Single-ply,SBD,M
Boys,74.84,7,Josh Presson,White Oak,70.31,167.83,95.25,190.51,453.59,Single-ply,SBD,M
Boys,74.84,8,Jacovin Coats,Marshall,68.22,172.37,90.72,181.44,444.52,Single-ply,SBD,M
Boys,74.84,9,Desmond Heath,Daingerfield,74.48,156.49,102.06,142.88,401.43,Single-ply,SBD,M
Boys,82.1,10,Kanon Walker,Simms Bowie,74.93,142.88,90.72,158.76,392.36,Single-ply,SBD,M
Boys,74.84,11,Taylor Mayfield,Gladewater Union Grove,74.57,138.35,97.52,147.42,383.29,Single-ply,SBD,M
Boys,74.84,12,Kevin Turner #3,Diana New Diana,71.85,124.74,83.91,170.1,378.75,Single-ply,SBD,M
Boys,74.84,13,Kris Best,Diana New Diana,71.67,142.88,92.99,138.35,374.21,Single-ply,SBD,M
Boys,74.84,14,Jacob Paap,Simms Bowie,72.39,113.4,58.97,122.47,294.84,Single-ply,SBD,M
Boys,74.84,15,Steve Squincs,Mcleod,69.13,83.91,56.7,115.67,256.28,Single-ply,SBD,M
Boys,74.84,16,MarCordric Collins,Winona,72.67,122.47,77.11,,199.58,Single-ply,SB,M
Boys,74.84,17,Dillon Jarvis,Gladewater Union Grove,67.77,88.45,74.84,,163.29,Single-ply,SB,M
Boys,74.84,DQ,Abraham Pina,Hughes Springs,71.03,,,,,Single-ply,SB,M
Boys,74.84,DQ,Bruce Woods,Elysian Fields,72.76,,,,,Single-ply,SB,M
Boys,74.84,DQ,Stone Leach,Ore City,74.21,,,,,Single-ply,SB,M
Boys,74.84,DQ,Terran Cooper,Texarkana Liberty-Eylau,70.31,,,,,Single-ply,SB,M
Boys,82.1,1,Jc Haigwood,Marshall,81.47,235.87,172.37,258.55,666.78,Single-ply,SBD,M
Boys,89.81,2,Decorean Blankenship,Longview,82.33,238.14,115.67,226.8,580.6,Single-ply,SBD,M
Boys,82.1,3,Hollis Webster,Texarkana Liberty-Eylau,78.83,210.92,129.27,215.46,555.65,Single-ply,SBD,M
Boys,89.81,4,Tyler McInnis,Texarkana Pleasant Grove,82.19,210.92,124.74,210.92,546.58,Single-ply,SBD,M
Boys,89.81,5,Jerry Roland,Hallsville,82.33,208.65,115.67,213.19,537.51,Single-ply,SBD,M
Boys,82.1,6,Beau Brewer,Diana New Diana,76.66,192.78,140.61,197.31,530.7,Single-ply,SBD,M
Boys,89.81,7,Matt DeGroot,Texarkana Pleasant Grove,82.28,213.19,113.4,204.12,530.7,Single-ply,SBD,M
Boys,82.1,8,Acie Smith,Marshall,79.29,174.63,99.79,197.31,471.74,Single-ply,SBD,M
Boys,82.1,9,Austin Toodorczyk,Hallsville,81.01,185.97,104.33,181.44,471.74,Single-ply,SBD,M
Boys,82.1,10,Caleb Stephens,Simms Bowie,79.11,172.37,95.25,199.58,467.2,Single-ply,SBD,M
Boys,82.1,11,Josh Garton,Simms Bowie,79.56,176.9,95.25,181.44,453.59,Single-ply,SBD,M
Boys,82.1,12,Roderick Boyd,Hallsville,81.92,172.37,108.86,170.1,451.32,Single-ply,SBD,M
Boys,82.1,13,Cody Hall,White Oak,76.66,176.9,113.4,154.22,444.52,Single-ply,SBD,M
Boys,82.1,14,Travasil Dumas,Diana New Diana,78.02,161.03,95.25,183.7,439.98,Single-ply,SBD,M
Boys,82.1,15,Chase Hatlon,Elysian Fields,77.56,145.15,86.18,204.12,435.45,Single-ply,SBD,M
Boys,82.1,16,Todarius Gholston,Daingerfield,76.38,170.1,88.45,161.03,419.57,Single-ply,SBD,M
Boys,82.1,17,Adam Owens,Texarkana Pleasant Grove,81.19,154.22,92.99,172.37,419.57,Single-ply,SBD,M
Boys,89.81,18,Caleb Glover,Diana New Diana,82.28,147.42,83.91,145.15,376.48,Single-ply,SBD,M
Boys,82.1,19,Zach Kent,Gladewater Sabine,81.19,133.81,83.91,151.95,369.68,Single-ply,SBD,M
Boys,82.1,20,Zach Parnell,Gladewater Sabine,75.48,113.4,83.91,136.08,333.39,Single-ply,SBD,M
Boys,82.1,21,Gary Elder,Big Sandy,78.02,111.13,95.25,106.59,312.98,Single-ply,SBD,M
Boys,82.1,22,Jacoby Peters,Daingerfield,80.83,188.24,99.79,,288.03,Single-ply,SB,M
Boys,82.1,23,Dakota Maxfield,Winona,80.74,170.1,,,170.1,Single-ply,S,M
Boys,82.1,DQ,Tyler Glover,Diana New Diana,75.3,,,,,Single-ply,S,M
Boys,89.81,DQ,Wayne Munden,Hughes Springs,82.28,,,,,Single-ply,S,M
Boys,82.1,DQ,Dalton Martin,Hughes Springs,78.56,,,,,Single-ply,S,M
Boys,89.81,1,Cantrell McKinley,Texarkana Liberty-Eylau,86.82,213.19,124.74,256.28,594.21,Single-ply,SBD,M
Boys,89.81,2,Colt Corey,Gladewater,88.63,222.26,136.08,235.87,594.21,Single-ply,SBD,M
Boys,89.81,3,Stephen Godwin,Hallsville,87.82,213.19,122.47,199.58,535.24,Single-ply,SBD,M
Boys,89.81,4,Noah Hutchinon,Texarkana Pleasant Grove,82.74,208.65,129.27,172.37,510.29,Single-ply,SBD,M
Boys,99.79,5,John Sartor,Hallsville,90.04,181.44,104.33,210.92,496.68,Single-ply,SBD,M
Boys,89.81,6,Desmond Hancock,Hughes Springs,83.28,158.76,106.59,181.44,446.79,Single-ply,SBD,M
Boys,89.81,7,Jeffrey Davis,White Oak,89.36,158.76,97.52,181.44,437.72,Single-ply,SBD,M
Boys,89.81,8,Tyler Wellborn,Texarkana Pleasant Grove,83.73,156.49,104.33,172.37,433.18,Single-ply,SBD,M
Boys,89.81,9,Alex Downing,Hallsville,88.36,145.15,113.4,140.61,399.16,Single-ply,SBD,M
Boys,89.81,10,Keith Irwin,Mcleod,89.36,92.99,74.84,120.2,288.03,Single-ply,SBD,M
Boys,89.81,11,Caleb Balnham,Winona,84.73,226.8,,,226.8,Single-ply,S,M
Boys,89.81,12,Clifford Dial,Ore City,84.73,158.76,,,158.76,Single-ply,S,M
Boys,89.81,13,Dyllan O'Neal,Hughes Springs,85,147.42,,,147.42,Single-ply,S,M
Boys,89.81,DQ,Nick Harp,Texarkana Pleasant Grove,83.46,,,,,Single-ply,S,M
Boys,99.79,1,Quinton Thomas,Gladewater,99.06,285.76,183.7,274.42,743.89,Single-ply,SBD,M
Boys,109.77,2,Jarvis Lollis,Texarkana Liberty-Eylau,100.02,263.08,154.22,244.94,662.24,Single-ply,SBD,M
Boys,99.79,3,Daniel Wood,Texarkana Pleasant Grove,96.34,244.94,151.95,238.14,635.03,Single-ply,SBD,M
Boys,99.79,4,Thomas Reynolds,Marshall,96.16,215.46,113.4,204.12,532.97,Single-ply,SBD,M
Boys,99.79,5,Cory Dawson,Marshall,94.17,185.97,124.74,213.19,523.9,Single-ply,SBD,M
Boys,99.79,6,Christian Williams #5,Longview,93.53,192.78,99.79,226.8,519.36,Single-ply,SBD,M
Boys,99.79,7,Warren Lemons,Longview,91.72,179.17,111.13,188.24,478.54,Single-ply,SBD,M
Boys,99.79,8,Chris Robertson,Daingerfield,94.12,170.1,106.59,188.24,464.93,Single-ply,SBD,M
Boys,99.79,9,Naaman Scott,Nacogdoches,93.62,167.83,108.86,167.83,444.52,Single-ply,SBD,M
Boys,99.79,10,Steven Stone,Big Sandy,99.52,185.97,106.59,151.95,444.52,Single-ply,SBD,M
Boys,99.79,11,Cody Richardson,Gladewater Sabine,95.71,161.03,111.13,170.1,442.25,Single-ply,SBD,M
Boys,99.79,12,Marco Jaramillo,Hallsville,94.44,140.61,111.13,172.37,424.11,Single-ply,SBD,M
Boys,99.79,13,Randal Hawkins,Simms Bowie,98.43,158.76,83.91,181.44,424.11,Single-ply,SBD,M
Boys,99.79,14,Michael Ayers,Big Sandy,91.9,151.95,99.79,147.42,399.16,Single-ply,SBD,M
Boys,99.79,15,Tk Campbell,Ore City,96.62,163.29,68.04,158.76,390.09,Single-ply,SBD,M
Boys,99.79,16,James Davis,Hallsville,92.26,120.2,92.99,151.95,365.14,Single-ply,SBD,M
Boys,99.79,17,Joseph Bedsole,Mcleod,94.62,102.06,65.77,115.67,283.5,Single-ply,SBD,M
Boys,99.79,18,Jaquan Kelly,Marshall,93.89,217.72,,,217.72,Single-ply,S,M
Boys,99.79,19,Dakota Pepper,New London West Rusk,97.07,172.37,,,172.37,Single-ply,S,M
Boys,109.77,1,Josh Webster,Texarkana Liberty-Eylau,108.59,249.48,167.83,251.74,669.05,Single-ply,SBD,M
Boys,109.77,2,Timmy Williams,White Oak,102.06,242.67,147.42,217.72,607.81,Single-ply,SBD,M
Boys,109.77,3,Donavon Webb,Longview,101.51,217.72,102.06,197.31,517.1,Single-ply,SBD,M
Boys,109.77,4,Stephen Whitehurst,White Oak,107.77,210.92,115.67,190.51,517.1,Single-ply,SBD,M
Boys,109.77,5,Xavier Gordon,Nacogdoches,109.04,195.04,111.13,176.9,483.08,Single-ply,SBD,M
Boys,109.77,6,Keaton Smith,Daingerfield,101.06,170.1,90.72,195.04,455.86,Single-ply,SBD,M
Boys,109.77,7,Jordan Hagar,Gladewater Sabine,100.61,163.29,106.59,158.76,428.64,Single-ply,SBD,M
Boys,109.77,8,Michael Keen,New London West Rusk,106.41,163.29,83.91,163.29,410.5,Single-ply,SBD,M
Boys,109.77,9,Levi Wingate,New London West Rusk,104.05,142.88,99.79,161.03,403.7,Single-ply,SBD,M
Boys,109.77,10,Terrence Daniels,Gladewater Sabine,101.79,217.72,142.88,,360.61,Single-ply,SB,M
Boys,109.77,11,Ty Lawless,Elysian Fields,107.5,226.8,,,226.8,Single-ply,S,M
Boys,109.77,12,Ryan Ayers,Hallsville,107.68,156.49,,,156.49,Single-ply,S,M
Boys,109.77,13,Anthony Strickland,Big Sandy,100.61,140.61,,,140.61,Single-ply,S,M
Boys,109.77,DQ,Kyle Youngblood,Laird Hill Leveretts Chapel,109.68,,,,,Single-ply,S,M
Boys,109.77,DQ,Brandon Williams #4,Marshall,109.32,,,,,Single-ply,S,M
Boys,124.74,1,Dylan Sells,Gladewater,120.66,263.08,181.44,258.55,703.07,Single-ply,SBD,M
Boys,124.74,2,Garrett Kruse,Simms Bowie,119.75,254.01,136.08,222.26,612.35,Single-ply,SBD,M
Boys,124.74,3,Teven Trammell,Marshall,119.93,235.87,147.42,210.92,594.21,Single-ply,SBD,M
Boys,124.74,4,Kyle Pack,Hallsville,120.66,240.4,136.08,208.65,585.13,Single-ply,SBD,M
Boys,124.74,5,Christian Noyola,Troup,117.57,217.72,142.88,206.38,566.99,Single-ply,SBD,M
Boys,124.74,6,Tyler Hudson,Elysian Fields,124.74,226.8,142.88,174.63,544.31,Single-ply,SBD,M
Boys,124.74,7,Alex Ingram #2,Hughes Springs,116.12,192.78,142.88,204.12,539.77,Single-ply,SBD,M
Boys,124.74,8,Chris Malen,Longview,114.03,183.7,127.01,226.8,537.51,Single-ply,SBD,M
Boys,124.74,9,Jacob Witt,Diana New Diana,120.66,195.04,111.13,226.8,532.97,Single-ply,SBD,M
Boys,124.74,10,Ryan Russell,Hughes Springs,119.48,201.85,127.01,192.78,521.63,Single-ply,SBD,M
Boys,124.74,11,Jesse Hanson,Daingerfield,123.56,199.58,111.13,165.56,476.27,Single-ply,SBD,M
Boys,124.74,12,Jeremy Wiggington,Elysian Fields,124.47,195.04,102.06,172.37,469.47,Single-ply,SBD,M
Boys,124.74,13,Stetson Voltuntine,Gladewater Union Grove,114.85,147.42,104.33,185.97,437.72,Single-ply,SBD,M
Boys,124.74,14,Jacob Etchelecu,Hallsville,120.56,149.69,108.86,154.22,412.77,Single-ply,SBD,M
Boys,124.74+,1,Ethan Perkins,Nacogdoches,131.09,306.17,165.56,267.62,739.36,Single-ply,SBD,M
Boys,124.74+,2,Cordero Hudson,Troup,162.39,235.87,170.1,231.33,637.3,Single-ply,SBD,M
Boys,124.74+,3,Brandon Gholston,Daingerfield,128.82,244.94,127.01,204.12,576.06,Single-ply,SBD,M
Boys,124.74+,4,Sidney Price,Texarkana Liberty-Eylau,158.76,208.65,142.88,199.58,551.11,Single-ply,SBD,M
Boys,124.74+,5,Mason Faber,White Oak,128.82,233.6,142.88,172.37,548.85,Single-ply,SBD,M
Boys,124.74+,6,Marquan Edmond,Texarkana Liberty-Eylau,154.4,226.8,127.01,192.78,546.58,Single-ply,SBD,M
Boys,124.74+,7,Joshua Byrd,Marshall,139.53,213.19,120.2,190.51,523.9,Single-ply,SBD,M
Boys,124.74+,8,Landon Whitten,Big Sandy,129.73,195.04,122.47,188.24,505.76,Single-ply,SBD,M
Boys,124.74+,9,Cameron Sturns,Nacogdoches,133.27,195.04,115.67,181.44,492.15,Single-ply,SBD,M
Boys,124.74+,10,Brian Bouzek,Diana New Diana,126.55,190.51,113.4,181.44,485.34,Single-ply,SBD,M
Boys,124.74+,11,D'Land Jones,New London West Rusk,135.62,185.97,106.59,163.29,455.86,Single-ply,SBD,M
