Name,WeightClassKg,Division,Best3SquatKg,Best3BenchKg,Best3DeadliftKg,TotalKg,Sex,Event,Equipment,Place
Joe Icenhour,82.5,M-O,214.55,134.72,249.93,599.2,M,SBD,Single-ply,1
Jesse Canton,90,M-Jr,174.63,114.76,227.25,516.64,M,SBD,Single-ply,1
Tom Haggenmiller,100,M-M2b,149.69,134.72,219.99,504.39,M,SBD,Single-ply,1
Rich Edinger,125,M-O,297.1,187.33,264.9,749.33,M,SBD,Single-ply,1
John Whitaker,125+,M-Jr,64.86,192.32,64.86,322.05,M,SBD,Single-ply,1
