Division,WeightClassKg,Place,Name,Team,BodyweightKg,Best3SquatKg,Best3BenchKg,Best3DeadliftKg,TotalKg,Equipment,Event,Sex
Boys,55.79,1,Max Snodgrass,Blooming Grove,51.8,108.86,61.23,120.2,290.3,Single-ply,SBD,M
Boys,51.71,2,Tyler Warren,Blooming Grove,47.36,83.91,38.56,86.18,208.65,Single-ply,SBD,M
Boys,51.71,3,James Hughes #5,Rice,46.18,77.11,49.9,79.38,206.38,Single-ply,SBD,M
Boys,51.71,4,Storm Frazier,Oakridge School,42.73,63.5,36.29,81.65,181.44,Single-ply,SBD,M
Boys,59.87,1,Nathan Stibbens,Scurry-Rosser,56.02,129.27,61.23,108.86,299.37,Single-ply,SBD,M
Boys,55.79,2,Josh Matheson,Mabank,55.43,95.25,68.04,106.59,269.89,Single-ply,SBD,M
Boys,55.79,3,Michael Anderson,Wortham,52.62,56.7,52.16,90.72,199.58,Single-ply,SBD,M
Boys,55.79,DQ,Daniel Donoho,Corsicana Mildred,55.79,,,,,Single-ply,SBD,M
Boys,55.79,DQ,Garrett May,Corsicana Mildred,55.79,,,,,Single-ply,SBD,M
Boys,59.87,1,Jt Delay,Mabank,59.24,136.08,79.38,147.42,362.87,Single-ply,SBD,M
Boys,59.87,2,Manny Aerola,Maypearl,56.38,136.08,77.11,136.08,349.27,Single-ply,SBD,M
Boys,59.87,3,Tate Hartley,Buffalo,58.06,129.27,79.38,136.08,344.73,Single-ply,SBD,M
Boys,59.87,4,Andres Diaz,Teague,58.69,131.54,70.31,138.35,340.19,Single-ply,SBD,M
Boys,59.87,5,Austin White,Eustace,59.87,120.2,70.31,149.69,340.19,Single-ply,SBD,M
Boys,59.87,6,Johnny White,Eustace,58.06,136.08,65.77,133.81,335.66,Single-ply,SBD,M
Boys,59.87,7,Shaquille Fields,Rice,58.88,117.93,68.04,127.01,312.98,Single-ply,SBD,M
Boys,59.87,8,Eric Lewis,Corsicana Mildred,59.87,120.2,61.23,129.27,310.71,Single-ply,SBD,M
Boys,59.87,9,Sergi Larson,Corsicana Mildred,58.56,113.4,70.31,122.47,306.17,Single-ply,SBD,M
Boys,59.87,10,Luis Domingus,Rice,59.78,108.86,65.77,120.2,294.84,Single-ply,SBD,M
Boys,59.87,11,Aditya Misra,Oakridge School,58.42,113.4,61.23,111.13,285.76,Single-ply,SBD,M
Boys,59.87,12,Alan Torres,Palmer,59.6,63.5,70.31,120.2,254.01,Single-ply,SBD,M
Boys,59.87,13,Bailey Hogan,Wortham,59.65,83.91,65.77,102.06,251.74,Single-ply,SBD,M
Boys,59.87,DQ,Ahmed Abuhattab,Eustace,59.87,,,,,Single-ply,SBD,M
Boys,59.87,DQ,Brazos Sepert,Maypearl,58.47,95.25,,,,Single-ply,SBD,M
Boys,67.13,1,Si Fridiley,Mabank,67.04,204.12,142.88,188.24,535.24,Single-ply,SBD,M
Boys,67.13,2,Trey Davis,Blooming Grove,67.13,195.04,102.06,201.85,498.95,Single-ply,SBD,M
Boys,74.84,3,Ben Song,Oakridge School,67.22,172.37,111.13,170.1,453.59,Single-ply,SBD,M
Boys,67.13,4,Justin Digman,Rice,66.04,163.29,81.65,156.49,401.43,Single-ply,SBD,M
Boys,67.13,5,Michael Collins #9,Eustace,67.09,154.22,81.65,165.56,401.43,Single-ply,SBD,M
Boys,67.13,6,Dylan Stough,Rice,65.59,149.69,88.45,154.22,392.36,Single-ply,SBD,M
Boys,67.13,7,Spencer Morris,Blooming Grove,66.59,151.95,83.91,151.95,387.82,Single-ply,SBD,M
Boys,67.13,8,Tanner Perales,Teague,65.68,147.42,86.18,151.95,385.55,Single-ply,SBD,M
Boys,74.84,9,Blake Lehew,Maypearl,67.36,136.08,108.86,136.08,381.02,Single-ply,SBD,M
Boys,67.13,10,Ethan Tennyson,Eustace,63.96,136.08,90.72,136.08,362.87,Single-ply,SBD,M
Boys,67.13,11,Justin Warner,Eustace,65.82,131.54,83.91,138.35,353.8,Single-ply,SBD,M
Boys,67.13,12,Kane Butler,Wortham,61.37,140.61,90.72,113.4,344.73,Single-ply,SBD,M
Boys,67.13,13,Oscar Bonilla,Corsicana Mildred,62.96,127.01,70.31,142.88,340.19,Single-ply,SBD,M
Boys,67.13,14,Calvin Young,Buffalo,66.86,124.74,72.57,142.88,340.19,Single-ply,SBD,M
Boys,67.13,15,Derian Hatcher,Scurry-Rosser,65.77,133.81,61.23,117.93,312.98,Single-ply,SBD,M
Boys,67.13,16,Haven Proulx,Wortham,66.22,77.11,52.16,102.06,231.33,Single-ply,SBD,M
Boys,74.84,1,Alejo Diaz,Teague,71.94,215.46,99.79,226.8,542.04,Single-ply,SBD,M
Boys,74.84,2,Jose Dominguez,Buffalo,74.03,170.1,122.47,170.1,462.66,Single-ply,SBD,M
Boys,74.84,3,Jake Wasinger,Blooming Grove,74.3,161.03,102.06,174.63,437.72,Single-ply,SBD,M
Boys,74.84,4,Moises Perez,Palmer,70.76,158.76,92.99,156.49,408.23,Single-ply,SBD,M
Boys,74.84,5,Robert Dominguez,Mabank,71.76,156.49,81.65,163.29,401.43,Single-ply,SBD,M
Boys,74.84,6,Colton Turbeville,Scurry-Rosser,74.03,151.95,97.52,151.95,401.43,Single-ply,SBD,M
Boys,82.1,7,Bart McGaughy,Palmer,75.02,131.54,106.59,158.76,396.89,Single-ply,SBD,M
Boys,74.84,8,Luke Price,Palmer,73.21,129.27,95.25,170.1,394.63,Single-ply,SBD,M
Boys,74.84,9,John Carter,Rice,74.03,149.69,86.18,158.76,394.63,Single-ply,SBD,M
Boys,74.84,10,Rylee Littrell,Scurry-Rosser,70.44,161.03,92.99,136.08,390.09,Single-ply,SBD,M
Boys,82.1,11,Jacob Davis,Corsicana Mildred,74.89,154.22,95.25,136.08,385.55,Single-ply,SBD,M
Boys,74.84,12,Rob Baldree,Blooming Grove,69.67,151.95,83.91,147.42,383.29,Single-ply,SBD,M
Boys,82.1,13,Jonathan Cates,Buffalo,75.02,136.08,92.99,151.95,381.02,Single-ply,SBD,M
Boys,74.84,14,Garrett Stribling,Scurry-Rosser,74.62,158.76,77.11,142.88,378.75,Single-ply,SBD,M
Boys,74.84,15,Vernon Busby,Wortham,71.44,102.06,72.57,147.42,322.05,Single-ply,SBD,M
Boys,82.1,16,Clint LaCour,Scurry-Rosser,75.07,127.01,79.38,104.33,310.71,Single-ply,SBD,M
Boys,74.84,17,Joe Ritter,Corsicana Mildred,70.67,102.06,68.04,120.2,290.3,Single-ply,SBD,M
Boys,74.84,DQ,Wallace Patrick,Corsicana Mildred,70.03,,,,,Single-ply,SBD,M
Boys,74.84,DQ,Tyler Thornsberry,Mabank,74.84,,,,,Single-ply,SBD,M
Boys,74.84,DQ,Preston Amason,Eustace,74.84,,,,,Single-ply,SBD,M
Boys,74.84,DQ,Justyn Bersterman,Eustace,74.84,,,,,Single-ply,SBD,M
Boys,74.84,DQ,Taylor Brown #4,Eustace,74.84,,,,,Single-ply,SBD,M
Boys,74.84,DQ,Chase Hamilton,Italy,68.27,120.2,,,,Single-ply,SBD,M
Boys,74.84,DQ,Stewart Chambers,Blooming Grove,70.03,,,,,Single-ply,SBD,M
Boys,74.84,DQ,Jalcoby Cox,Scurry-Rosser,69.49,111.13,83.91,,,Single-ply,SBD,M
Boys,74.84,DQ,Thomas Tilford,Scurry-Rosser,73.12,136.08,,,,Single-ply,SBD,M
Boys,74.84,DQ,David Busby,Wortham,70.03,,,,,Single-ply,SBD,M
Boys,82.1,1,Miles Wilson,Oakridge School,80.6,195.04,106.59,206.38,508.02,Single-ply,SBD,M
Boys,82.1,2,Jason Thomas,Corsicana Mildred,80.29,190.51,122.47,174.63,487.61,Single-ply,SBD,M
Boys,82.1,3,Luc Leal,Maypearl,80.69,170.1,104.33,174.63,449.06,Single-ply,SBD,M
Boys,82.1,4,Michael Hohn,Oakridge School,75.3,149.69,92.99,197.31,439.98,Single-ply,SBD,M
Boys,82.1,5,Harley Feltman,Eustace,81.65,158.76,108.86,172.37,439.98,Single-ply,SBD,M
Boys,82.1,6,Jody Bernal,Rice,81.19,136.08,104.33,172.37,412.77,Single-ply,SBD,M
Boys,82.1,7,Brock McFarland,Blooming Grove,78.74,158.76,70.31,145.15,374.21,Single-ply,SBD,M
Boys,82.1,8,Joseph Simpson,Maypearl,77.02,129.27,77.11,156.49,362.87,Single-ply,SBD,M
Boys,82.1,9,Chase Miller,Corsicana Mildred,77.11,117.93,74.84,136.08,328.85,Single-ply,SBD,M
Boys,82.1,DQ,Robert Cron,Mabank,82.1,,,,,Single-ply,SBD,M
Boys,82.1,DQ,Brandon Morris,Scurry-Rosser,80.29,156.49,72.57,,,Single-ply,SBD,M
Boys,89.81,1,Curt Allen,Oakridge School,88.09,251.74,156.49,242.67,650.91,Single-ply,SBD,M
Boys,89.81,2,Allen Harden,Palmer,86.36,204.12,147.42,204.12,555.65,Single-ply,SBD,M
Boys,89.81,3,Dustin Schultz,Mabank,89.63,204.12,127.01,190.51,521.63,Single-ply,SBD,M
Boys,89.81,4,Matthew Scarborough,Oakridge School,82.74,174.63,111.13,204.12,489.88,Single-ply,SBD,M
Boys,89.81,5,Travis Alley,Oakridge School,83.55,170.1,104.33,206.38,480.81,Single-ply,SBD,M
Boys,89.81,6,Tommy Beldin,Rice,89.18,185.97,111.13,183.7,480.81,Single-ply,SBD,M
Boys,89.81,7,Josh Ashlock,Maypearl,88.68,167.83,92.99,190.51,451.32,Single-ply,SBD,M
Boys,89.81,8,Ben Torres,Rice,86.64,181.44,108.86,158.76,449.06,Single-ply,SBD,M
Boys,89.81,9,Ethan Eastwood,Maypearl,89.36,163.29,111.13,172.37,446.79,Single-ply,SBD,M
Boys,89.81,10,Corbin Russell,Corsicana Mildred,83.6,142.88,113.4,183.7,439.98,Single-ply,SBD,M
Boys,89.81,11,Omar Estrada,Italy,87.91,151.95,106.59,158.76,417.3,Single-ply,SBD,M
Boys,89.81,12,Ruben Yankie,Corsicana Mildred,89.22,147.42,88.45,158.76,394.63,Single-ply,SBD,M
Boys,89.81,13,Ethan Owens,Mabank,86.64,115.67,72.57,142.88,331.12,Single-ply,SBD,M
Boys,89.81,14,Stetson McCoy,Wortham,85.5,79.38,56.7,111.13,247.21,Single-ply,SBD,M
Boys,89.81,15,Adrian Reed,Italy,89.22,77.11,58.97,99.79,235.87,Single-ply,SBD,M
Boys,89.81,DQ,Ty Chambers,Blooming Grove,88.99,167.83,95.25,,,Single-ply,SBD,M
Boys,89.81,DQ,Jacob Rodell,Buffalo,87,156.49,83.91,,,Single-ply,SBD,M
Boys,89.81,DQ,Shawn Erskine,Wortham,85.73,77.11,70.31,,,Single-ply,SBD,M
Boys,89.81,DQ,Kelton Henderson,Teague,87.45,201.85,113.4,,,Single-ply,SBD,M
Boys,99.79,1,Tevin Busby,Teague,94.35,251.74,142.88,240.4,635.03,Single-ply,SBD,M
Boys,99.79,2,Jared Hawthorne,Buffalo,91.08,190.51,127.01,204.12,521.63,Single-ply,SBD,M
Boys,99.79,3,Whit Fagan,Oakridge School,96.52,188.24,115.67,206.38,510.29,Single-ply,SBD,M
Boys,99.79,4,Cody Graff,Palmer,98.88,181.44,113.4,181.44,476.27,Single-ply,SBD,M
Boys,99.79,5,Jonny Johnson,Teague,96.25,167.83,113.4,181.44,462.66,Single-ply,SBD,M
Boys,99.79,6,Juan Cura,Rice,94.8,163.29,113.4,161.03,437.72,Single-ply,SBD,M
Boys,99.79,7,Johnathon Perez,Scurry-Rosser,92.08,172.37,95.25,158.76,426.38,Single-ply,SBD,M
Boys,99.79,8,Chris Perez,Wortham,92.99,147.42,97.52,181.44,426.38,Single-ply,SBD,M
Boys,99.79,9,Josh Carrillo,Buffalo,91.72,170.1,90.72,142.88,403.7,Single-ply,SBD,M
Boys,99.79,10,Corey Morelock,Corsicana Mildred,99.52,124.74,90.72,151.95,367.41,Single-ply,SBD,M
Boys,99.79,11,David Allen,Scurry-Rosser,92.53,140.61,92.99,120.2,353.8,Single-ply,SBD,M
Boys,99.79,12,Dalton Hoffman,Maypearl,91.58,117.93,95.25,136.08,349.27,Single-ply,SBD,M
Boys,99.79,DQ,Taylor Barlow,Corsicana Mildred,98.43,122.47,,,,Single-ply,SBD,M
Boys,99.79,DQ,Garry Dyer,Teague,98.34,151.95,,,,Single-ply,SBD,M
Boys,109.77,1,Josh Cade,Blooming Grove,109.32,251.74,124.74,235.87,612.35,Single-ply,SBD,M
Boys,109.77,2,Greg Ormiston,Maypearl,101.06,204.12,113.4,204.12,521.63,Single-ply,SBD,M
Boys,109.77,3,Josh Ferrer,Blooming Grove,100.61,197.31,136.08,172.37,505.76,Single-ply,SBD,M
Boys,109.77,4,Oscar Lopez,Maypearl,104.55,172.37,117.93,206.38,496.68,Single-ply,SBD,M
Boys,109.77,5,Cameron Kile,Mabank,108.86,185.97,115.67,179.17,480.81,Single-ply,SBD,M
Boys,109.77,6,Scott Crudup,Oakridge School,105.41,183.7,111.13,183.7,478.54,Single-ply,SBD,M
Boys,109.77,DQ,Ty Williams,Wortham,101.06,142.88,,,,Single-ply,SBD,M
Boys,109.77,DQ,Seferino Pina,Palmer,107.37,,,,,Single-ply,SBD,M
Boys,124.74,1,Beau Jenkins,Corsicana Mildred,112.13,195.04,131.54,197.31,523.9,Single-ply,SBD,M
Boys,124.74,2,Kyle Marshall,Scurry-Rosser,117.03,217.72,131.54,174.63,523.9,Single-ply,SBD,M
Boys,124.74,3,Tyler Heard,Scurry-Rosser,115.39,183.7,111.13,147.42,442.25,Single-ply,SBD,M
Boys,124.74,4,Raul Torres,Palmer,114.4,117.93,88.45,163.29,369.68,Single-ply,SBD,M
Boys,124.74,5,Bryce Buchmeyer,Wortham,117.62,115.67,61.23,113.4,290.3,Single-ply,SBD,M
Boys,124.74,6,Jd Robinson,Wortham,115.44,102.06,54.43,115.67,272.16,Single-ply,SBD,M
Boys,124.74,DQ,Skyler McFarlin,Eustace,124.74,,,,,Single-ply,SBD,M
Boys,124.74+,1,Drew Cosper,Mabank,153.86,238.14,151.95,158.76,548.85,Single-ply,SBD,M
Boys,124.74+,2,Keith Gooden,Oakridge School,131.9,217.72,113.4,215.46,546.58,Single-ply,SBD,M
Boys,124.74+,3,Nick Barlow,Corsicana Mildred,143.56,104.33,88.45,158.76,351.53,Single-ply,SBD,M
