Division,WeightClassKg,Place,Name,Team,BodyweightKg,Best3SquatKg,Best3BenchKg,Best3DeadliftKg,TotalKg,Equipment,Event,Sex
Boys,51.71,1,Billy Fielder,Mansfield Summit,46.27,88.45,45.36,92.99,226.8,Single-ply,SBD,M
Boys,51.71,2,Dominic Serefano,Mansfield Lake Ridge,50.58,72.57,47.63,95.25,215.46,Single-ply,SBD,M
Boys,55.79,1,Jonah Whitlock,Mansfield,55.79,124.74,61.23,136.08,322.05,Single-ply,SBD,M
Boys,55.79,2,Micah Roberson,Mansfield Summit,54.88,104.33,61.23,111.13,276.69,Single-ply,SBD,M
Boys,59.87,1,Jackson Greer,Mansfield Legacy,59.19,163.29,90.72,154.22,408.23,Single-ply,SBD,M
Boys,59.87,2,Zimbalist Odhams,Mansfield Lake Ridge,59.65,142.88,102.06,147.42,392.36,Single-ply,SBD,M
Boys,67.13,1,Danny Sobrepena,Mansfield Lake Ridge,66.68,204.12,102.06,229.06,535.24,Single-ply,SBD,M
Boys,67.13,2,Dominic Bird,Mansfield Legacy,66.22,174.63,95.25,188.24,458.13,Single-ply,SBD,M
Boys,67.13,3,Triston McDonald,Mansfield Timberview,65.32,183.7,95.25,174.63,453.59,Single-ply,SBD,M
Boys,67.13,4,Andrew Alcala,Mansfield Timberview,61.01,151.95,79.38,129.27,360.61,Single-ply,SBD,M
Boys,67.13,5,Gabriel Barkwell,Garland Rowlett,66.9,124.74,83.91,147.42,356.07,Single-ply,SBD,M
Boys,67.13,6,Tyler Moores,Mansfield Legacy,62.6,122.47,58.97,127.01,308.44,Single-ply,SBD,M
Boys,67.13,7,Kayode Gbadebo,Mansfield Summit,60.33,113.4,54.43,99.79,267.62,Single-ply,SBD,M
Boys,74.84,1,Joseph Cartez,Mansfield Summit,69.4,195.04,129.27,185.97,510.29,Single-ply,SBD,M
Boys,74.84,2,Calvion Porter,Mansfield Summit,73.48,185.97,124.74,192.78,503.49,Single-ply,SBD,M
Boys,74.84,3,Trebion Battles,Garland Rowlett,70.31,188.24,104.33,183.7,476.27,Single-ply,SBD,M
Boys,74.84,4,Cameron Kongamnach,Garland Rowlett,69.17,161.03,113.4,154.22,428.64,Single-ply,SBD,M
Boys,74.84,5,Brett Lynch,Cedar Hill,73.94,158.76,90.72,170.1,419.57,Single-ply,SBD,M
Boys,74.84,6,Hayden Ivie,Mansfield,74.84,151.95,97.52,167.83,417.3,Single-ply,SBD,M
Boys,74.84,7,Austin Fortenberry,Mansfield Lake Ridge,74.84,151.95,83.91,172.37,408.23,Single-ply,SBD,M
Boys,74.84,8,Jeremiah Pierce,Duncanville,67.36,111.13,70.31,131.54,312.98,Single-ply,SBD,M
Boys,74.84,9,Myles Maldonado,Mansfield Legacy,71.67,104.33,49.9,149.69,303.91,Single-ply,SBD,M
Boys,74.84,10,Grant Gibson,Mansfield Legacy,67.81,61.23,56.7,142.88,260.82,Single-ply,SBD,M
Boys,82.1,1,Xavier Tolliver,Mansfield Summit,80.74,238.14,122.47,240.4,601.01,Single-ply,SBD,M
Boys,82.1,2,Kufre Upkong,Mansfield Summit,81.19,219.99,122.47,240.4,582.87,Single-ply,SBD,M
Boys,82.1,3,James Windsor,Mansfield,78.47,145.15,102.06,181.44,428.64,Single-ply,SBD,M
Boys,82.1,4,Demari Ward,Cedar Hill,76.43,158.76,86.18,181.44,426.38,Single-ply,SBD,M
Boys,82.1,5,Aaron Brown,Cedar Hill,80.06,154.22,92.99,170.1,417.3,Single-ply,SBD,M
Boys,82.1,6,Jerametrius Butler,Cedar Hill,77.11,154.22,86.18,174.63,415.04,Single-ply,SBD,M
Boys,82.1,7,Eli Keeton,Duncanville,78.47,131.54,97.52,172.37,401.43,Single-ply,SBD,M
Boys,82.1,8,Tri Nyugen,Mansfield Summit,80.51,147.42,77.11,154.22,378.75,Single-ply,SBD,M
Boys,82.1,9,Bryce McCorkle,Mansfield Legacy,79.15,136.08,81.65,158.76,376.48,Single-ply,SBD,M
Boys,82.1,10,James Roberts #2,Duncanville,76.2,147.42,79.38,140.61,367.41,Single-ply,SBD,M
Boys,82.1,11,Alfredo Heredia,Mansfield Timberview,78.24,129.27,86.18,142.88,358.34,Single-ply,SBD,M
Boys,82.1,12,Donavan McFail,Duncanville,81.65,129.27,83.91,136.08,349.27,Single-ply,SBD,M
Boys,82.1,13,Jabari Baker,Duncanville,81.42,124.74,72.57,149.69,347,Single-ply,SBD,M
Boys,82.1,14,Christian Burton,Duncanville,78.24,117.93,77.11,136.08,331.12,Single-ply,SBD,M
Boys,82.1,15,Cameron Mitchell,Duncanville,79.15,117.93,74.84,136.08,328.85,Single-ply,SBD,M
Boys,82.1,16,Tyree Bell,Mansfield Summit,78.24,127.01,70.31,124.74,322.05,Single-ply,SBD,M
Boys,82.1,DQ,Ethan Nguyen,Mansfield Lake Ridge,80.97,174.63,,,,Single-ply,SBD,M
Boys,82.1,DQ,Jason Tran #2,Mansfield,79.61,158.76,79.38,,,Single-ply,SBD,M
Boys,89.81,1,Charles Ezenagu,Mansfield Summit,88.68,215.46,124.74,206.38,546.58,Single-ply,SBD,M
Boys,89.81,2,Cedric West,Cedar Hill,88,195.04,115.67,192.78,503.49,Single-ply,SBD,M
Boys,89.81,3,Jaheim Lowe,Cedar Hill,85.5,170.1,111.13,183.7,464.93,Single-ply,SBD,M
Boys,89.81,4,Jacob Dial,Mansfield Summit,84.14,122.47,65.77,122.47,310.71,Single-ply,SBD,M
Boys,89.81,DQ,Bryan Mitchell,Mansfield Timberview,87.09,149.69,,,,Single-ply,SBD,M
Boys,89.81,DQ,Paul Gbolabo,Mansfield Timberview,88.45,206.38,,,,Single-ply,SBD,M
Boys,99.79,1,Gabriel Olenga,Mansfield Timberview,96.84,204.12,113.4,219.99,537.51,Single-ply,SBD,M
Boys,99.79,2,Adam Sawalha,Mansfield Lake Ridge,97.75,201.85,102.06,213.19,517.1,Single-ply,SBD,M
Boys,99.79,3,Jalynn Wilson,Cedar Hill,95.48,197.31,92.99,219.99,510.29,Single-ply,SBD,M
Boys,99.79,4,Jonathan Jaiyeola,Garland Rowlett,99.56,190.51,95.25,204.12,489.88,Single-ply,SBD,M
Boys,99.79,5,Joseph Adedire,Mansfield Summit,95.48,158.76,92.99,172.37,424.11,Single-ply,SBD,M
Boys,99.79,6,Jeremiah Mitchell,Mansfield Lake Ridge,94.35,138.35,117.93,163.29,419.57,Single-ply,SBD,M
Boys,99.79,7,Kaleb Davis,Mansfield Timberview,93.89,149.69,90.72,165.56,405.97,Single-ply,SBD,M
Boys,99.79,8,Marcus McCall,Duncanville,98.2,142.88,79.38,154.22,376.48,Single-ply,SBD,M
Boys,99.79,DQ,Amari Easton,Mansfield Timberview,98.66,,,,,Single-ply,SBD,M
Boys,109.77,1,Demonde Green,Mansfield Timberview,107.27,217.72,122.47,217.72,557.92,Single-ply,SBD,M
Boys,109.77,2,Armani Cathey,Mansfield Timberview,104.78,213.19,127.01,204.12,544.31,Single-ply,SBD,M
Boys,109.77,3,Harrison Myers,Mansfield,105.01,181.44,122.47,226.8,530.7,Single-ply,SBD,M
Boys,109.77,4,Javeon Artist,Mansfield Timberview,102.29,192.78,122.47,197.31,512.56,Single-ply,SBD,M
Boys,109.77,5,Philllip Lotaire,Cedar Hill,102.51,195.04,97.52,192.78,485.34,Single-ply,SBD,M
Boys,109.77,6,D'Alishawn Grooms,Cedar Hill,100.7,181.44,88.45,192.78,462.66,Single-ply,SBD,M
Boys,124.74,1,Caleb Rogers,Mansfield Lake Ridge,119.75,226.8,108.86,199.58,535.24,Single-ply,SBD,M
Boys,124.74,2,Avary Davis,Mansfield Summit,111.58,208.65,124.74,183.7,517.1,Single-ply,SBD,M
Boys,124.74,3,KaDarian Miles,Duncanville,112.04,149.69,102.06,183.7,435.45,Single-ply,SBD,M
Boys,124.74,4,Jordan Allen,Mansfield Lake Ridge,117.03,163.29,88.45,158.76,410.5,Single-ply,SBD,M
Boys,124.74,5,Kaden Saey,Duncanville,122.7,136.08,79.38,149.69,365.14,Single-ply,SBD,M
Boys,124.74,DQ,Kedric Williams,Duncanville,111.36,142.88,,,,Single-ply,SBD,M
Boys,124.74,DQ,Adeloni Oyelode,Mansfield Summit,118.61,183.7,,,,Single-ply,SBD,M
Boys,124.74,DQ,Garrett Little,Mansfield Legacy,117.93,170.1,106.59,,,Single-ply,SBD,M
Boys,124.74+,1,Joshua Gilliam,Mansfield Timberview,139.93,308.44,154.22,247.21,709.87,Single-ply,SBD,M
Boys,124.74+,2,Gabriel Aplicano-Tito,Garland Rowlett,140.16,254.01,138.35,224.53,616.89,Single-ply,SBD,M
Boys,124.74+,3,Jeremiah Franks,Garland Rowlett,126.55,263.08,127.01,192.78,582.87,Single-ply,SBD,M
