Division,WeightClassKg,Place,Name,Team,BodyweightKg,Best3SquatKg,Best3BenchKg,Best3DeadliftKg,TotalKg,Equipment,Event,Sex
Boys,51.71,1,Jesus Puente,La Joya Palmview,51.53,147.42,88.45,167.83,403.7,Single-ply,SBD,M
Boys,51.71,2,Felipe Garza,McAllen,48.72,117.93,92.99,136.08,347,Single-ply,SBD,M
Boys,51.71,3,Martin Alaniz,Sharyland Pioneer,51.44,129.27,65.77,145.15,340.19,Single-ply,SBD,M
Boys,51.71,4,Luis Garcia #9,Sharyland Pioneer,51.66,90.72,47.63,102.06,240.4,Single-ply,SBD,M
Boys,51.71,5,Antonio Pena,Mission Veterans Memorial,51.53,83.91,40.82,104.33,229.06,Single-ply,SBD,M
Boys,51.71,6,Victor Vazquez,Sharyland Pioneer,50.17,83.91,43.09,83.91,210.92,Single-ply,SBD,M
Boys,55.79,1,Kevin Trevino,McAllen Memorial,54.52,158.76,115.67,172.37,446.79,Single-ply,SBD,M
Boys,55.79,2,Javier Farias,Mission,55.07,165.56,72.57,201.85,439.98,Single-ply,SBD,M
Boys,55.79,3,Fernando Mendoza,McAllen Rowe,54.2,127.01,81.65,151.95,360.61,Single-ply,SBD,M
Boys,55.79,4,David Garza,La Joya Juarez-Lincoln,52.12,113.4,65.77,120.2,299.37,Single-ply,SBD,M
Boys,59.87,1,Patricio Chavez,Mission Sharyland,56.25,183.7,83.91,174.63,442.25,Single-ply,SBD,M
Boys,59.87,2,Ethan Inocando,Mission Sharyland,59.78,158.76,79.38,174.63,412.77,Single-ply,SBD,M
Boys,59.87,3,Lino Rivera,La Joya,59.65,147.42,74.84,151.95,374.21,Single-ply,SBD,M
Boys,67.13,1,Dylan Bazarte,Mission Sharyland,64.64,190.51,108.86,208.65,508.02,Single-ply,SBD,M
Boys,67.13,2,Mario Marquez,Mission,64.27,206.38,106.59,192.78,505.76,Single-ply,SBD,M
Boys,67.13,3,Hugo Rodriguez,McAllen,61.51,183.7,115.67,183.7,483.08,Single-ply,SBD,M
Boys,67.13,4,Kameron Maples,McAllen Memorial,65.86,149.69,106.59,172.37,428.64,Single-ply,SBD,M
Boys,67.13,5,Augustin Chapa,Rio Grande City,67.04,161.03,102.06,161.03,424.11,Single-ply,SBD,M
Boys,67.13,6,Carlos Arjona,La Joya Palmview,67.13,163.29,97.52,142.88,403.7,Single-ply,SBD,M
Boys,67.13,7,Leonardo Perez,Mission,66.63,129.27,92.99,170.1,392.36,Single-ply,SBD,M
Boys,67.13,8,Anthony Trevino,Rio Grande City Grulla,62.82,127.01,90.72,165.56,383.29,Single-ply,SBD,M
Boys,67.13,9,Eleazar Garcia Jr,Rio Grande City,64.86,145.15,97.52,138.35,381.02,Single-ply,SBD,M
Boys,67.13,10,Adan Elizondo,La Joya,66.9,122.47,92.99,147.42,362.87,Single-ply,SBD,M
Boys,67.13,11,Diego Mendez,McAllen,61.73,124.74,68.04,136.08,328.85,Single-ply,SBD,M
Boys,67.13,DQ,Roman Zarate,Rio Grande City Grulla,62.96,117.93,,,,Single-ply,SBD,M
Boys,67.13,DQ,Misael Lopez,Rio Grande City Grulla,63.14,90.72,,,,Single-ply,SBD,M
Boys,67.13,DQ,Yahir Puente,McAllen Memorial,66,,,,,Single-ply,SBD,M
Boys,67.13,DQ,Justin Chairez,McAllen Memorial,64.73,190.51,,,,Single-ply,SBD,M
Boys,74.84,1,Adrian Leija,Mission Veterans Memorial,69.4,176.9,127.01,185.97,489.88,Single-ply,SBD,M
Boys,74.84,2,Fabian Rodriguez,McAllen Memorial,74.48,183.7,131.54,163.29,478.54,Single-ply,SBD,M
Boys,74.84,3,Ruben Saenz III,McAllen Rowe,69.08,167.83,97.52,163.29,428.64,Single-ply,SBD,M
Boys,74.84,4,Brian Pena,Rio Grande City,74.48,167.83,106.59,154.22,428.64,Single-ply,SBD,M
Boys,74.84,5,Michael Tamez,La Joya Palmview,69.94,163.29,90.72,163.29,417.3,Single-ply,SBD,M
Boys,74.84,6,Andres Reyes,McAllen Memorial,71.44,136.08,92.99,174.63,403.7,Single-ply,SBD,M
Boys,74.84,7,Eddie Fraire,La Joya Palmview,74.8,165.56,92.99,142.88,401.43,Single-ply,SBD,M
Boys,74.84,8,Josh Ortiz,McAllen Rowe,70.94,140.61,86.18,131.54,358.34,Single-ply,SBD,M
Boys,74.84,DQ,Abel Marquez,Mission Veterans Memorial,70.49,90.72,83.91,,,Single-ply,SBD,M
Boys,82.1,1,Sebastian Sanchez,Mission Sharyland,82.1,210.92,120.2,217.72,548.85,Single-ply,SBD,M
Boys,82.1,2,Andrew Torres,Sharyland Pioneer,80.97,183.7,122.47,167.83,474,Single-ply,SBD,M
Boys,82.1,3,Elian Padilla,La Joya Juarez-Lincoln,81.47,167.83,108.86,170.1,446.79,Single-ply,SBD,M
Boys,82.1,4,Alex Herrera,La Joya Palmview,77.52,183.7,79.38,172.37,435.45,Single-ply,SBD,M
Boys,82.1,5,Leo Garcia,Mission Veterans Memorial,76.25,154.22,106.59,149.69,410.5,Single-ply,SBD,M
Boys,82.1,6,Tico Garza,La Joya,77.07,136.08,65.77,176.9,378.75,Single-ply,SBD,M
Boys,82.1,DQ,Armando Resendez,McAllen Memorial,80.88,201.85,,,,Single-ply,SBD,M
Boys,89.81,1,Oscar Mendoza,La Joya Palmview,86.68,249.48,158.76,215.46,623.69,Single-ply,SBD,M
Boys,89.81,2,Gabriel Sanchez,McAllen,88.22,251.74,131.54,204.12,587.4,Single-ply,SBD,M
Boys,89.81,3,Miguel Rendon,Mission,86.5,208.65,122.47,208.65,539.77,Single-ply,SBD,M
Boys,89.81,4,Erik Guzman,La Joya Juarez-Lincoln,87.23,185.97,142.88,195.04,523.9,Single-ply,SBD,M
Boys,89.81,5,David Saldana,McAllen Rowe,84.46,185.97,117.93,190.51,494.42,Single-ply,SBD,M
Boys,89.81,6,Benjamin Passement,McAllen,89.68,188.24,131.54,167.83,487.61,Single-ply,SBD,M
Boys,89.81,7,Cesar Escaname,McAllen Memorial,89.49,199.58,102.06,183.7,485.34,Single-ply,SBD,M
Boys,89.81,8,Jonas Ortiz,McAllen Rowe,84.59,172.37,111.13,190.51,474,Single-ply,SBD,M
Boys,89.81,9,Aljandro Garcia,McAllen,88.99,183.7,88.45,185.97,458.13,Single-ply,SBD,M
Boys,89.81,10,Marc Garcia,La Joya,86.14,149.69,104.33,158.76,412.77,Single-ply,SBD,M
Boys,89.81,11,Caleb Fuentes,Sharyland Pioneer,88.22,158.76,99.79,149.69,408.23,Single-ply,SBD,M
Boys,89.81,12,Juan Villarreal #3,Sharyland Pioneer,82.92,142.88,97.52,142.88,383.29,Single-ply,SBD,M
Boys,89.81,13,Alex Galaviz,La Joya,85.77,131.54,72.57,142.88,347,Single-ply,SBD,M
Boys,99.79,1,Eric Gutierrez,Mission,93.03,222.26,136.08,204.12,562.45,Single-ply,SBD,M
Boys,99.79,2,Bryan Rosalses,Mission,94.76,195.04,120.2,226.8,542.04,Single-ply,SBD,M
Boys,99.79,3,Jesus Chavana,La Joya,99.06,204.12,102.06,224.53,530.7,Single-ply,SBD,M
Boys,99.79,4,Daniel Alejandro,McAllen Rowe,99.74,197.31,136.08,190.51,523.9,Single-ply,SBD,M
Boys,99.79,5,Aj Flores,Mission,91.58,188.24,113.4,219.99,521.63,Single-ply,SBD,M
Boys,99.79,6,Ezequiel Garcia,La Joya Juarez-Lincoln,99.16,197.31,129.27,185.97,512.56,Single-ply,SBD,M
Boys,99.79,7,John Garcia,Mission Veterans Memorial,93.8,204.12,120.2,179.17,503.49,Single-ply,SBD,M
Boys,99.79,8,Erik Flores,La Joya Juarez-Lincoln,94.94,197.31,111.13,176.9,485.34,Single-ply,SBD,M
Boys,99.79,9,Zac Compean,Rio Grande City,94.8,188.24,108.86,163.29,460.4,Single-ply,SBD,M
Boys,99.79,10,Arturo Del Angel,La Joya,95.44,163.29,117.93,176.9,458.13,Single-ply,SBD,M
Boys,99.79,11,Adrian Villegas,Mission,97.93,165.56,102.06,190.51,458.13,Single-ply,SBD,M
Boys,99.79,12,Anthony Oliveira #2,Mission Veterans Memorial,90.72,181.44,86.18,145.15,412.77,Single-ply,SBD,M
Boys,99.79,13,Abelino Lopez,Rio Grande City Grulla,92.53,115.67,88.45,181.44,385.55,Single-ply,SBD,M
Boys,99.79,14,Jovanny Lopez,Rio Grande City Grulla,98.38,147.42,83.91,133.81,365.14,Single-ply,SBD,M
Boys,99.79,15,Victoriano Chapa,Rio Grande City Grulla,96.75,106.59,65.77,129.27,301.64,Single-ply,SBD,M
Boys,109.77,1,Daniel Domian,McAllen Memorial,108.5,238.14,165.56,217.72,621.42,Single-ply,SBD,M
Boys,109.77,2,Carlos Calvillo,La Joya,107.68,195.04,104.33,190.51,489.88,Single-ply,SBD,M
Boys,109.77,3,Christian Hernandez,La Joya Juarez-Lincoln,107.41,174.63,113.4,190.51,478.54,Single-ply,SBD,M
Boys,109.77,4,Alexandra Guerra,McAllen Memorial,109.77,195.04,104.33,176.9,476.27,Single-ply,SBD,M
Boys,109.77,5,Gonzalo Montalvo,Rio Grande City Grulla,105.32,183.7,124.74,165.56,474,Single-ply,SBD,M
Boys,109.77,6,Rusbel Alanis,Rio Grande City Grulla,102.51,167.83,117.93,172.37,458.13,Single-ply,SBD,M
Boys,109.77,7,Kris Garza,Rio Grande City,107.41,192.78,102.06,154.22,449.06,Single-ply,SBD,M
Boys,109.77,DQ,Ryan Reyes,Rio Grande City,103.87,,,,,Single-ply,SBD,M
Boys,109.77,DQ,Benjamin Rios,Rio Grande City Grulla,106.05,,,,,Single-ply,SBD,M
Boys,124.74,1,Isreal Monsivaiz,La Joya Juarez-Lincoln,119.34,226.8,142.88,222.26,591.94,Single-ply,SBD,M
Boys,124.74,2,Steven Pedraza,McAllen,113.26,219.99,138.35,224.53,582.87,Single-ply,SBD,M
Boys,124.74,3,Jesse Garza,McAllen Rowe,118.16,197.31,142.88,210.92,551.11,Single-ply,SBD,M
Boys,124.74,4,Ezequiel Chavez,La Joya,118.34,192.78,127.01,204.12,523.9,Single-ply,SBD,M
Boys,124.74,5,Orlando Camacho,Sharyland Pioneer,117.44,165.56,142.88,190.51,498.95,Single-ply,SBD,M
Boys,124.74,6,Julian Becerra,Mission,117.66,188.24,102.06,185.97,476.27,Single-ply,SBD,M
Boys,124.74,7,Martin Rodriguez #5,McAllen,117.89,183.7,111.13,170.1,464.93,Single-ply,SBD,M
Boys,124.74+,1,Sergio Reyna,McAllen Memorial,130.5,294.84,176.9,213.19,684.92,Single-ply,SBD,M
Boys,124.74+,2,Bryan Aguillon,McAllen Rowe,138.21,272.16,149.69,247.21,669.05,Single-ply,SBD,M
Boys,124.74+,3,Jose Chavez,La Joya,176.49,226.8,158.76,260.82,646.37,Single-ply,SBD,M
Boys,124.74+,4,Steven Alvarez,Mission,124.92,251.74,158.76,224.53,635.03,Single-ply,SBD,M
Boys,124.74+,5,Jacob Mata,McAllen Rowe,141.16,190.51,163.29,195.04,548.85,Single-ply,SBD,M
Boys,124.74+,6,Aalok Zimmerman,McAllen Rowe,125.19,206.38,142.88,188.24,537.51,Single-ply,SBD,M
Boys,124.74+,7,Juan Villagomez,La Joya Juarez-Lincoln,132.54,174.63,142.88,165.56,483.08,Single-ply,SBD,M
Boys,124.74+,8,Jimmy Talamantes,McAllen Rowe,141.25,195.04,111.13,163.29,469.47,Single-ply,SBD,M
Boys,124.74+,9,Carlos Martinez #23,Mission,136.44,188.24,113.4,142.88,444.52,Single-ply,SBD,M
Boys,124.74+,DQ,Deondrey Cuevas,Rio Grande City Grulla,149.59,,,,,Single-ply,SBD,M
