Place,Name,BirthDate,Team,WeightClassKg,BodyweightKg,Squat1Kg,Squat2Kg,Squat3Kg,Best3SquatKg,Bench1Kg,Bench2Kg,Bench3Kg,Best3BenchKg,Deadlift1Kg,Deadlift2Kg,Deadlift3Kg,Best3DeadliftKg,TotalKg,Event,Equipment,Sex,Division
1,Mini Mathi M,2004-07-25,PUD,43,43,-100,100,110,110,50,55,-57.5,55,105,-115,-115,105,270,SBD,Single-ply,F,Sub-Juniors
2,Rashmitha,2003-01-07,KAR,43,42.25,82.5,87.5,90,90,-40,40,42.5,42.5,95,100,-105,100,232.5,SBD,Single-ply,F,Sub-Juniors
3,Pragthi P. Nair,2005-05-05,KER,43,43,85,92.5,97.5,97.5,25,-30,-30,25,90,92.5,100,100,222.5,SBD,Single-ply,F,Sub-Juniors
4,Mehak Akhter Borah,2002-11-21,ASA,43,43,-77.5,-77.5,82.5,82.5,30,32.5,-35,32.5,92.5,97.5,102.5,102.5,217.5,SBD,Single-ply,F,Sub-Juniors
5,Poonkuzhali L,2004-11-06,PUD,43,41.5,80,95,-110,95,25,30,-32.5,30,87.5,-102.5,-102.5,87.5,212.5,SBD,Single-ply,F,Sub-Juniors
6,Akshya P,2006-08-16,TN,43,38.7,75,90,-95,90,30,35,-37.5,35,85,-97.5,-97.5,85,210,SBD,Single-ply,F,Sub-Juniors
7,Samprickta Sen,2005-06-16,WB,43,35.8,-55,55,62.5,62.5,27.5,30,32.5,32.5,60,72.5,82.5,82.5,177.5,SBD,Single-ply,F,Sub-Juniors
8,Vidhi,2005-08-09,HAR,43,42.55,50,57.5,62.5,62.5,25,27.5,-30,27.5,60,70,-80,70,160,SBD,Single-ply,F,Sub-Juniors
9,Nazima Innayat Shaikh,2007-02-28,MAH,43,36.95,-37.5,-37.5,37.5,37.5,-25,25,,25,45,52.5,60,60,122.5,SBD,Single-ply,F,Sub-Juniors
DQ,Suhani Gawade,2005-07-21,MAH,43,39.15,-37.5,37.5,40,40,-25,-25,-25,,42.5,55,60,60,,SBD,Single-ply,F,Sub-Juniors
DQ,Khangjrakpam Rudhia Devi,2007-01-22,MAN,43,41.7,30,-35,35,35,-25,,,,35,50,-70,50,,SBD,Single-ply,F,Sub-Juniors
DQ,M. Jyothi,2003-07-07,AP,43,42.55,-75,-75,-75,,25,30,-35,30,90,95,-102.5,95,,SBD,Single-ply,F,Sub-Juniors
1,Raveena,2002-08-15,DEL,47,46.1,-105,105,110,110,47.5,55,60,60,95,105,-110,105,275,SBD,Single-ply,F,Sub-Juniors
2,Pranjali Narawade,2003-01-25,MAH,47,46.5,95,105,-112.5,105,-45,45,50,50,90,97.5,-105,97.5,252.5,SBD,Single-ply,F,Sub-Juniors
3,Jasmine P,2006-06-15,TN,47,45.95,95,102.5,-110,102.5,40,-45,-45,40,100,105,107.5,107.5,250,SBD,Single-ply,F,Sub-Juniors
4,Anjana Krishnan V K,2006-09-12,KER,47,45.65,102.5,-112,-112.5,102.5,42.5,-45,-45,42.5,102.5,-110,-110,102.5,247.5,SBD,Single-ply,F,Sub-Juniors
5,Monica V,2002-07-23,PUD,47,44.3,85,95,-102.5,95,35,37.5,40,40,85,95,-100,95,230,SBD,Single-ply,F,Sub-Juniors
6,Madhumita Gogoi,2002-04-08,ASA,47,47,65,-75,-77.5,65,27.5,30,-32.5,30,90,-97.5,-97.5,90,185,SBD,Single-ply,F,Sub-Juniors
7,P. Pravalika,2007-01-10,AP,47,47,-65,65,,65,35,,,35,80,,,80,180,SBD,Single-ply,F,Sub-Juniors
8,S. Pravalika,2003-07-06,TEL,47,47,60,,,60,35,,,35,80,,,80,175,SBD,Single-ply,F,Sub-Juniors
9,Seema Donde,2002-10-20,GUJ,47,46.1,40,50,55,55,27.5,-30,-30,27.5,65,75,85,85,167.5,SBD,Single-ply,F,Sub-Juniors
DQ,Sowjanya,2005-06-03,KAR,47,46.9,50,60,65,65,-27.5,-27.5,-27.5,,70,77.5,80,80,,SBD,Single-ply,F,Sub-Juniors
1,A. Joshna,2006-01-30,AP,52,51.4,110,122.5,130,130,45,55,-57.5,55,110,120,127.5,127.5,312.5,SBD,Single-ply,F,Sub-Juniors
2,Jyoti Upadhyay,2002-12-24,RAJ,52,51.52,110,120,-130,120,45,55,-62.5,55,115,125,-130,125,300,SBD,Single-ply,F,Sub-Juniors
3,Sona Lakshmi V,2005-03-12,TN,52,51.68,100,-110,110,110,60,65,-70,65,-115,120,122.5,122.5,297.5,SBD,Single-ply,F,Sub-Juniors
4,Shweta,2002-06-16,HAR,52,52,-110,115,-122.5,115,50,-57.5,-57.5,50,115,122.5,-127.5,122.5,287.5,SBD,Single-ply,F,Sub-Juniors
5,C. H. Prathyusha,2002-01-13,TEL,52,51.5,105,-110,-112.5,105,40,45,-55,45,95,115,122.5,122.5,272.5,SBD,Single-ply,F,Juniors
6,Muskan Akhter Borah,2002-11-21,ASA,52,49.5,90,100,110,110,37.5,-40,-40,37.5,107.5,115,120,120,267.5,SBD,Single-ply,F,Sub-Juniors
7,Yuthika Thakur,2005-02-28,DEL,52,51.46,-105,105,107.5,107.5,-47.5,-47.5,47.5,47.5,-110,110,-112.5,110,265,SBD,Single-ply,F,Sub-Juniors
8,Nivedita Kharkar,2002-05-27,MAH,52,51.12,-97.5,97.5,-105,97.5,-50,50,52.5,52.5,97.5,105,110,110,260,SBD,Single-ply,F,Sub-Juniors
9,Helanji G,2003-02-01,PUD,52,50.9,-80,90,-110,90,-30,40,47.5,47.5,100,110,120,120,257.5,SBD,Single-ply,F,Sub-Juniors
10,Radhika Joshi,2005-08-05,RAJ,52,49.44,95,105,-112.5,105,35,-40,40,40,-95,95,107.5,107.5,252.5,SBD,Single-ply,F,Sub-Juniors
11,Vaishnavi Sangle,2007-07-10,GUJ,52,51.06,70,80,-95,80,40,45,50,50,70,80,90,90,220,SBD,Single-ply,F,Sub-Juniors
12,Sumpi Gogoi,2003-01-07,ASA,52,51.15,70,-75,75,75,30,32.5,35,35,85,95,102.5,102.5,212.5,SBD,Single-ply,F,Sub-Juniors
13,Shibani,2003-11-08,KAR,52,50.64,65,80,-87.5,80,-35,40,-42.5,40,90,-100,-100,90,210,SBD,Single-ply,F,Sub-Juniors
14,Divya Bhutiya,2003-03-06,GUJ,52,48.56,45,-52.5,52.5,52.5,27.5,-30,-30,27.5,70,80,-87.5,80,160,SBD,Single-ply,F,Sub-Juniors
15,Radhika Hurria,2007-10-17,HAR,52,49.24,45,55,-62.5,55,-30,30,-32.5,30,60,70,-72.5,70,155,SBD,Single-ply,F,Sub-Juniors
DQ,Samuktha G,2002-01-20,PUD,52,49.9,-110,110,125,125,45,52.5,-55,52.5,-110,-110,-110,,,SBD,Single-ply,F,Juniors
DQ,Riya Kalyane,2004-03-23,MP,52,51.2,-95,95,100,100,32.5,-40,40,40,-100,-100,-100,,,SBD,Single-ply,F,Sub-Juniors
DQ,Bipasha Singh,2003-03-02,JHA,52,50.7,120,-130,130,130,-50,-50,-57.5,,120,130,135,135,,SBD,Single-ply,F,Sub-Juniors
1,Sk Sadiya Almas,2002-10-27,AP,57,55.82,160,170,175,175,65,-70,-70,65,130,150,157.5,157.5,397.5,SBD,Single-ply,F,Sub-Juniors
2,A. Ashiga,2004-12-02,PUD,57,55.42,110,125,135,135,50,-55,-55,50,120,132.5,137.5,137.5,322.5,SBD,Single-ply,F,Sub-Juniors
3,Meenu,2003-08-26,HAR,57,55.8,115,120,125,125,62.5,65,67.5,67.5,115,127.5,-137.5,127.5,320,SBD,Single-ply,F,Sub-Juniors
4,Pooja Yadav,2003-11-11,MAH,57,55.24,115,122.5,-130,122.5,40,45,50,50,110,120,-127.5,120,292.5,SBD,Single-ply,F,Sub-Juniors
5,Daniya Antony,2005-01-17,KER,57,54.45,-100,100,110,110,37.5,42.5,-47.5,42.5,110,115,-125,115,267.5,SBD,Single-ply,F,Sub-Juniors
6,Priya Kalyane,2004-03-23,MP,57,55.5,-105,105,-115,105,42.5,47.5,-52.5,47.5,100,110,115,115,267.5,SBD,Single-ply,F,Sub-Juniors
7,Sanasam Chaoba Devi,2004-10-20,MAN,57,55.1,-80,87.5,100,100,45,52.5,-60,52.5,80,90,-105,90,242.5,SBD,Single-ply,F,Sub-Juniors
8,Neha Rani,2003-04-19,BIH,57,55.74,80,90,-102.5,90,35,40,42.5,42.5,80,92.5,-100,92.5,225,SBD,Single-ply,F,Sub-Juniors
9,Siddhi Jadhav,2006-09-10,MAH,57,54.5,50,57.5,67.5,67.5,32.5,35,-37.5,35,60,72.5,-80,72.5,175,SBD,Single-ply,F,Sub-Juniors
DQ,Laishram Ashina Devi,2007-02-02,MAN,57,52.7,45,50,55,55,-32.5,,,,50,60,70,70,,SBD,Single-ply,F,Sub-Juniors
DQ,Kalaiselvi A,2005-07-02,PUD,57,54.1,60,-80,-80,60,-32.5,-32.5,-32.5,,-80,90,-97.5,90,,SBD,Single-ply,F,Sub-Juniors
1,Kanikashree V.R,2006-09-15,TN,63,60.54,140,152.5,157.5,157.5,-60,70,-80,70,-140,142.5,-155,142.5,370,SBD,Single-ply,F,Sub-Juniors
2,Aditi Bairagi,2002-09-28,MP,63,63,-140,-145,145,145,80,85,-90,85,125,-135,135,135,365,SBD,Single-ply,F,Sub-Juniors
3,Shivani S,2004-11-19,UP,63,61.9,130,-137.5,-137.5,130,50,60,-62.5,60,130,137.5,142.5,142.5,332.5,SBD,Single-ply,F,Sub-Juniors
4,Kajal,2003-07-02,HAR,63,62.3,-115,115,125,125,62.5,70,72.5,72.5,-110,110,115,115,312.5,SBD,Single-ply,F,Sub-Juniors
5,Amirtha Varshini S,2005-02-24,TN,63,58.74,95,115,-122.5,115,47.5,52.5,55,55,112.5,122.5,130,130,300,SBD,Single-ply,F,Sub-Juniors
6,G. Naga Sai Geetika,2004-08-01,AP,63,62.7,120,130,137.5,137.5,32.5,37.5,-40,37.5,105,112.5,117.5,117.5,292.5,SBD,Single-ply,F,Sub-Juniors
7,C.H. Akhila,2005-04-01,TEL,63,59.84,110,120,-127.5,120,40,45,-52.5,45,110,125,-132.5,125,290,SBD,Single-ply,F,Sub-Juniors
8,Prathyusha T. V,2004-04-10,KER,63,61.3,110,122.5,-132.5,122.5,45,52.5,-60,52.5,95,110,-117.5,110,285,SBD,Single-ply,F,Sub-Juniors
9,Nupur Panwar,2002-07-29,RAJ,63,58.9,-125,-125,130,130,40,-47.5,-50,40,90,100,-107.5,100,270,SBD,Single-ply,F,Sub-Juniors
10,Anjali Ghanghauriya,2007-05-03,MP,63,62.64,90,105,-112.5,105,40,45,50,50,105,-115,-115,105,260,SBD,Single-ply,F,Sub-Juniors
11,Konthoujam Thoibi Devi,2002-02-23,MAN,63,59.7,65,80,-100,80,35,37.5,-40,37.5,80,95,110,110,227.5,SBD,Single-ply,F,Juniors
1,Kiruthika M,2005-06-26,PUD,72,69,-160,160,,160,70,75,-77.5,75,130,140,145,145,380,SBD,Single-ply,F,Sub-Juniors
2,Anjali P. R,2004-01-11,KER,72,69.94,135,142.5,147.5,147.5,55,62.5,-67.5,62.5,132.5,142.5,-150,142.5,352.5,SBD,Single-ply,F,Sub-Juniors
3,Ayisha Beegam C. V,2004-10-04,KER,72,70.2,120,132.5,-137.5,132.5,50,55,-57.5,55,125,-130,130,130,317.5,SBD,Single-ply,F,Sub-Juniors
4,Lamiya Tarwadi,2002-02-15,MAH,72,69,135,-142.5,-142.5,135,62.5,65,67.5,67.5,105,110,-115,110,312.5,SBD,Single-ply,F,Juniors
5,Muskan S Sayyed,2005-03-01,MAH,72,69,95,-100,-100,95,35,37.5,-40,37.5,100,102.5,-110,102.5,235,SBD,Single-ply,F,Sub-Juniors
DQ,A. Archana,2003-07-02,TEL,72,63.4,90,-110,-110,90,-40,-40,-40,,90,102.5,-110,102.5,,SBD,Single-ply,F,Sub-Juniors
DQ,Brahmacharimayum Nimi Chanu,2005-07-09,MAN,72,64.9,47.5,-50,-50,47.5,-37.5,-37.5,-37.5,,60,75,-90,75,,SBD,Single-ply,F,Sub-Juniors
1,Shalini S,2002-03-29,TN,84,83.7,135,-147.5,152.5,152.5,62.5,67.5,70,70,125,132.5,-137.5,132.5,355,SBD,Single-ply,F,Sub-Juniors
2,Anushiya K,2005-05-09,PUD,84,73.34,130,140,150,150,50,57.5,-62.5,57.5,115,125,130,130,337.5,SBD,Single-ply,F,Sub-Juniors
3,Mrunali Bhong,2002-03-13,MAH,84,76.86,112.5,122.5,132.5,132.5,50,55,-57.5,55,110,117.5,125,125,312.5,SBD,Single-ply,F,Juniors
4,Priyanka,2005-12-10,HAR,84,82.92,-110,110,-125,110,60,72.5,-75,72.5,110,117.5,-122.5,117.5,300,SBD,Single-ply,F,Sub-Juniors
5,Kamiya Joshi,2002-10-26,GUJ,84,73.14,-95,95,100,100,-55,55,-60,55,100,105,-110,105,260,SBD,Single-ply,F,Sub-Juniors
6,S. Bhargavi,2004-06-10,AP,84,73.42,80,-95,100,100,30,-37.5,-37.5,30,90,100,105,105,235,SBD,Single-ply,F,Sub-Juniors
7,M. Vishnavi,2003-01-03,TEL,84,82.4,80,90,-100,90,40,-42.5,-42.5,40,90,100,-110,100,230,SBD,Single-ply,F,Sub-Juniors
DQ,Harshitha T,2003-05-08,KAR,84,78.35,-110,-120,-130,,-50,50,60,60,110,120,-127.5,120,,SBD,Single-ply,F,Sub-Juniors
1,Moumita Ghosh,2002-03-12,WB,84+,97.34,155,170,185,185,60,67.5,72.5,72.5,150,165,167.5,167.5,425,SBD,Single-ply,F,Juniors
2,Deepthika J. P,2002-06-07,KAR,84+,90.56,140,155,162.5,162.5,65,-75,75,75,130,150,165,165,402.5,SBD,Single-ply,F,Sub-Juniors
3,Khusi Kumari Dey,2002-07-04,JHA,84+,86.92,150,160,175,175,50,60,-70,60,120,140,150,150,385,SBD,Single-ply,F,Sub-Juniors
4,N. Mani Sravani,2004-06-23,AP,84+,98.52,140,-157.5,170,170,55,65,-75,65,120,135,-152.5,135,370,SBD,Single-ply,F,Sub-Juniors
5,Ichha Patel,2004-09-08,UP,84+,86.73,140,150,160,160,60,65,70,70,110,-120,-120,110,340,SBD,Single-ply,F,Sub-Juniors
6,Reshieal R M,2005-12-07,KAR,84+,94,100,120,132.5,132.5,75,-85,85,85,100,122.5,-140,122.5,340,SBD,Single-ply,F,Sub-Juniors
7,Mohana Priya,2003-01-21,TN,84+,108.46,110,117.5,130,130,55,60,-65,60,125,135,145,145,335,SBD,Single-ply,F,Sub-Juniors
8,A. Gayatri,2003-09-19,TEL,84+,99.76,100,120,-140,120,45,50,-55,50,90,100,-110,100,270,SBD,Single-ply,F,Sub-Juniors
9,Souparnika Ramesh,2004-08-07,KER,84+,109.68,90,102.5,112.5,112.5,37.5,-42.5,-45,37.5,80,110,-112.5,110,260,SBD,Single-ply,F,Sub-Juniors
10,Harvin Kaur,2002-10-13,HAR,84+,84.5,90,95,105,105,37.5,-45,45,45,95,105,-117.5,105,255,SBD,Single-ply,F,Sub-Juniors
11,Tanishka Tayal,2002-08-15,UP,84+,89.34,100,-110,-130,100,60,-67.5,-67.5,60,70,90,,90,250,SBD,Single-ply,F,Sub-Juniors
12,Kirti Pandav,2004-12-27,GUJ,84+,94.74,50,60,70,70,37.5,,,37.5,60,70,-80,70,177.5,SBD,Single-ply,F,Sub-Juniors
DQ,Muskan Vyas,2006-01-15,RAJ,84+,86.4,142.5,152.5,-165,152.5,60,70,77.5,77.5,-125,-125,-130,,,SBD,Single-ply,F,Juniors
1,Anuradha Kumawat,1997-07-05,RAJ,43,42.4,-120,-120,120,120,50,52.5,55,55,105,110,115,115,290,SBD,Single-ply,F,Juniors
2,Yengkokpam Rejiya Devi,1998-10-06,MAN,43,42.5,-50,50,-62.5,50,27.5,-30,-30,27.5,70,80,-95,80,157.5,SBD,Single-ply,F,Juniors
3,Jyotsana Yadav,1997-07-20,GUJ,43,38.45,40,-50,50,50,25,27.5,-30,27.5,55,70,72.5,72.5,150,SBD,Single-ply,F,Juniors
1,Rasika Chandrakant Avera,2000-12-16,MAH,47,46.35,135,145,155,155,57.5,62.5,65,65,110,122.5,-130,122.5,342.5,SBD,Single-ply,F,Juniors
2,Sita,1997-12-28,HAR,47,46,127.5,135,140,140,47.5,52.5,-55,52.5,127.5,132.5,-137.5,132.5,325,SBD,Single-ply,F,Juniors
3,Sumana,2000-10-06,KAR,47,47,117.5,122.5,-127.5,122.5,50,55,-57.5,55,132.5,135,-147.5,135,312.5,SBD,Single-ply,F,Juniors
4,Ramya S,2000-02-06,TN,47,46.55,110,120,130,130,42.5,47.5,-50,47.5,125,132.5,-135,132.5,310,SBD,Single-ply,F,Juniors
5,Mohanapriya V,1998-09-19,TN,47,45.6,-110,110,125,125,40,50,-55,50,115,125,-137.5,125,300,SBD,Single-ply,F,Juniors
6,Sakshi,1998-07-16,UP,47,46,-115,115,-125,115,55,-60,-60,55,-115,115,,115,285,SBD,Single-ply,F,Juniors
7,Kiran Bai Gurjar,2000-05-15,RAJ,47,47,-107.5,107.5,-112.5,107.5,60,65,67.5,67.5,80,90,-95,90,265,SBD,Single-ply,F,Juniors
8,Seethal N. K,2001-02-22,KER,47,43.2,-102.5,102.5,-115,102.5,37.5,40,-42.5,40,97.5,100,102.5,102.5,245,SBD,Single-ply,F,Juniors
DQ,Nirmali Borah,1997-07-30,ASA,47,47,-107.5,,,,-50,,,,-105,,,,,SBD,Single-ply,F,Juniors
1,R. Poorna,1998-12-18,AP,52,51.75,155,-170,-170,155,60,67.5,72.5,72.5,150,160,165,165,392.5,SBD,Single-ply,F,Juniors
2,Suman Devi,1997-06-20,HAR,52,52,150,155,-160,155,85,91,-92.5,91,145,-150,-150,145,391,SBD,Single-ply,F,Juniors
3,Elakkiya K,1999-04-18,TN,52,51.2,125,-135,135,135,62.5,67.5,70,70,120,127.5,-132.5,127.5,332.5,SBD,Single-ply,F,Juniors
4,Nisha Dhurve,1997-03-08,MP,52,52,125,130,-135,130,55,62.5,-65,62.5,140,-150,-150,140,332.5,SBD,Single-ply,F,Open
5,Shubhangi Patil,2001-03-03,MAH,52,51.7,-132.5,135,-145,135,-60,60,-62.5,60,127.5,130,-147.5,130,325,SBD,Single-ply,F,Juniors
6,Komal,2000-06-10,HAR,52,50.9,120,127.5,130,130,40,42.5,-47.5,42.5,120,135,142.5,142.5,315,SBD,Single-ply,F,Juniors
7,Chayanika Gogoi,1997-08-31,ASA,52,51.26,-120,120,-137.5,120,40,-50,50,50,-125,125,135,135,305,SBD,Single-ply,F,Juniors
8,M. Tirupatamma,2002-02-08,AP,52,52,95,100,-110,100,-45,47.5,-52.5,47.5,115,122.5,127.5,127.5,275,SBD,Single-ply,F,Juniors
9,Yeerina Debnath,1999-02-19,WB,52,50,85,95,-102.5,95,45,50,52.5,52.5,100,115,122.5,122.5,270,SBD,Single-ply,F,Juniors
10,Jayaben Makwana,1999-07-06,GUJ,52,51.8,-80,80,-90,80,-35,35,42.5,42.5,100,120,-130,120,242.5,SBD,Single-ply,F,Juniors
11,Bhawana Mukhia,1999-10-04,SIK,52,49.9,60,70,-72.5,70,35,37.5,40,40,90,95,100,100,210,SBD,Single-ply,F,Juniors
12,Anishka Jadaun,2000-10-01,MP,52,49,60,70,77.5,77.5,35,-37.5,-37.5,35,65,70,-75,70,182.5,SBD,Single-ply,F,Juniors
DQ,Pista Bai Gurjar,1997-07-01,RAJ,52,49.5,-127.5,-127.5,-127.5,,65,72.5,-77.5,72.5,107.5,110,-115,110,,SBD,Single-ply,F,Juniors
DQ,Keerthika M,2005-08-27,PUD,52,49.72,70,-80,-80,70,-35,-35,-35,,70,75,90,90,,SBD,Single-ply,F,Juniors
DQ,Malati Subba,2001-04-13,SIK,52,50.54,70,72.5,-75,72.5,-40,-40,-40,,80,90,-92.5,90,,SBD,Single-ply,F,Juniors
DQ,Narbda Sen,1998-07-05,RAJ,52,51.14,-127.5,-132.5,-132.5,,60,67.5,-72.5,67.5,135,142.5,147.5,147.5,,SBD,Single-ply,F,Juniors
1,Reshma Devi,2000-03-10,HAR,57,56.2,167.5,-172.5,172.5,172.5,-80,85,87.5,87.5,160,173,-180,173,433,SBD,Single-ply,F,Juniors
2,Mamta Devi,2001-04-24,HAR,57,56.8,170,180,-187.5,180,75,80,-82.5,80,-170,173,-180,173,433,SBD,Single-ply,F,Juniors
3,Sonal Sawant,1998-10-01,MAH,57,54.5,-170,170,-175,170,105,112.5,115,115,-142.5,142.5,-150,142.5,427.5,SBD,Single-ply,F,Juniors
4,Mamta Rajak,1999-04-10,CHT,57,55.4,-155,155,165,165,70,77.5,80,80,147.5,157.5,165,165,410,SBD,Single-ply,F,Juniors
5,Jyoti Singh,1997-01-01,UP,57,56.5,145,155,-160,155,-75,77.5,85,85,142.5,-150,-150,142.5,382.5,SBD,Single-ply,F,Open
6,Sejal Makwana,2001-10-01,MAH,57,56.1,-160,-160,160,160,70,77.5,80,80,-140,140,-142.5,140,380,SBD,Single-ply,F,Juniors
7,M. Vijaya Lakshmi,2000-07-25,AP,57,56.7,135,145,150,150,-80,80,85,85,130,-145,-145,130,365,SBD,Single-ply,F,Juniors
8,Debosree Sarkar,2000-03-24,ASA,57,54.9,120,135,140,140,55,60,67.5,67.5,120,135,-140,135,342.5,SBD,Single-ply,F,Juniors
9,Harshitha K. L,2000-10-12,KAR,57,57,115,122.5,-130,122.5,80,85,-90,85,115,125,-130,125,332.5,SBD,Single-ply,F,Juniors
10,Prachi Soni,2001-12-12,RAJ,57,52.2,110,117.5,-122.5,117.5,37.5,40,42.5,42.5,110,-117.5,117.5,117.5,277.5,SBD,Single-ply,F,Juniors
11,Moumita Das,1998-05-19,WB,57,56.3,95,105,112.5,112.5,50,-57.5,-57.5,50,105,107.5,115,115,277.5,SBD,Single-ply,F,Juniors
12,Deepika,2000-11-21,DEL,57,56.1,95,100,-107.5,100,60,62.5,-65,62.5,110,-115,-115,110,272.5,SBD,Single-ply,F,Juniors
13,Pori Saikia,2000-09-25,ASA,57,52.7,80,90,-100,90,40,45,-50,45,85,95,105,105,240,SBD,Single-ply,F,Juniors
14,Divya Sharma,1997-06-26,CHN,57,57,80,90,-100,90,40,42.5,-45,42.5,80,100,-105,100,232.5,SBD,Single-ply,F,Juniors
DQ,Kavitha K,2000-07-19,TN,57,56.7,-100,-100,-100,,-45,-45,,,-120,-120,,,,SBD,Single-ply,F,Juniors
1,Manju Rani,1999-12-27,HAR,63,63,175,-185,185,185,-85,85,-90,85,170,180,185,185,455,SBD,Single-ply,F,Juniors
2,Nakshathra A,2005-12-28,PUD,63,60.24,165,175,-177.5,175,67.5,72.5,77.5,77.5,160,167.5,172.5,172.5,425,SBD,Single-ply,F,Juniors
3,Saloni More,2000-06-26,MAH,63,62.52,175,-190,-190,175,72.5,77.5,80,80,150,160,167.5,167.5,422.5,SBD,Single-ply,F,Juniors
4,Venizeia A Carlo,2000-02-07,KAR,63,63,145,157.5,-172.5,157.5,85,90,-95,90,140,155,-162.5,155,402.5,SBD,Single-ply,F,Juniors
5,Mansi M,2000-05-30,KER,63,61.9,-135,135,-150,135,62.5,70,-77.5,70,135,-145,150,150,355,SBD,Single-ply,F,Juniors
6,Priya M,2000-01-06,TN,63,60.58,115,-125,130,130,55,62.5,65,65,125,-132.5,-132.5,125,320,SBD,Single-ply,F,Juniors
7,Sujata Das,1999-02-02,WB,63,61.18,120,127.5,-132.5,127.5,40,45,-47.5,45,90,102.5,105,105,277.5,SBD,Single-ply,F,Juniors
8,Vaishali Navnit Bhalodiya,1997-11-30,GUJ,63,60.9,90,-100,107.5,107.5,45,50,-55,50,100,110,-127.5,110,267.5,SBD,Single-ply,F,Juniors
9,Sumeria Khatoon,2000-11-07,TEL,63,59.5,100,-125,-125,100,40,45,47.5,47.5,100,115,-120,115,262.5,SBD,Single-ply,F,Juniors
10,Sapna Bharti,2000-08-27,UP,63,57.1,-100,100,-107.5,100,50,-55,-55,50,105,110,-115,110,260,SBD,Single-ply,F,Juniors
11,S Sreevalli,2004-11-08,AP,63,57.17,85,-95,-95,85,-37.5,37.5,40,40,120,125,-130,125,250,SBD,Single-ply,F,Juniors
12,Shilpa Kumari,1998-07-06,MP,63,58.3,90,-105,-105,90,40,45,-50,45,105,110,-115,110,245,SBD,Single-ply,F,Juniors
DQ,Hritvika Sardesai,2000-03-31,MAH,63,62.1,-147.5,147.5,-152.5,147.5,60,62.5,-65,62.5,-140,-140,-140,,,SBD,Single-ply,F,Juniors
DQ,Kalpana Kumari,1998-07-05,UP,63,59.3,-60,-60,-60,,-40,,,,,,,,,SBD,Single-ply,F,Juniors
1,Nandana R,2001-11-07,KER,72,71.6,200,-210,210,210,105,112.5,115,115,150,165,-175,165,490,SBD,Single-ply,F,Juniors
2,S. Dwaraka,2001-03-13,AP,72,70.8,172.5,187.5,-197.5,187.5,75,85,-90,85,182.5,192.5,-200,192.5,465,SBD,Single-ply,F,Juniors
3,Janhvi Savardekar,2001-09-19,MAH,72,71.7,-180,180,-190,180,105,-112.5,-112.5,105,167.5,-172.5,-172.5,167.5,452.5,SBD,Single-ply,F,Juniors
4,Jaswinder Kour,1997-07-06,UTK,72,69.7,165,-180,-185,165,80,87.5,90,90,170,182.5,-187.5,182.5,437.5,SBD,Single-ply,F,Juniors
5,Megha,2000-03-24,HAR,72,71,140,-145,-145,140,75,80,-82.5,80,175,185,-187.5,185,405,SBD,Single-ply,F,Juniors
6,Shama Parveen,1997-05-10,DEL,72,71.5,140,-155,162.5,162.5,65,-80,82.5,82.5,150,-170,-170,150,395,SBD,Single-ply,F,Juniors
7,Sai Keerthana,1997-06-15,TEL,72,68.7,120,140,-150,140,40,45,-50,45,100,110,117.5,117.5,302.5,SBD,Single-ply,F,Juniors
8,Subhi Tomar,1999-08-12,DEL,72,71.12,80,92.5,100,100,72.5,80,-85,80,115,-120,120,120,300,SBD,Single-ply,F,Juniors
9,Sadhavi Khatarkar,1998-01-01,MP,72,71,105,110,115,115,62.5,65,-67.5,65,110,-120,-120,110,290,SBD,Single-ply,F,Juniors
10,Rupali Shee,1997-10-12,WB,72,64.8,90,100,107.5,107.5,40,-45,45,45,90,100,107.5,107.5,260,SBD,Single-ply,F,Juniors
DQ,Monesha R,2001-08-20,PUD,72,67.82,-95,-95,95,95,-37.5,-37.5,-37.5,,,,,,,SBD,Single-ply,F,Juniors
DQ,Kajal,2001-07-10,HP,72,72,65,67.5,75,75,-40,-40,-40,,,,,,,SBD,Single-ply,F,Juniors
1,Sumanpreet Kaur,1997-09-24,PUN,84,82.84,212.5,227.5,237.5,237.5,117.5,127.5,128,128,185,197.5,206,206,571.5,SBD,Single-ply,F,Juniors
2,Preeti,1998-04-01,HAR,84,82.84,232.5,-240,240,240,90,-95,-95,90,205,-215,215,215,545,SBD,Single-ply,F,Juniors
3,Abhirami M. V,2000-02-13,KER,84,82.84,232.5,242.5,-250,242.5,-107.5,107.5,112.5,112.5,172.5,-182.5,-182.5,172.5,527.5,SBD,Single-ply,F,Juniors
4,Shovita Shovita,1997-08-29,DEL,84,81.45,-205,205,-210,205,110,-120,120,120,150,165,-175,165,490,SBD,Single-ply,F,Juniors
5,Anuja D. Sawant,1999-08-06,MAH,84,82.64,185,192.5,-202.5,192.5,-127.5,-127.5,127.5,127.5,130,145,-155,145,465,SBD,Single-ply,F,Juniors
6,Pratheeksha G. Naik,2000-05-31,KAR,84,82.27,-192.5,-200,200,200,85,-92.5,-95,85,165,-172.5,,165,450,SBD,Single-ply,F,Juniors
7,Menaka V,2000-04-18,TN,84,81.24,-192.5,192.5,200,200,85,92.5,95,95,-145,145,-147.5,145,440,SBD,Single-ply,F,Juniors
8,Neelam Dangi,2001-04-02,RAJ,84,77.16,-175,-185,185,185,75,85,-92.5,85,130,140,-145,140,410,SBD,Single-ply,F,Juniors
9,Mansi Routela,1998-08-10,MP,84,77.96,150,165,180,180,50,-62.5,-62.5,50,125,140,-155,140,370,SBD,Single-ply,F,Juniors
10,Tripura Sundari,1999-06-24,TEL,84,74.34,-130,-140,140,140,50,65,72.5,72.5,120,127.5,-140,127.5,340,SBD,Single-ply,F,Juniors
11,D. Aparna,2001-08-23,AP,84,77.24,130,132.5,140,140,50,57.5,-60,57.5,120,135,-140,135,332.5,SBD,Single-ply,F,Juniors
12,Nupur Bhanushali,1998-10-23,GUJ,84,78.6,100,-110,110,110,40,50,-55,50,-125,130,140,140,300,SBD,Single-ply,F,Juniors
13,Anurupa Das,2001-11-16,WB,84,79.8,75,82.5,92.5,92.5,45,50,-52.5,50,100,115,-120,115,257.5,SBD,Single-ply,F,Juniors
DQ,Sona P. T,1999-04-19,KER,84,81.54,142.5,-152.5,-152.5,142.5,-62.5,-62.5,62.5,62.5,,,,,,SBD,Single-ply,F,Juniors
1,Shreya Bordwekar,1998-01-28,MAH,84+,125.92,190,215,-235,215,105,112.5,-122.5,112.5,185,197.5,202.5,202.5,530,SBD,Single-ply,F,Juniors
2,Shikha Shikha,1998-07-25,RAJ,84+,89.1,-210,215,222.5,222.5,102.5,107.5,110,110,180,190,-195,190,522.5,SBD,Single-ply,F,Juniors
3,Prathiksha,1998-09-11,KAR,84+,108.86,190,205,-212.5,205,105,112.5,117.5,117.5,152.5,160,-162.5,160,482.5,SBD,Single-ply,F,Juniors
4,Reshma R,1997-08-02,TN,84+,88.1,185,195,200,200,82.5,-87.5,87.5,87.5,185,-195,-195,185,472.5,SBD,Single-ply,F,Juniors
5,Vandhana Shaji,1997-05-30,KER,84+,92.1,172.5,185,200,200,65,77.5,85,85,157.5,-170,170,170,455,SBD,Single-ply,F,Juniors
6,Arshana V. V,1999-08-17,KER,84+,94.25,175,187.5,-197.5,187.5,75,87.5,92.5,92.5,142.5,-155,155,155,435,SBD,Single-ply,F,Juniors
7,D. Bhavika,2000-02-02,CHT,84+,92.46,160,175,-187.5,175,70,77.5,82.5,82.5,120,127.5,,127.5,385,SBD,Single-ply,F,Juniors
8,Susmita Das,1997-08-21,WB,84+,104.5,-130,-140,140,140,60,-65,65,65,130,137.5,,137.5,342.5,SBD,Single-ply,F,Juniors
9,Krupali Nayi,1999-12-23,GUJ,84+,101.14,90,100,110,110,45,50,-52.5,50,100,120,130,130,290,SBD,Single-ply,F,Juniors
1,Udaiveer Gurjar,2005-05-24,MP,53,52.9,165,-175,,165,90,97.5,102.5,102.5,140,150,157.5,157.5,425,SBD,Single-ply,M,Sub-Juniors
2,Sanjay M,2004-05-15,PUD,53,51.8,150,160,167.5,167.5,82.5,90,92.5,92.5,140,150,-160,150,410,SBD,Single-ply,M,Sub-Juniors
3,Mohammed Rabbani,2004-07-27,TEL,53,50.24,-140,-140,152.5,152.5,60,70,-75,70,150,-162.5,175,175,397.5,SBD,Single-ply,M,Sub-Juniors
4,Shivam,2002-06-01,HAR,53,52.75,-150,-150,150,150,70,75,-80,75,160,165,172.5,172.5,397.5,SBD,Single-ply,M,Sub-Juniors
5,Pravin Maru,2002-08-11,RAJ,53,52.65,145,152.5,-160,152.5,65,72.5,-77.5,72.5,150,165,-170,165,390,SBD,Single-ply,M,Sub-Juniors
6,Ramandeep Singh,2003-11-15,PUN,53,51.54,130,140,145,145,60,62.5,-67.5,62.5,147.5,-157.5,157.5,157.5,365,SBD,Single-ply,M,Sub-Juniors
7,Sidhi Ganesh,2003-01-06,DEL,53,46.5,130,-132.5,-132.5,130,80,-90,-92.5,80,-152.5,152.5,-155,152.5,362.5,SBD,Single-ply,M,Sub-Juniors
8,Anurag Maurya,2002-09-25,UP,53,52.4,-110,110,115,115,60,65,-70,65,140,152.5,157.5,157.5,337.5,SBD,Single-ply,M,Sub-Juniors
9,Treedev Sonani,2003-02-10,CHT,53,53,-110,-110,110,110,60,-70,-70,60,120,135,-150,135,305,SBD,Single-ply,M,Sub-Juniors
10,Irikhomba Elangbam,2003-12-03,MAN,53,51.7,-70,70,90,90,35,40,-45,40,80,82.5,100,100,230,SBD,Single-ply,M,Sub-Juniors
11,Jeel Patel,2002-11-11,GUJ,53,49.9,80,85,-90,85,40,45,-50,45,80,90,-100,90,220,SBD,Single-ply,M,Sub-Juniors
12,Thokchom Malemnganba,2004-06-24,MAN,53,40,-60,60,-75,60,35,-40,40,40,70,75,80,80,180,SBD,Single-ply,M,Sub-Juniors
DQ,Darun M,2007-07-29,PUD,53,52.6,130,140,147.5,147.5,-80,-85,85,85,-160,-160,-160,,,SBD,Single-ply,M,Sub-Juniors
DQ,M. Bharat Yadav,2004-03-14,TEL,53,51.75,-140,-150,150,150,-80,-80,-80,,160,167.5,170,170,,SBD,Single-ply,M,Sub-Juniors
1,Dhruv Raj Kure,2002-06-02,MP,59,56.32,-192.5,-192.5,192.5,192.5,110,112.5,117.5,117.5,215,220,-225,220,530,SBD,Single-ply,M,Sub-Juniors
2,P. Bharath Kumar,2002-03-08,AP,59,58.74,190,200,210.5,210.5,105,112.5,-117.5,112.5,190,202.5,-210,202.5,525.5,SBD,Single-ply,M,Juniors
3,Kuldeep,2005-02-19,HAR,59,58.54,-185,-185,185,185,80,85,-90,85,195,205,-212.5,205,475,SBD,Single-ply,M,Sub-Juniors
4,Damodar Ranga,2002-01-18,RAJ,59,58.2,-172.5,-175,175,175,100,107.5,-110,107.5,182.5,-187.5,-192.5,182.5,465,SBD,Single-ply,M,Juniors
5,Anandakrishnan R,2002-01-25,KER,59,55.14,160,-172.5,180,180,85,97.5,-102.5,97.5,165,177.5,-190,177.5,455,SBD,Single-ply,M,Juniors
6,Vinay Soni,2003-11-20,RAJ,59,57.85,-175,-175,177.5,177.5,75,80,-85,80,180,190,-200,190,447.5,SBD,Single-ply,M,Sub-Juniors
7,V. Rohan Sai,2002-03-30,TEL,59,58.48,-160,-162.5,165,165,75,-80,-82.5,75,200,-207.5,-210,200,440,SBD,Single-ply,M,Sub-Juniors
8,Vishal T,2002-10-26,PUD,59,56,150,160,170,170,85,95,100,100,145,155,165,165,435,SBD,Single-ply,M,Sub-Juniors
9,Manan Sharma,2002-08-23,HAR,59,58.12,135,142.5,-147.5,142.5,100,-102.5,,100,160,167.5,-170,167.5,410,SBD,Single-ply,M,Sub-Juniors
10,Prateek Bhalla,2002-10-06,DEL,59,59,140,-160,-160,140,70,80,-82.5,80,150,-165,170,170,390,SBD,Single-ply,M,Sub-Juniors
11,Prathamesh Bhalekar,2002-08-06,MAH,59,58.7,150,-160,165,165,55,62.5,-65,62.5,150,160,-170,160,387.5,SBD,Single-ply,M,Sub-Juniors
12,Shadab Sagir Ahmed,2003-05-09,MAH,59,56.4,130,-137.5,-140,130,67.5,-72.5,72.5,72.5,-150,150,-165,150,352.5,SBD,Single-ply,M,Sub-Juniors
13,Azeem Azeem,2004-09-17,UTK,59,57.4,110,-120,120,120,60,67.5,-80,67.5,130,142.5,-155,142.5,330,SBD,Single-ply,M,Sub-Juniors
DQ,Kaushal Bhatt,2002-08-25,UTK,59,57.57,-130,-130,-130,,,,,,,,,,,SBD,Single-ply,M,Sub-Juniors
1,Prajwal Devadiga,2002-05-23,KAR,66,64.8,220,-230,232.5,232.5,120,127.5,-138,127.5,220,232.5,-242.5,232.5,592.5,SBD,Single-ply,M,Sub-Juniors
2,Naresh Ramawat,2002-12-17,RAJ,66,64,215,-227.5,-227.5,215,95,102.5,112.5,112.5,225,240,-265,240,567.5,SBD,Single-ply,M,Sub-Juniors
3,K. Abhishek,2003-03-10,AP,66,65.6,145,-155,-155,145,85,92.5,-105,92.5,185,-200,-200,185,422.5,SBD,Single-ply,M,Sub-Juniors
4,Karan Karan,2003-01-28,CHN,66,62.8,160,-170,-180,160,80,87.5,92.5,92.5,150,-165,-170,150,402.5,SBD,Single-ply,M,Sub-Juniors
5,Kunal Jadav,2002-03-21,GUJ,66,62.8,140,-150,-150,140,70,75,-80,75,150,160,170,170,385,SBD,Single-ply,M,Sub-Juniors
6,Aashis Mourya,2002-09-22,CHT,66,65.64,-130,-130,130,130,70,82.5,-85,82.5,160,170,-172.5,170,382.5,SBD,Single-ply,M,Sub-Juniors
7,Anurag Pandey,2003-06-22,WB,66,64,130,-140,-140,130,70,77.5,80,80,140,150,170,170,380,SBD,Single-ply,M,Sub-Juniors
8,Fardin Sidi,2004-12-01,GUJ,66,63.5,80,90,-100,90,45,-52.5,-52.5,45,90,110,-120,110,245,SBD,Single-ply,M,Sub-Juniors
DQ,Pradeep Gaur,2005-02-01,MP,66,63.92,110,-120,125,125,-105,105,-110,105,-140,-140,-140,,,SBD,Single-ply,M,Sub-Juniors
DQ,Gurshair Singh,2002-02-19,PUN,66,65.8,162.5,-172.5,-180,162.5,-87.5,-87.5,-87.5,,-190,-190,-197.5,,,SBD,Single-ply,M,Juniors
DQ,Dinesh S.A,2002-03-10,TN,66,65.8,-197.5,-197.5,197.5,197.5,-112.5,120,-122.5,120,-205,-205,-205,,,SBD,Single-ply,M,Juniors
DQ,K. Vishnu Vardhan,2002-05-04,AP,66,64,-180,-180,-180,,-85,85,-90,85,-190,190,-195,190,,SBD,Single-ply,M,Sub-Juniors
1,Shah M Agarwal,2003-11-17,UP,74,73.3,210,230,237.5,237.5,115,125,-127.5,125,225,235,-240,235,597.5,SBD,Single-ply,M,Sub-Juniors
2,Vishnu Joshi,2002-07-18,RAJ,74,72.6,200,212.5,222.5,222.5,120,127.5,-135,127.5,210,230,-250,230,580,SBD,Single-ply,M,Sub-Juniors
3,Nahasudheen R,2002-04-05,KER,74,72.2,210,222.5,-232.5,222.5,110,122.5,127.5,127.5,180,190,200,200,550,SBD,Single-ply,M,Sub-Juniors
4,Satheesh D,2002-04-10,TN,74,69.3,180,195,-205,195,110,120,-122.5,120,-210,210,-235,210,525,SBD,Single-ply,M,Sub-Juniors
5,Bikram Patro,2002-09-28,MP,74,71.6,155,-170,172.5,172.5,-120,120,-125,120,190,200,212.5,212.5,505,SBD,Single-ply,M,Sub-Juniors
6,Diljeet Singh,2004-09-28,PUN,74,73.46,-175,-177.5,185,185,120,125,130,130,-185,-185,185,185,500,SBD,Single-ply,M,Sub-Juniors
7,Sumeet Kalyankar,2002-03-23,MAH,74,72.5,175,185,200,200,80,-92.5,92.5,92.5,180,-200,-200,180,472.5,SBD,Single-ply,M,Sub-Juniors
8,Tushar,2003-01-08,DEL,74,73.16,130,145,155,155,100,105,-107.5,105,190,202.5,210,210,470,SBD,Single-ply,M,Sub-Juniors
9,Jyotitaditya Das,2002-06-12,WB,74,69.42,150,160,-180,160,105,110,-117.5,110,175,185,-192.5,185,455,SBD,Single-ply,M,Sub-Juniors
10,Logeswaran M,2002-02-18,PUD,74,68.9,170,180,190,190,80,87.5,-95,87.5,160,170,-180,170,447.5,SBD,Single-ply,M,Juniors
11,Gaurav Pagare,2002-01-07,GUJ,74,73.1,120,135,-142.5,135,100,105,-107.5,105,160,175,182.5,182.5,422.5,SBD,Single-ply,M,Juniors
12,Fanindra Kumar Dhurve,2004-11-19,CHT,74,71.04,130,-145,-155,130,-80,80,87.5,87.5,170,190,-200,190,407.5,SBD,Single-ply,M,Sub-Juniors
13,Tensubam Jestin,2004-05-01,MAN,74,71.43,100,130,-160,130,80,95,-105,95,160,-180,180,180,405,SBD,Single-ply,M,Sub-Juniors
14,Aakash V,2003-02-18,PUD,74,72.32,140,-150,-150,140,55,60,-65,60,140,-155,-155,140,340,SBD,Single-ply,M,Sub-Juniors
15,Shahnavaz Juneja,2002-11-23,GUJ,74,68.6,85,92.5,-95,92.5,55,60,-62.5,60,135,147.5,-152.5,147.5,300,SBD,Single-ply,M,Sub-Juniors
16,Jai Prakash Mourya,2005-02-27,CHT,74,68.43,80,-95,-95,80,-50,50,-55,50,100,110,125,125,255,SBD,Single-ply,M,Sub-Juniors
DQ,Ashwar Kumar Thakur,2002-02-20,MP,74,73.34,-220,-220,-220,,,,,,-215,,,,,SBD,Single-ply,M,Juniors
DQ,P. Vamshi Krishna,2003-01-14,AP,74,73,-220,-220,-220,,-110,110,-117.5,110,220,235,-241,235,,SBD,Single-ply,M,Sub-Juniors
DQ,Monu Chaudhary,2003-04-26,UP,74,73.56,-190,-190,-190,,-115,115,-127.5,115,-190,-190,190,190,,SBD,Single-ply,M,Sub-Juniors
1,Simon Masih,2002-03-04,CHN,83,82.56,250,280,-291,280,190,205,207.5,207.5,210,235,-242.5,235,722.5,SBD,Single-ply,M,Juniors
2,Harish B,2003-01-18,TN,83,81.7,250,260,-270,260,105,-112.5,-112.5,105,250,-260,-260,250,615,SBD,Single-ply,M,Sub-Juniors
3,Sampath,2002-04-22,KAR,83,80.9,210,225,-232.5,225,130,-137.5,145,145,220,-225,-225,220,590,SBD,Single-ply,M,Sub-Juniors
4,Saurabh S,2005-01-01,UP,83,80.9,-225,225,-235,225,130,142.5,150,150,190,200,-215,200,575,SBD,Single-ply,M,Sub-Juniors
5,Ram Manohar Bhagat,2002-06-15,MAH,83,83,210,217.5,-222.5,217.5,-115,115,117.5,117.5,200,-205,-205,200,535,SBD,Single-ply,M,Sub-Juniors
6,Muhammed Mubeen,2003-04-17,KER,83,81.2,180,200,-220,200,105,115,-120,115,185,205,215,215,530,SBD,Single-ply,M,Sub-Juniors
7,Ritvik Sharma,2002-08-11,JK,83,81.54,185,190,-192.5,190,125,130,-132.5,130,195,202.5,-210,202.5,522.5,SBD,Single-ply,M,Sub-Juniors
8,M. Durga Prasad,2002-07-14,AP,83,78.62,-190,190,210,210,95,105,115,115,180,195,-205,195,520,SBD,Single-ply,M,Sub-Juniors
9,Shivam,2004-03-01,DEL,83,79.12,190,-200,200,200,100,110,-117.5,110,-200,210,-220,210,520,SBD,Single-ply,M,Sub-Juniors
10,N. Narasimha Naik,2005-06-08,AP,83,78.76,160,180,195,195,80,-90,-90,80,190,205,-217.5,205,480,SBD,Single-ply,M,Sub-Juniors
11,Anwar Pasha,2002-03-27,TEL,83,74.56,150,172.5,180,180,85,92.5,97.5,97.5,155,162.5,-167.5,162.5,440,SBD,Single-ply,M,Sub-Juniors
12,Kalden Tamang,2003-12-07,SIK,83,76.16,95,105,120,120,70,80,-85,80,175,-190,-190,175,375,SBD,Single-ply,M,Sub-Juniors
13,Raj Singh,2002-01-07,UTK,83,81.3,105,-120,-120,105,-75,75,-80,75,180,-190,-190,180,360,SBD,Single-ply,M,Juniors
14,Dawa Tamang,2004-08-05,SIK,83,77.6,110,130,-135,130,60,-70,-70,60,-140,140,155,155,345,SBD,Single-ply,M,Sub-Juniors
15,Laiphrakpam Lanthoiba,2003-04-01,MAN,83,77.62,90,100,110,110,55,60,-65,60,90,110,130,130,300,SBD,Single-ply,M,Sub-Juniors
16,Dhaval Sagathiya,2004-06-06,GUJ,83,74.1,70,-85,90,90,50,57.5,-62.5,57.5,120,130,140,140,287.5,SBD,Single-ply,M,Sub-Juniors
17,Khumukcham Sushant,2006-03-01,MAN,83,77.32,-85,85,,85,45,50,-55,50,90,100,110,110,245,SBD,Single-ply,M,Sub-Juniors
DQ,Thavamani Gugan L,2004-04-04,TN,83,82.14,225,235,-245,235,-125,-125,-125,,-200,,,,,SBD,Single-ply,M,Sub-Juniors
DQ,Subhrajyoti Das,2005-11-30,WB,83,79.1,-165,-165,-165,,72.5,77.5,80,80,175,185,-195,185,,SBD,Single-ply,M,Sub-Juniors
DQ,Abhishek Dubey,2003-08-07,UP,83,83,-262.5,-262.5,262.5,262.5,-155,-155,-155,,237.5,-247.5,-251,237.5,,SBD,Single-ply,M,Sub-Juniors
1,Dhanush A,2002-05-29,TN,93,88.64,200,215,232.5,232.5,-145,145,152.5,152.5,250,260,270,270,655,SBD,Single-ply,M,Sub-Juniors
2,Harsh Tyagi,2003-02-13,RAJ,93,84.82,230,-245,245,245,130,145,152.5,152.5,225,237.5,-242.5,237.5,635,SBD,Single-ply,M,Sub-Juniors
3,Pankaj,2002-12-11,PUN,93,93,-230,240,-257.5,240,155,160,167.5,167.5,-190,205,210,210,617.5,SBD,Single-ply,M,Sub-Juniors
4,Syed Khaja Vali,2002-01-23,AP,93,90.5,220,-240,-250,220,120,130,-135,130,215,230,242.5,242.5,592.5,SBD,Single-ply,M,Juniors
5,Sandeep Kharb,2002-12-16,HAR,93,87.2,220,-237.5,-242.5,220,120,-130,130,130,225,240,-267.5,240,590,SBD,Single-ply,M,Sub-Juniors
6,Jatin,2002-12-14,DEL,93,85.63,210,220,230,230,147.5,152.5,-155,152.5,205,-215,-235,205,587.5,SBD,Single-ply,M,Sub-Juniors
7,Nileh Deshmukh,2002-02-06,MAH,93,92.46,-205,215,230,230,115,122.5,130,130,210,225,-232.5,225,585,SBD,Single-ply,M,Juniors
8,Naveen K,2002-07-20,TN,93,91.82,220,-235,235,235,125,130,137.5,137.5,210,-215,-215,210,582.5,SBD,Single-ply,M,Sub-Juniors
9,Shashank Joshi,2002-05-13,MP,93,91,200,202.5,225,225,115,122.5,125,125,220,230,-240,230,580,SBD,Single-ply,M,Sub-Juniors
10,Kartik Sharma,2003-09-26,UP,93,90.4,-200,-210,220,220,-100,-105,105,105,210,225,-240,225,550,SBD,Single-ply,M,Sub-Juniors
11,Tharun Jagathguru K,2003-03-31,PUD,93,91.51,210,225,-235,225,90,-102.5,-102.5,90,210,220,-225,220,535,SBD,Single-ply,M,Sub-Juniors
12,Thaslim B,2004-06-13,KER,93,89.3,207.5,227.5,235,235,85,-92.5,92.5,92.5,197.5,205,-212.5,205,532.5,SBD,Single-ply,M,Sub-Juniors
13,Abhishek P. V,2002-08-03,KER,93,91,170,-190,-195,170,90,100,105,105,180,190,202.5,202.5,477.5,SBD,Single-ply,M,Sub-Juniors
14,Saksham Chib,2004-02-15,JK,93,91.32,130,-140,-150,130,110,120,-130,120,190,200,-215,200,450,SBD,Single-ply,M,Sub-Juniors
15,Prashant Kumar,2003-09-27,UP,93,83.4,135,140,150,150,85,-90,-90,85,180,-190,-190,180,415,SBD,Single-ply,M,Sub-Juniors
16,Longjam Prashant,2005-06-10,MAN,93,90.48,-120,120,140,140,70,-85,-85,70,130,150,-170,150,360,SBD,Single-ply,M,Sub-Juniors
17,Nirbhay Suresh Varma,2005-01-31,MAH,93,91.26,-120,120,-135,120,60,-62.5,-62.5,60,140,155,165,165,345,SBD,Single-ply,M,Sub-Juniors
DQ,Naveen,2002-06-15,HAR,93,87.6,210,230,-250,230,110,-120,120,120,-230,-230,-250,,,SBD,Single-ply,M,Sub-Juniors
DQ,K. Mallesh,2002-03-05,TEL,93,90.42,-230,-232.5,-237.5,,,,,,,,,,,SBD,Single-ply,M,Juniors
1,Dharmendra Sharma,2003-08-31,DEL,105,103.8,245,260,272.5,272.5,165,175,180,180,250,252.5,265,265,717.5,SBD,Single-ply,M,Sub-Juniors
2,Shabab Alam Butt,2002-06-25,JK,105,100.9,180,200,220,220,160,-167.5,180,180,190,210,225,225,625,SBD,Single-ply,M,Sub-Juniors
3,Ragule G,2002-06-20,PUD,105,97.4,240,250,255,255,135,140,142.5,142.5,195,207.5,222.5,222.5,620,SBD,Single-ply,M,Sub-Juniors
4,Kartik Garg,2002-05-16,PUN,105,95.9,215,230,-245,230,-115,130,137.5,137.5,210,222.5,232.5,232.5,600,SBD,Single-ply,M,Sub-Juniors
5,Sherwin D. Souza,2002-04-12,KAR,105,96.6,200,230,255,255,-140,145,-155,145,200,-220,-225,200,600,SBD,Single-ply,M,Sub-Juniors
6,Daksh Singh Chouhan,2004-04-19,RAJ,105,93.1,230,-245,-245,230,130,-137.5,140,140,200,-215,-227.5,200,570,SBD,Single-ply,M,Sub-Juniors
7,Bento Biju John,2003-02-26,KER,105,101.6,-190,190,215,215,100,112.5,117.5,117.5,190,200,215,215,547.5,SBD,Single-ply,M,Sub-Juniors
8,Shree Chand Jaiswal,2002-04-17,MAH,105,98.5,200,220,-225,220,105,120,127.5,127.5,150,165,180,180,527.5,SBD,Single-ply,M,Sub-Juniors
9,Atul Soni,2002-04-16,CHT,105,96.85,180,195,210,210,95,-102.5,102.5,102.5,175,-185,,175,487.5,SBD,Single-ply,M,Sub-Juniors
10,Monish Chakrawarty,2005-03-06,MP,105,100.2,-170,170,-190,170,110,120,-127.5,120,150,-165,165,165,455,SBD,Single-ply,M,Sub-Juniors
11,Devesh Kumar Sahu,2004-07-09,CHT,105,101.9,135,-142.5,142.5,142.5,65,70,72.5,72.5,140,-152.5,-152.5,140,355,SBD,Single-ply,M,Sub-Juniors
DQ,Aryan,2004-11-04,DEL,105,98.1,260,272.5,-282.5,272.5,-135,140,145,145,-250,-250,-250,,,SBD,Single-ply,M,Sub-Juniors
DQ,Nishant Jagani,2002-10-11,GUJ,105,100.9,-170,-180,-180,,75,90,-100,90,170,190,-200,190,,SBD,Single-ply,M,Sub-Juniors
DQ,Raja Ganesh B,2002-01-07,TN,105,101.86,-210,-210,-210,,115,,,115,210,-222.5,230,230,,SBD,Single-ply,M,Juniors
1,Dheeraj,2004-05-21,HAR,120,106.82,220,240,255,255,110,125,140,140,210,225,235,235,630,SBD,Single-ply,M,Sub-Juniors
2,Mohammed Azlan,2005-05-14,KAR,120,107.9,225,235,-242.5,235,130,142.5,152.5,152.5,205,222.5,235,235,622.5,SBD,Single-ply,M,Sub-Juniors
3,Aman Kumar Singh,2006-08-13,UP,120,117.46,220,235,237.5,237.5,110,120,132.5,132.5,220,232.5,-242.5,232.5,602.5,SBD,Single-ply,M,Sub-Juniors
4,Hanuman Ojha,2002-10-10,RAJ,120,108,205,-210,-215,205,142.5,150,160,160,200,215,-237.5,215,580,SBD,Single-ply,M,Sub-Juniors
5,Udhay Veer Singh,2002-05-09,JK,120,106,200,225,227.5,227.5,120,-132.5,142.5,142.5,170,-207.5,,170,540,SBD,Single-ply,M,Sub-Juniors
6,Chetan Kasotiya,2004-10-01,MP,120,115.42,140,-150,150,150,95,100,-102.5,100,150,165,-177.5,165,415,SBD,Single-ply,M,Sub-Juniors
7,Jince C. Reji,2003-03-12,KER,120,105.1,165,-180,-190,165,65,72.5,-77.5,72.5,150,165,175,175,412.5,SBD,Single-ply,M,Sub-Juniors
DQ,Senthamizhan D,2002-03-19,PUD,120,110.21,220,-230,-230,220,120,130,140,140,-190,-190,-190,,,SBD,Single-ply,M,Sub-Juniors
DQ,Mithlaj C. K,2002-02-26,KER,120,114.32,-170,-170,-170,,,,,,,,,,,SBD,Single-ply,M,Juniors
1,Satyam Balian,2002-11-16,UP,120+,122.3,260,282.5,-300,282.5,-160,-165,165,165,200,210,-225,210,657.5,SBD,Single-ply,M,Sub-Juniors
2,Aswalt Praveenraj I,2002-02-14,TN,120+,140.1,210,225,-245,225,-115,-115,115,115,245,260,-270,260,600,SBD,Single-ply,M,Juniors
3,Balamurugan N,2004-05-31,TN,120+,130.1,220,235,255,255,120,-132.5,132.5,132.5,200,-212.5,-212.5,200,587.5,SBD,Single-ply,M,Sub-Juniors
4,Rohit Ojha,2002-10-07,RAJ,120+,128.1,210,222.5,-240,222.5,100,107.5,115,115,210,-230,,210,547.5,SBD,Single-ply,M,Sub-Juniors
5,Ashish,2003-06-12,HAR,120+,120.5,-210,220,235,235,95,-105,,95,210,-230,-230,210,540,SBD,Single-ply,M,Sub-Juniors
6,Parth Sawant,2002-10-05,MAH,120+,121.5,165,175,182.5,182.5,95,100,102.5,102.5,170,180,-185,180,465,SBD,Single-ply,M,Sub-Juniors
7,Nabeel V. J,2003-04-28,KER,120+,124,165,180,-202.5,180,-100,105,117.5,117.5,150,165,-172.5,165,462.5,SBD,Single-ply,M,Sub-Juniors
8,Jatinder Singh,2004-03-01,PUN,120+,122.8,165,-180,-190,165,-85,90,95,95,-150,150,-162.5,150,410,SBD,Single-ply,M,Sub-Juniors
9,Tushar Tripathi,2002-05-25,MP,120+,126.7,-150,150,-165,150,65,-72.5,-72.5,65,-150,-150,150,150,365,SBD,Single-ply,M,Sub-Juniors
10,Tanishq Pasrija,2006-03-19,DEL,120+,125.1,120,122.5,130,130,-75,75,,75,120,135,-142.5,135,340,SBD,Single-ply,M,Sub-Juniors
11,T. Phaneeth,2003-11-19,TEL,120+,125.6,100,125,137.5,137.5,50,-62.5,-62.5,50,122.5,132.5,142.5,142.5,330,SBD,Single-ply,M,Sub-Juniors
1,Sharath Poojary,1999-08-19,KAR,53,52.9,175,185,192.5,192.5,95,102.5,107.5,107.5,190,202.5,210.5,210.5,510.5,SBD,Single-ply,M,Juniors
2,D. Muralikrishna,2001-08-20,AP,53,51.4,-175,175,182.5,182.5,90,95,102.5,102.5,195,-202.5,-202.5,195,480,SBD,Single-ply,M,Juniors
3,Devendra Vyas,2000-08-10,RAJ,53,52.4,175,-185,-185,175,95,-102.5,102.5,102.5,180,190,-205,190,467.5,SBD,Single-ply,M,Juniors
4,Ilamparithi B,2001-06-28,PUD,53,51.86,165,175,182.5,182.5,100,-110,-110,100,165,-175,-175,165,447.5,SBD,Single-ply,M,Juniors
5,Nitin Kori,1998-01-27,MP,53,52.5,155,-175,-175,155,100,110,-117.5,110,160,170,-175,170,435,SBD,Single-ply,M,Juniors
6,Gaurav Sahu,2001-10-26,RAJ,53,52.2,165,175,182.5,182.5,60,67.5,-72.5,67.5,180,-192.5,-192.5,180,430,SBD,Single-ply,M,Juniors
7,Sohan Kumar,2000-09-05,BIH,53,53,150,-160,160,160,-80,85,-92.5,85,140,155,175,175,420,SBD,Single-ply,M,Juniors
8,Vishnu V. V,2000-04-27,KER,53,52.6,-157.5,-157.5,157.5,157.5,80,90,-95,90,170,-182.5,-182.5,170,417.5,SBD,Single-ply,M,Juniors
9,Sagar Chavan,2001-05-08,MAH,53,52.5,-152.5,152.5,165,165,77.5,85,-92.5,85,165,-170,-170,165,415,SBD,Single-ply,M,Juniors
10,Harshul Sharma,1998-09-20,JK,53,51.7,120,130,137.5,137.5,-95,-95,95,95,-155,165,175,175,407.5,SBD,Single-ply,M,Juniors
11,Muhammed Nijad N. V,1998-03-14,KER,53,52,140,150,-152.5,150,70,-82.5,82.5,82.5,160,175,-182.5,175,407.5,SBD,Single-ply,M,Juniors
12,Abhijit Borah,1999-10-31,ASA,53,52.4,150,157.5,162.5,162.5,-85,85,-92.5,85,150,155,,155,402.5,SBD,Single-ply,M,Juniors
13,S. R. Kuldeep,2000-09-15,TEL,53,52.82,-150,150,-172.5,150,-70,70,75,75,130,140,152.5,152.5,377.5,SBD,Single-ply,M,Juniors
14,Anush Shashank Chandavale,2000-03-27,MAH,53,50.9,130,142.5,-152.5,142.5,70,77.5,-82.5,77.5,140,155,-165,155,375,SBD,Single-ply,M,Juniors
15,Santosh Kumar,2000-08-04,BIH,53,52.8,140,-142.5,-150,140,70,75,-80,75,-145,145,155,155,370,SBD,Single-ply,M,Juniors
16,Balram Sahu,1998-03-05,CHT,53,51.7,130,137.5,145,145,65,-72.5,72.5,72.5,135,-150,150,150,367.5,SBD,Single-ply,M,Juniors
17,Ashish Kumar Das,1998-04-07,JHA,53,51.66,-130,130,-132.5,130,90,95,-100,95,-130,130,140,140,365,SBD,Single-ply,M,Juniors
DQ,Aakash Kumar,1998-11-07,DEL,53,51.9,-140,-140,-145,,-82.5,-82.5,-82.5,,-185,,,,,SBD,Single-ply,M,Juniors
DQ,Anbarasan M,2000-08-21,PUD,53,52.84,-180,-180,180,180,82.5,87.5,-90,87.5,-180,-185,-187.5,,,SBD,Single-ply,M,Juniors
1,Adarsh Attavar,2000-05-04,KAR,59,58.22,220,232.5,240,240,110,120,-122.5,120,225,232.5,-240,232.5,592.5,SBD,Single-ply,M,Juniors
2,Sajith V,1999-04-01,TN,59,58,220,-230,235,235,107.5,-112.5,112.5,112.5,220,235,-245,235,582.5,SBD,Single-ply,M,Juniors
3,K. Yashwanth,1998-06-30,AP,59,58.32,225,232.5,237.5,237.5,135,-140,-140,135,-205,205,-212.5,205,577.5,SBD,Single-ply,M,Juniors
4,Yadhnesh Raut,1998-08-29,KAR,59,58.72,210,225,-232.5,225,117.5,122.5,125,125,190,-210,-230,190,540,SBD,Single-ply,M,Juniors
5,Kuldeep S,2001-05-12,UP,59,58.5,-185,185,-200,185,90,-105,-105,90,190,200,-210,200,475,SBD,Single-ply,M,Juniors
6,Deepak Verma,2000-02-05,UP,59,57.2,182.5,-190,190,190,95,102.5,-107.5,102.5,177.5,-190,-190,177.5,470,SBD,Single-ply,M,Juniors
7,Nageshwer Kumar,1999-03-10,UTK,59,58.7,-160,-165,165,165,90,-102.5,-102.5,90,190,205,-215,205,460,SBD,Single-ply,M,Juniors
8,Abhay Nishad,1999-04-19,MP,59,57.64,170,-180,-180,170,80,85,-95,85,170,180,185,185,440,SBD,Single-ply,M,Juniors
9,Aksh Akbari,2002-04-14,GUJ,59,57.6,95,-100,100,100,57.5,-65,-65,57.5,120,-125,-125,120,277.5,SBD,Single-ply,M,Juniors
10,Bachen Rai,2003-08-04,SIK,59,56.2,70,80,-90,80,50,55,60,60,100,120,-130,120,260,SBD,Single-ply,M,Juniors
DQ,Devendra Bagh,1998-02-06,CHT,59,58.85,-175,-175,-175,,-125,-125,-125,,-210,-210,,,,SBD,Single-ply,M,Juniors
DQ,Paramesh S,1999-01-19,TN,59,58.9,-210,210,-212.5,210,-100,,,,,,,,,SBD,Single-ply,M,Juniors
DQ,Jitendar Kewat,1997-09-18,JHA,59,58.62,-200,-200,-200,,102.5,110,115,115,190,210,215,215,,SBD,Single-ply,M,Juniors
1,Shashanka,2000-02-19,KAR,66,64.7,-242.5,242.5,245,245,140,145,-147.5,145,225,232.5,-240,232.5,622.5,SBD,Single-ply,M,Juniors
2,S Krupa Rao,1998-04-29,AP,66,65.7,220,-242.5,242.5,242.5,105,-112.5,-112.5,105,245,257.5,265,265,612.5,SBD,Single-ply,M,Juniors
3,Shailendra Baghel,1997-12-15,UP,66,63.76,245,-255,255,255,120,-130,130,130,215,225,-230,225,610,SBD,Single-ply,M,Juniors
4,Priyanshu Vats,1998-04-11,DEL,66,65.2,-220,220,227.5,227.5,150,160,-168,160,-202.5,202.5,-217.5,202.5,590,SBD,Single-ply,M,Juniors
5,Jatin Rana,1997-11-27,CHN,66,65,230,-245,-247.5,230,120,127.5,-132.5,127.5,-207.5,212.5,220,220,577.5,SBD,Single-ply,M,Juniors
6,Kvvsp Prasad,1997-08-06,AP,66,65.25,225,235,242.5,242.5,-105,105,110,110,-225,225,-235,225,577.5,SBD,Single-ply,M,Juniors
7,Jitendra Singh Rana,1999-06-09,UTK,66,64.7,-230,-230,230,230,135,-142.5,-142.5,135,210,-225,-250,210,575,SBD,Single-ply,M,Juniors
8,Sanjay Shahi,1998-01-30,PUN,66,65.74,-212.5,227.5,-240,227.5,112.5,-120,120,120,220,-235,-235,220,567.5,SBD,Single-ply,M,Juniors
9,Mohd Ashraf,2000-02-07,UTK,66,65.5,-205,-205,205,205,110,-117.5,117.5,117.5,230,242.5,-250,242.5,565,SBD,Single-ply,M,Juniors
10,Vishnu Shajan,2000-10-03,KER,66,64.5,225,-235,-240,225,-125,125,130,130,180,195,-210,195,550,SBD,Single-ply,M,Juniors
11,Altab Khan,2000-09-25,WB,66,64.1,200,-212.5,-212.5,200,95,105,-110,105,190,-202.5,,190,495,SBD,Single-ply,M,Juniors
12,T. Sai Kiran,2001-05-05,TEL,66,64.7,200,-202.5,210,210,80,-90,-90,80,200,-210,-210,200,490,SBD,Single-ply,M,Juniors
13,Ishaan Garg,2001-03-29,CHN,66,64.2,130,-150,160,160,65,75,82.5,82.5,160,175,-192.5,175,417.5,SBD,Single-ply,M,Juniors
14,Mohitdan Gadhavi,1997-07-14,GUJ,66,59.6,115,-125,-125,115,75,-82.5,-82.5,75,-155,155,-165,155,345,SBD,Single-ply,M,Juniors
15,Md Anesh,2001-03-05,MAN,66,64.42,100,110,-130,110,50,65,-70,65,100,-115,-130,100,275,SBD,Single-ply,M,Juniors
DQ,Tushar Kadam,2001-02-14,MP,66,63.2,-212.5,-212.5,-212.5,,-122.5,122.5,,122.5,-222.5,,,,,SBD,Single-ply,M,Juniors
DQ,Rhythm Sharma,1997-09-06,RAJ,66,64.5,-215,-215,,,,,,,,,,,,SBD,Single-ply,M,Juniors
DQ,Sheik Mohammed Ali,1999-10-07,TN,66,65.3,235,245,250,250,-155,-155,-155,,-245,,,,,SBD,Single-ply,M,Juniors
DQ,Amit,1997-11-09,HAR,66,65.9,-210,-210,-210,,-160,160,-168,160,-210,,,,,SBD,Single-ply,M,Juniors
DQ,Pauginsang Khongsai,2000-12-02,MAN,66,63.65,-170,-170,-180,,120,-127.5,-127.5,120,170,182.5,-200,182.5,,SBD,Single-ply,M,Juniors
1,Gurjot Arora,1997-08-07,PUN,74,73.6,275,285,295,295,175,180,-185,180,275,290,-295,290,765,SBD,Single-ply,M,Juniors
2,Dharmendra Yadav,1998-03-30,UP,74,73.42,240,250,255,255,185,-195,195,195,275,290,-315,290,740,SBD,Single-ply,M,Juniors
3,Aman Pradeep Singh,1998-08-11,MAH,74,72.92,280,300,-311,300,155,-160,162.5,162.5,255,-265,-265,255,717.5,SBD,Single-ply,M,Juniors
4,Lakhindra Baruah,1998-12-31,ASA,74,73.5,-270,270,-280,270,120,-125,125,125,272.5,292.5,-323.5,292.5,687.5,SBD,Single-ply,M,Juniors
5,Prabhu B,1998-07-18,TN,74,72.8,280,-295,-300,280,150,155,-167.5,155,250,-265,,250,685,SBD,Single-ply,M,Juniors
6,D. Praveen Yadav,2000-01-20,TEL,74,72.82,250,-267.5,-282.5,250,-130,130,-135,130,240,255,-262.5,255,635,SBD,Single-ply,M,Juniors
7,Mona,1999-01-07,HAR,74,72.8,220,-230,235,235,162.5,167.5,170,170,215,-225,-225,215,620,SBD,Single-ply,M,Juniors
8,Chirag Kumar Bhatti,1998-10-06,JHA,74,73.84,-250,-250,250,250,130,135,,135,220,-225,-225,220,605,SBD,Single-ply,M,Juniors
9,T Parvateesam,1998-02-14,AP,74,72.42,-230,-230,230,230,125,135,137.5,137.5,225,232.5,-237.5,232.5,600,SBD,Single-ply,M,Juniors
10,Lav Mali,2000-01-11,MP,74,71.1,210,-225,-225,210,110,115,120,120,220,240,247.5,247.5,577.5,SBD,Single-ply,M,Juniors
11,Sharath Kumar,2001-01-31,KAR,74,72.51,-215,215,-220,215,125,130,132.5,132.5,190,-205,-207.5,190,537.5,SBD,Single-ply,M,Juniors
12,Soumik Das,1997-02-15,WB,74,73.86,220,-230,-230,220,110,-120,120,120,-190,190,-210,190,530,SBD,Single-ply,M,Open
13,Asif Mohd,2001-11-08,UTK,74,66.2,160,180,-195,180,105,115,122.5,122.5,190,207.5,215,215,517.5,SBD,Single-ply,M,Juniors
14,Harpal Singh,2000-02-12,PUN,74,67.51,140,155,170,170,95,102.5,105,105,160,177.5,-187.5,177.5,452.5,SBD,Single-ply,M,Juniors
15,Ayush,1999-08-05,DEL,74,71.52,140,150,160,160,-90,-100,100,100,170,180,187.5,187.5,447.5,SBD,Single-ply,M,Juniors
16,Akshay Kumar,1999-03-04,JK,74,72.56,110,125,-140,125,100,105,-107.5,105,175,187.5,-200,187.5,417.5,SBD,Single-ply,M,Juniors
17,Ashish Galpande,1999-10-09,CHT,74,71,130,-140,-140,130,-95,95,100,100,180,-190,,180,410,SBD,Single-ply,M,Juniors
18,Yumnam Ningthungba,2005-02-04,MAN,74,69.9,120,-130,-130,120,60,65,70,70,140,150,155,155,345,SBD,Single-ply,M,Juniors
DQ,Manish Kumar,1998-04-17,BIH,74,70.04,-235,-240,-250,,-135,-135,,,,,,,,SBD,Single-ply,M,Juniors
DQ,Sandeep Nagar,2000-10-22,HAR,74,72.32,150,-165,-175,150,100,-110,-110,100,-215,-215,-215,,,SBD,Single-ply,M,Juniors
DQ,Salam Harimohan,2004-03-01,MAN,74,72.42,110,120,-140,120,70,80,-85,80,-140,-150,-150,,,SBD,Single-ply,M,Juniors
DQ,Rahul Bhagat,1997-02-28,JHA,74,73.81,-230,-230,-230,,140,,,140,220,240,260,260,,SBD,Single-ply,M,Open
1,Jeyathdev U.S,1999-05-08,TN,83,79.4,290,300,315,315,155,165,-170,165,250,262.5,265,265,745,SBD,Single-ply,M,Juniors
2,Sumit Kumar,1998-09-10,HAR,83,80.52,290,307.5,320,320,165,170,-183,170,-255,-255,255,255,745,SBD,Single-ply,M,Juniors
3,Shivam Kumar Prajapathi,1997-04-15,TEL,83,82.3,270,290,307.5,307.5,145,152.5,165,165,220,-237.5,250,250,722.5,SBD,Single-ply,M,Juniors
4,K. Sai Charan,1997-09-14,AP,83,80.92,267.5,277.5,282.5,282.5,157.5,-165,-165,157.5,245,260,-272.5,260,700,SBD,Single-ply,M,Juniors
5,Ashwin Solanki,1998-03-30,MAH,83,82.7,-270,270,282.5,282.5,-147.5,-147.5,147.5,147.5,250,-267.5,270,270,700,SBD,Single-ply,M,Juniors
6,Abhishek Sharma,2001-07-01,PUN,83,82.74,265,275,285,285,-160,160,-170,160,250,-267.5,-280,250,695,SBD,Single-ply,M,Juniors
7,Nitish Gaur,1999-01-19,UP,83,78.6,255,265,-272.5,265,152.5,-160,-160,152.5,262.5,272.5,-282.5,272.5,690,SBD,Single-ply,M,Juniors
8,Puneet Kumar,1998-09-28,PUN,83,77.94,255,270,280,280,142.5,-152.5,-152.5,142.5,-255,255,260,260,682.5,SBD,Single-ply,M,Juniors
9,Omkar Wani,1999-06-20,MAH,83,79.3,285,-305,-305,285,142.5,-147.5,-150,142.5,240,252.5,-262.5,252.5,680,SBD,Single-ply,M,Juniors
10,Manash Jyoti Saikia,1999-03-20,ASA,83,81.7,255,280,-300,280,-140,140,150,150,200,225,-250,225,655,SBD,Single-ply,M,Juniors
11,Varun Varun,1997-05-02,CHN,83,82.82,-255,-255,255,255,155,162.5,-167.5,162.5,225,-235,235,235,652.5,SBD,Single-ply,M,Juniors
12,Chandan Kumar Singh,1998-05-03,BIH,83,80.4,240,-260,-270,240,155,-162.5,-162.5,155,250,-260,-260,250,645,SBD,Single-ply,M,Juniors
13,Gagan Raj Shetty,1997-06-24,KAR,83,80.3,265,-280,280,280,-135,135,145,145,205,215,-225,215,640,SBD,Single-ply,M,Juniors
14,Rinshad M. R,1999-08-23,KER,83,82.2,240,255,-265,255,130,-137.5,137.5,137.5,240,-252.5,-252.5,240,632.5,SBD,Single-ply,M,Juniors
15,B. Anil Kumar,2000-03-22,AP,83,79.75,232.5,240,245,245,-142.5,145,-147.5,145,232.5,-247.5,-247.5,232.5,622.5,SBD,Single-ply,M,Juniors
16,Vishal Gadge,1999-01-01,MP,83,81.19,-235,235,-245,235,165,-172.5,-172.5,165,220,,,220,620,SBD,Single-ply,M,Juniors
17,Ashil A,2001-08-10,KER,83,81.5,-220,220,-235,220,125,137.5,-145,137.5,220,230,242.5,242.5,600,SBD,Single-ply,M,Juniors
18,Khaja Nizam Uddin,2001-02-20,TEL,83,81.92,210,-235,235,235,110,120,127.5,127.5,210,-225,225,225,587.5,SBD,Single-ply,M,Juniors
19,Abhiroop Rooj,1998-12-16,JHA,83,81.32,-200,-200,200,200,140,145,147.5,147.5,200,210,-215,210,557.5,SBD,Single-ply,M,Juniors
20,Manodeep Shil,1997-12-27,WB,83,78.6,180,190,-202.5,190,100,107.5,115,115,190,-200,200,200,505,SBD,Single-ply,M,Juniors
21,Laksh Kadao,1999-01-17,CHT,83,81.32,150,-160,,150,105,112.5,-115,112.5,200,212.5,,212.5,475,SBD,Single-ply,M,Juniors
22,Sivabharathi S,1997-11-14,PUD,83,77.9,180,-200,-200,180,90,-95,-95,90,170,-190,190,190,460,SBD,Single-ply,M,Juniors
23,Bhagarathi Sahu,2001-09-25,CHT,83,75.9,160,170,-177.5,170,75,85,-92.5,85,160,172.5,180,180,435,SBD,Single-ply,M,Juniors
24,Longjam Harison,2004-10-02,MAN,83,75.95,110,-115,115,115,55,60,-65,60,120,130,-140,130,305,SBD,Single-ply,M,Juniors
DQ,Udipta Gogoi,1999-09-11,ASA,83,80.84,-260,-260,-260,,-150,-150,-160,,,,,,,SBD,Single-ply,M,Juniors
1,Rahul Joshi,2000-04-19,RAJ,93,89.4,310,325,332.5,332.5,175,185,190,190,245,260,272.5,272.5,795,SBD,Single-ply,M,Juniors
2,Parduman,2001-04-16,HAR,93,92.1,300,310,317.5,317.5,165,175,182.5,182.5,290,-297.5,-297.5,290,790,SBD,Single-ply,M,Juniors
3,Naveen S,2001-07-26,TN,93,92.44,290,310,322.5,322.5,-170,170,177.5,177.5,270,280,-300,280,780,SBD,Single-ply,M,Juniors
4,Ravi Kumar Yadav,1997-07-22,MP,93,91.64,285,295,-305,295,170,182.5,190,190,265,-275,-275,265,750,SBD,Single-ply,M,Juniors
5,Srinivasan S,1998-11-03,DEL,93,91.46,-270,270,-277.5,270,165,-170,-170,165,285,292.5,-300,292.5,727.5,SBD,Single-ply,M,Juniors
6,Mukul Dabas,1998-06-21,DEL,93,91.22,287.5,300,307.5,307.5,150,162.5,170,170,245,-265,-265,245,722.5,SBD,Single-ply,M,Juniors
7,Harshavardhan Kharade,1999-09-06,MAH,93,92.78,300,-310,-310,300,-165,165,172.5,172.5,230,245,-257.5,245,717.5,SBD,Single-ply,M,Juniors
8,B. Harish Kumar,1997-06-12,AP,93,92.3,-292.5,-292.5,292.5,292.5,147.5,157.5,-160,157.5,255,265,-272.5,265,715,SBD,Single-ply,M,Juniors
9,Avinash Dubey,2003-07-11,UP,93,91.74,-255,255,272.5,272.5,170,-182.5,182.5,182.5,245,252.5,-257.5,252.5,707.5,SBD,Single-ply,M,Juniors
10,Vaibhav Sanwal,2001-08-30,UTK,93,88.64,-280,280,290,290,150,-160,-160,150,240,260,-270,260,700,SBD,Single-ply,M,Juniors
11,Ranjith A,1999-07-09,KAR,93,86.4,240,255,265,265,-145,145,-150,145,-265,265,-270,265,675,SBD,Single-ply,M,Juniors
12,Ronit Verma,1999-02-19,JK,93,92.36,250,-265,280,280,135,147.5,-155,147.5,210,230,-245,230,657.5,SBD,Single-ply,M,Juniors
13,Shaik Aleem,1999-04-05,TEL,93,92.44,272.5,-290,290,290,122.5,-132.5,-132.5,122.5,230,-250,-255,230,642.5,SBD,Single-ply,M,Juniors
14,Anurag Magotra,2000-03-06,JK,93,90.78,-230,-230,230,230,-170,170,-177.5,170,190,-200,-210,190,590,SBD,Single-ply,M,Juniors
15,Amrit-Pal Singh,1997-08-11,CHN,93,92.92,200,212.5,225,225,110,122.5,127.5,127.5,185,195,-207.5,195,547.5,SBD,Single-ply,M,Juniors
16,Mo Kasim,1997-07-10,UTK,93,92.64,180,-190,195,195,95,105,-107.5,105,230,-240,-240,230,530,SBD,Single-ply,M,Juniors
17,Raj Kumar Subba,1999-11-08,SIK,93,92.24,160,170,-180,170,100,105,110,110,-180,190,-200,190,470,SBD,Single-ply,M,Juniors
DQ,D. Sai Kiran,2000-03-23,TEL,93,88.12,-280,-280,-280,,,,,,,,,,,SBD,Single-ply,M,Juniors
DQ,Md Faizan Raza,1997-01-01,JHA,93,91.8,-270,-270,270,270,170,-190,-190,170,-260,-270,-270,,,SBD,Single-ply,M,Open
DQ,Khushneet Goyal,1997-02-07,CHN,93,91.8,230,-250,-250,230,-165,-165,-165,,,,,,,SBD,Single-ply,M,Open
DQ,Mukesh Kumar Singh,2000-10-05,JHA,93,91.62,-275,-275,-275,,-175,180,185,185,275,-282.2,-282.5,275,,SBD,Single-ply,M,Juniors
DQ,Naba Jyoti Kurmi,1999-12-29,ASA,93,92.12,-280,-280,-280,,150,-160,160,160,-240,240,-260,240,,SBD,Single-ply,M,Juniors
1,Bharanidharan B,1998-06-21,TN,105,94.6,307.5,317.5,-322.5,317.5,195,-200,-200,195,-245,-250,260,260,772.5,SBD,Single-ply,M,Juniors
2,Konarak,1998-01-19,DEL,105,100.9,277.5,290,300,300,175,180,185,185,277.5,287.5,-295,287.5,772.5,SBD,Single-ply,M,Juniors
3,Suraj P. Shet,1999-10-11,KAR,105,102.05,310,-325,-325,310,-175,175,182.5,182.5,250,270,272.5,272.5,765,SBD,Single-ply,M,Juniors
4,Himanshu Dalal,1998-02-09,DEL,105,98.05,285,300,-307.5,300,170,-177.5,177.5,177.5,282.5,-290,-295,282.5,760,SBD,Single-ply,M,Juniors
5,Khirud Gogoi,1999-12-25,ASA,105,102.9,290,305,-312.5,305,190,-200,-200,190,-230,230,-242.5,230,725,SBD,Single-ply,M,Juniors
6,Ram Chouhan,1997-01-27,MP,105,103.4,-285,285,-300,285,170,175,-180,175,250,262.5,-275,262.5,722.5,SBD,Single-ply,M,Open
7,Vishnu K. K,1997-11-17,KER,105,94.6,270,-285,-285,270,170,180,187.5,187.5,240,-255,-255,240,697.5,SBD,Single-ply,M,Juniors
8,Sikander Singh,2000-01-01,PUN,105,98.8,265,-282.5,-282.5,265,125,140,150,150,-255,255,-262.5,255,670,SBD,Single-ply,M,Juniors
9,Mohammad Rafi,1999-07-11,KER,105,95.3,240,255,-270,255,160,167.5,172.5,172.5,240,-250,-250,240,667.5,SBD,Single-ply,M,Juniors
10,Ankit Sankhla,1998-03-13,RAJ,105,103.7,250,-260,-260,250,160,165,-172.5,165,250,-255,-265,250,665,SBD,Single-ply,M,Juniors
11,Pranav Sunil Pote,1998-08-10,MAH,105,93.8,250,-260,260,260,125,132.5,137.5,137.5,225,235,-250,235,632.5,SBD,Single-ply,M,Juniors
12,Darshan,2001-07-29,HAR,105,97.1,220,-222.5,-245,220,155,-160,-160,155,230,,,230,605,SBD,Single-ply,M,Juniors
13,Shivam Manro,2000-11-22,CHN,105,100.1,200,210,-220,210,110,120,-130,120,220,245,-250,245,575,SBD,Single-ply,M,Juniors
14,Arpan Majumder,2001-04-19,WB,105,94.24,220,235,250,250,100,110,-117.5,110,190,200,-210,200,560,SBD,Single-ply,M,Juniors
15,Abhiam Sharma,2000-04-06,JK,105,96.8,165,180,-190,180,125,135,-140,135,190,205,-210,205,520,SBD,Single-ply,M,Juniors
DQ,Gaurav Kumar Mishra,2000-06-07,JHA,105,93.1,280,-290,-290,280,140,145,-150,145,-240,-240,-240,,,SBD,Single-ply,M,Juniors
DQ,Rohit V. Rajput,1997-09-15,GUJ,105,93.3,-190,-205,-205,,100,125,-150,125,,,,,,SBD,Single-ply,M,Juniors
DQ,K. Sagar,2000-03-06,TEL,105,102.6,270,-290,-290,270,-140,-140,-140,,-210,,,,,SBD,Single-ply,M,Juniors
1,Gourav Sharma,2000-09-11,JK,120,114.1,335,348,,348,160,172.5,180,180,250,260,265,265,793,SBD,Single-ply,M,Juniors
2,Rajat Dangare,1999-03-23,MAH,120,114.22,280,300,-312.5,300,170,180,187.5,187.5,270,285,-307.5,285,772.5,SBD,Single-ply,M,Juniors
3,Harmanpreet Singh,2000-05-04,PUN,120,118.56,300,315,322.5,322.5,185,-200,200,200,230,245,-272.5,245,767.5,SBD,Single-ply,M,Juniors
4,Y. Rajesh,1999-10-05,AP,120,117.1,285,307.5,315,315,150,165,170,170,230,247.5,-262.5,247.5,732.5,SBD,Single-ply,M,Juniors
5,Ajay James,1998-09-22,KER,120,119,270,290,295,295,160,175,-190,175,245,-260,-260,245,715,SBD,Single-ply,M,Juniors
6,Mayank Soni,2001-02-27,CHT,120,115.2,265,275,290,290,150,162.5,-167.5,162.5,-240,240,-255,240,692.5,SBD,Single-ply,M,Juniors
7,Yogesh Kumar,1998-07-23,DEL,120,112,235,255,-265,255,172.5,182.5,187.5,187.5,220,-235,242.5,242.5,685,SBD,Single-ply,M,Juniors
8,Shoyab Mundori,2001-07-06,RAJ,120,117.48,270,290,300,300,120,132.5,-137.5,132.5,250,-260,-260,250,682.5,SBD,Single-ply,M,Juniors
9,Vishwas R. Shukla,1998-10-14,UP,120,110.1,210,-235,-250,210,170,182.5,-195,182.5,220,240,-247.5,240,632.5,SBD,Single-ply,M,Juniors
10,Munawar Pasha,2000-05-15,TEL,120,105.3,220,242.5,262.5,262.5,130,-142.5,142.5,142.5,190,205,215,215,620,SBD,Single-ply,M,Juniors
11,Ganesh B. Horkeri,2001-03-21,KAR,120,112.96,240,-260,-260,240,-110,110,-125,110,210,230,-240,230,580,SBD,Single-ply,M,Juniors
12,Manav Swamy,2001-09-22,MP,120,107.8,170,180,-187.5,180,75,,,75,160,162.5,172.5,172.5,427.5,SBD,Single-ply,M,Juniors
DQ,Navjot Singh,1999-07-01,PUN,120,110.24,285,300,-315,300,182.5,-190,197.5,197.5,-230,-235,-235,,,SBD,Single-ply,M,Juniors
DQ,Sanjaykumar T,2001-10-29,TN,120,115.34,300,312.5,-317.5,312.5,-180,-180,-180,,-240,,,,,SBD,Single-ply,M,Juniors
DQ,Vishwajeet Singh,1998-06-17,BIH,120,115.28,-250,-250,,,90,,,90,260,275,-300,275,,SBD,Single-ply,M,Juniors
1,Sandeep Singh,2000-03-23,PUN,120+,120.1,275,290,300,300,180,-197.5,200,200,255,270,280,280,780,SBD,Single-ply,M,Juniors
2,P. Nishanth,2001-10-20,TN,120+,130.2,-280,-280,280,280,180,187.5,192.5,192.5,250,267.5,-282.5,267.5,740,SBD,Single-ply,M,Juniors
3,Lakshya Tyagi,1998-11-04,UP,120+,120.1,-260,265,275,275,-192.5,192.5,205,205,240,-255,-260,240,720,SBD,Single-ply,M,Juniors
4,Paritesh Pal,1999-09-13,MP,120+,140.2,275,300,-320,300,140,150,-157.5,150,220,240,-272.5,240,690,SBD,Single-ply,M,Juniors
5,Al Firos M. H,1998-03-23,KER,120+,146,240,260,280,280,140,160,-165,160,240,-252.5,-252.5,240,680,SBD,Single-ply,M,Juniors
6,Lalsiamding,2001-11-07,MAN,120+,139.7,200,215,230,230,-150,150,-170,150,200,212.5,-230,212.5,592.5,SBD,Single-ply,M,Juniors
7,Vishal Kumar,1998-12-06,JK,120+,127.2,-170,-170,170,170,110,120,122.5,122.5,180,200,-205,200,492.5,SBD,Single-ply,M,Juniors
8,Mohit Rai,2000-11-11,SIK,120+,122.3,140,-160,160,160,100,102.5,105,105,190,-200,200,200,465,SBD,Single-ply,M,Juniors
DQ,Harpreet Singh Sidhu,2000-05-11,RAJ,120+,125.3,-285,-285,-285,,-150,,,,-245,,,,,SBD,Single-ply,M,Juniors
DQ,Rajat,2001-01-27,HAR,120+,138.4,-270,-270,-280,,,,,,-220,,,,,SBD,Single-ply,M,Juniors
