Division,WeightClassKg,Place,Name,Team,BodyweightKg,Best3SquatKg,Best3BenchKg,Best3DeadliftKg,TotalKg,Equipment,Event,Sex
Boys,51.71,1,Angel Flores #2,Jourdanton,49.99,120.2,61.23,122.47,303.91,Single-ply,SBD,M
Boys,51.71,2,Silverio Mendoza,Crystal City,50.53,102.06,49.9,108.86,260.82,Single-ply,SBD,M
Boys,55.79,1,Leo Carrizales,Cotulla,55.7,136.08,97.52,147.42,381.02,Single-ply,SBD,M
Boys,55.79,2,Justin Brady,Carrizo Springs,53.34,122.47,72.57,154.22,349.27,Single-ply,SBD,M
Boys,,NS,Christian Campos,Uvalde,,,,,,Single-ply,SBD,M
Boys,55.79,DQ,Alex Gallegos,Carrizo Springs,52.44,88.45,,,,Single-ply,SBD,M
Boys,59.87,1,Adrian Garcia,Pearsall,58.51,170.1,102.06,183.7,455.86,Single-ply,SBD,M
Boys,59.87,2,Juan Rojas,La Pryor,58.06,172.37,113.4,156.49,442.25,Single-ply,SBD,M
Boys,59.87,3,Ismael Franco,Crystal City,58.97,147.42,99.79,172.37,419.57,Single-ply,SBD,M
Boys,59.87,4,Taylor Weber,Jourdanton,58.97,129.27,74.84,140.61,344.73,Single-ply,SBD,M
Boys,59.87,5,Rico Martinez,Jourdanton,59.87,140.61,74.84,129.27,344.73,Single-ply,SBD,M
Boys,59.87,6,Jason Flores,Cotulla,59.51,127.01,77.11,131.54,335.66,Single-ply,SBD,M
Boys,59.87,8,Jaime Ramirez,Rocksprings,56.79,115.67,77.11,122.47,315.25,Single-ply,SBD,M
Boys,59.87,9,Juan Guzman,Crystal City,59.69,86.18,61.23,124.74,272.16,Single-ply,SBD,M
Boys,59.87,10,Reagan Leone,Cotulla,59.87,74.84,56.7,95.25,226.8,Single-ply,SBD,M
Boys,,NS,Dimitriy Gonzalez,Uvalde,,,,,,Single-ply,SBD,M
Boys,59.87,DQ,Vann Balke,Knippa,59.06,61.23,,,,Single-ply,SBD,M
Boys,67.13,1,Luis Perales,Carrizo Springs,67.04,188.24,124.74,201.85,514.83,Single-ply,SBD,M
Boys,67.13,3,Marco Gomez,Crystal City,65.23,174.63,102.06,158.76,435.45,Single-ply,SBD,M
Boys,67.13,4,Rodney Garcia,Carrizo Springs,63.78,165.56,74.84,190.51,430.91,Single-ply,SBD,M
Boys,67.13,5,Mikal Luna,Cotulla,64.5,142.88,90.72,174.63,408.23,Single-ply,SBD,M
Boys,67.13,6,Josh Pawlik,Pearsall,67.04,120.2,79.38,156.49,356.07,Single-ply,SBD,M
Boys,67.13,7,Juid Colchado,Cotulla,60.01,117.93,86.18,129.27,333.39,Single-ply,SBD,M
Boys,67.13,7,Diego Perez #1,Rocksprings,62.41,131.54,83.91,136.08,351.53,Single-ply,SBD,M
Boys,67.13,8,Jon Michael Lomas,Crystal City,65.77,142.88,72.57,127.01,342.46,Single-ply,SBD,M
Boys,67.13,9,Levi Gutierrez,Uvalde,63.59,102.06,65.77,127.01,294.84,Single-ply,SBD,M
Boys,67.13,10,Angel Cordova,Rocksprings,60.24,102.06,74.84,115.67,292.57,Single-ply,SBD,M
Boys,67.13,11,Tomas Montellano,Crystal City,65.95,97.52,58.97,102.06,258.55,Single-ply,SBD,M
Boys,67.13,12,Israel Munoz,Crystal City,61.6,52.16,40.82,102.06,195.04,Single-ply,SBD,M
Boys,,NS,Josiah Carrizalez,Uvalde,,,,,,Single-ply,SBD,M
Boys,,NS,Elijah Galindo,Uvalde,,,,,,Single-ply,SBD,M
Boys,,NS,Jacob Youngblood,Pearsall,,,,,,Single-ply,SBD,M
Boys,67.13,DQ,Blake Bentley,Pearsall,66.41,111.13,70.31,,,Single-ply,SBD,M
Boys,74.84,1,Dustin Del Toro,Cotulla,73.84,201.85,108.86,219.99,530.7,Single-ply,SBD,M
Boys,74.84,2,Sol Rodriguez,Pearsall,71.49,167.83,106.59,183.7,458.13,Single-ply,SBD,M
Boys,74.84,2,Aaron Realme,Pearsall,67.22,195.04,97.52,206.38,498.95,Single-ply,SBD,M
Boys,74.84,3,Frankie Mendez,Carrizo Springs,69.49,131.54,95.25,161.03,387.82,Single-ply,SBD,M
Boys,74.84,4,Cesar Franco,Crystal City,71.3,90.72,65.77,142.88,299.37,Single-ply,SBD,M
Boys,74.84,5,Jeremiah Munoz,Uvalde,68.49,95.25,58.97,129.27,283.5,Single-ply,SBD,M
Boys,74.84,6,Eloy Barrere,Uvalde,70.49,79.38,54.43,79.38,213.19,Single-ply,SBD,M
Boys,,NS,Blue Moreno,Rocksprings,,,,,,Single-ply,SBD,M
Boys,,NS,Gil Garcia,Crystal City,,,,,,Single-ply,SBD,M
Boys,,NS,Angel Martinez #5,Cotulla,,,,,,Single-ply,SBD,M
Boys,,NS,Jo-Jacob Rivera,Crystal City,,,,,,Single-ply,SBD,M
Boys,74.84,DQ,Brandon Williams #7,Jourdanton,73.39,154.22,,,,Single-ply,SBD,M
Boys,74.84,DQ,Eric Gonzalez,Carrizo Springs,74.62,142.88,92.99,,,Single-ply,SBD,M
Boys,82.1,1,Andre Garza,Cotulla,82.1,188.24,115.67,183.7,487.61,Single-ply,SBD,M
Boys,82.1,2,Matthew Embers,Carrizo Springs,78.38,183.7,99.79,176.9,460.4,Single-ply,SBD,M
Boys,82.1,3,Jeremery Castillo,La Pryor,81.83,163.29,108.86,188.24,460.4,Single-ply,SBD,M
Boys,82.1,4,John Paul Cordova,Rocksprings,81.19,147.42,102.06,174.63,424.11,Single-ply,SBD,M
Boys,82.1,5,Jordan Valdez,Jourdanton,82.1,154.22,111.13,158.76,424.11,Single-ply,SBD,M
Boys,82.1,6,Mario Benavides,Rocksprings,75.3,147.42,90.72,167.83,405.97,Single-ply,SBD,M
Boys,82.1,7,Noah Leal,Pearsall,81.28,158.76,68.04,145.15,371.95,Single-ply,SBD,M
Boys,82.1,8,Ritchie San Miguel,Pearsall,78.74,104.33,61.23,136.08,301.64,Single-ply,SBD,M
Boys,82.1,9,Diego Pesina,La Pryor,79.38,111.13,56.7,106.59,274.42,Single-ply,SBD,M
Boys,,NS,Jalen Victoriano,Uvalde,,,,,,Single-ply,SBD,M
Boys,82.1,DQ,Lorenzo Comacho,Uvalde,80.1,56.7,,,,Single-ply,SBD,M
Boys,89.81,1,John Engelmann,Jourdanton,87.82,204.12,129.27,204.12,537.51,Single-ply,SBD,M
Boys,89.81,2,Mario Mendoza,Carrizo Springs,86.18,185.97,120.2,190.51,496.68,Single-ply,SBD,M
Boys,89.81,3,Serge Shkyvarnytskyy,Jourdanton,87.18,183.7,102.06,183.7,469.47,Single-ply,SBD,M
Boys,89.81,4,Jordan Lara,Knippa,84.91,170.1,70.31,172.37,412.77,Single-ply,SBD,M
Boys,89.81,5,Bosley Fuentes,Rocksprings,89.36,147.42,92.99,167.83,408.23,Single-ply,SBD,M
Boys,89.81,6,Brandon Capeheart,Knippa,89.81,138.35,86.18,147.42,371.95,Single-ply,SBD,M
Boys,89.81,7,David Castro,Carrizo Springs,83.91,129.27,86.18,124.74,340.19,Single-ply,SBD,M
Boys,89.81,8,Juan Oyervidez,Carrizo Springs,87.54,108.86,68.04,136.08,312.98,Single-ply,SBD,M
Boys,89.81,9,Lino Castro,Crystal City,89.72,95.25,63.5,108.86,267.62,Single-ply,SBD,M
Boys,,NS,Jonathan Davalos,Crystal City,,,,,,Single-ply,SBD,M
Boys,89.81,DQ,Steven Muzquiz,Crystal City,86.27,122.47,,,,Single-ply,SBD,M
Boys,89.81,DQ,Anthony Maldonado,La Pryor,84.1,,,,,Single-ply,SBD,M
Boys,99.79,1,Jose Orellana,La Pryor,98.79,226.8,161.03,242.67,630.49,Single-ply,SBD,M
Boys,99.79,2,Joshua Cuevas,Pearsall,91.26,183.7,108.86,204.12,496.68,Single-ply,SBD,M
Boys,99.79,3,David Arvizo,La Pryor,95.89,181.44,115.67,185.97,483.08,Single-ply,SBD,M
Boys,99.79,4,Cruz Montez,Carrizo Springs,92.53,172.37,117.93,172.37,462.66,Single-ply,SBD,M
Boys,99.79,5,Andrew Stillwell,Cotulla,99.79,185.97,92.99,149.69,428.64,Single-ply,SBD,M
Boys,99.79,6,Jaime Nava,Carrizo Springs,99.25,142.88,83.91,142.88,369.68,Single-ply,SBD,M
Boys,99.79,7,Josh Alderete,Uvalde,91.08,129.27,77.11,151.95,358.34,Single-ply,SBD,M
Boys,,NS,Manuel Vacca,Jourdanton,,,,,,Single-ply,SBD,M
Boys,,NS,Justin Villanueva,La Pryor,,,,,,Single-ply,SBD,M
Boys,,NS,Rey Mendoza,Crystal City,,,,,,Single-ply,SBD,M
Boys,99.79,DQ,Jeffery De Leon,Carrizo Springs,94.44,149.69,,,,Single-ply,SBD,M
Boys,109.77,1,Aaron Jupe,Jourdanton,105.05,301.64,158.76,219.99,680.39,Single-ply,SBD,M
Boys,109.77,2,Guadalupe Tellez,La Pryor,107.59,172.37,117.93,192.78,483.08,Single-ply,SBD,M
Boys,109.77,3,Jason Gallegos,Carrizo Springs,109.41,170.1,117.93,179.17,467.2,Single-ply,SBD,M
Boys,109.77,4,Jason Carrillo,Rocksprings,105.51,127.01,83.91,129.27,340.19,Single-ply,SBD,M
Boys,109.77,5,Jarod Rodriguez,Carrizo Springs,104.69,113.4,77.11,129.27,319.78,Single-ply,SBD,M
Boys,109.77,6,Adrian Gomez,Knippa,108.14,108.86,61.23,102.06,272.16,Single-ply,SBD,M
Boys,,NS,Wyatt Barrow,Knippa,,,,,,Single-ply,SBD,M
Boys,124.74,1,Matthew Castro,Carrizo Springs,122.02,233.6,115.67,217.72,566.99,Single-ply,SBD,M
Boys,124.74,2,Ethan Rodriguez,Pearsall,110.59,154.22,81.65,145.15,381.02,Single-ply,SBD,M
Boys,124.74,3,JR Viesca,Cotulla,124.74,129.27,81.65,170.1,381.02,Single-ply,SBD,M
Boys,124.74,4,Marcos Gomez,Pearsall,112.49,113.4,88.45,147.42,349.27,Single-ply,SBD,M
Boys,,NS,Ricky Castaneda,Crystal City,,,,,,Single-ply,SBD,M
Boys,124.74,DQ,Migel Garcia,Uvalde,119.75,197.31,,,,Single-ply,SBD,M
Boys,124.74+,1,Edward Gonzalez,Crystal City,128.64,278.96,158.76,210.92,648.64,Single-ply,SBD,M
Boys,124.74+,2,Mario Chavez,Carrizo Springs,192.41,226.8,176.9,229.06,632.76,Single-ply,SBD,M
Boys,124.74+,3,James Castillo,Jourdanton,129,251.74,149.69,210.92,612.35,Single-ply,SBD,M
Boys,124.74+,4,Nate Serna,Jourdanton,132.09,258.55,147.42,195.04,601.01,Single-ply,SBD,M
Boys,124.74+,5,Viviano Rodriguez,Cotulla,130.82,226.8,131.54,208.65,566.99,Single-ply,SBD,M
Boys,124.74+,6,Adrian Lomas,Crystal City,125.65,183.7,138.35,167.83,489.88,Single-ply,SBD,M
Boys,,NS,Fred Chong,Carrizo Springs,,,,,,Single-ply,SBD,M
Boys,,NS,Joey Cardenas,Carrizo Springs,,,,,,Single-ply,SBD,M
Boys,,NS,Jaime Palacio,Rocksprings,,,,,,Single-ply,SBD,M
