Division,WeightClassKg,Place,Name,Team,BodyweightKg,Best3SquatKg,Best3BenchKg,Best3DeadliftKg,TotalKg,Equipment,Event,Sex
Boys,51.71,1,Jason Samniego,Altair Rice,51.53,136.08,63.5,140.61,340.19,Single-ply,SBD,M
Boys,51.71,2,Brandon Teague,Altair Rice,51.71,124.74,56.7,122.47,303.91,Single-ply,SBD,M
Boys,51.71,3,Chris Dickson,East Bernard,51.26,117.93,61.23,108.86,288.03,Single-ply,SBD,M
Boys,51.71,4,Jonathan Teafatiller,Luling,51.26,99.79,47.63,115.67,263.08,Single-ply,SBD,M
Boys,51.71,5,Aaron Aden,Van Vleck,47.17,81.65,52.16,102.06,235.87,Single-ply,SBD,M
Boys,51.71,6,Rafael Sustaita,El Maton Tidehaven,49.9,83.91,56.7,92.99,233.6,Single-ply,SBD,M
Boys,51.71,7,Kelton Rodriguez,Louise,48.53,86.18,47.63,97.52,231.33,Single-ply,SBD,M
Boys,51.71,8,Cameron Sides,El Maton Tidehaven,51.26,95.25,47.63,83.91,226.8,Single-ply,SBD,M
Boys,55.79,1,Matthew Galvez,El Maton Tidehaven,54.88,111.13,88.45,147.42,347,Single-ply,SBD,M
Boys,55.79,2,Eddie Ramos,Ganado,55.79,136.08,65.77,142.88,344.73,Single-ply,SBD,M
Boys,55.79,3,Chris Garza #3,Ganado,55.79,127.01,70.31,120.2,317.51,Single-ply,SBD,M
Boys,55.79,4,Jake Buzek,Sealy,54.43,117.93,74.84,122.47,315.25,Single-ply,SBD,M
Boys,55.79,5,Chris Martinez,Bastrop,54.43,115.67,72.57,104.33,292.57,Single-ply,SBD,M
Boys,55.79,6,Juan Espinoza,El Maton Tidehaven,55.34,102.06,61.23,92.99,256.28,Single-ply,SBD,M
Boys,59.87,1,Michael Hernandez,East Bernard,59.42,151.95,83.91,165.56,401.43,Single-ply,SBD,M
Boys,59.87,2,Todd Nicholas,Altair Rice,58.06,149.69,83.91,156.49,390.09,Single-ply,SBD,M
Boys,59.87,3,Mason Reyes,Altair Rice,57.61,142.88,79.38,147.42,369.68,Single-ply,SBD,M
Boys,59.87,4,Andrew Weight,Van Vleck,59.87,129.27,81.65,140.61,351.53,Single-ply,SBD,M
Boys,59.87,5,Michael Gonzales,Edna,57.61,124.74,81.65,129.27,335.66,Single-ply,SBD,M
Boys,59.87,6,Hunter Keszler,Ganado,57.61,129.27,74.84,117.93,322.05,Single-ply,SBD,M
Boys,59.87,7,Chris Blaschke,Smithville,58.06,106.59,56.7,129.27,292.57,Single-ply,SBD,M
Boys,67.13,1,Zach Konieczny,Sealy,66.22,192.78,133.81,201.85,528.44,Single-ply,SBD,M
Boys,67.13,2,Tanner Surratt,Louise,65.77,192.78,120.2,208.65,521.63,Single-ply,SBD,M
Boys,67.13,3,Thomas Moreno,Weimar,64.86,201.85,97.52,210.92,510.29,Single-ply,SBD,M
Boys,67.13,4,Caleb Jones,Van Vleck,67.13,190.51,120.2,190.51,501.22,Single-ply,SBD,M
Boys,74.84,5,Shaunessy Marshall,Luling,67.36,176.9,92.99,183.7,453.59,Single-ply,SBD,M
Boys,67.13,6,Kristian Grifaldo,Edna,61.69,185.97,90.72,165.56,442.25,Single-ply,SBD,M
Boys,74.84,7,Justin Garza,Altair Rice,67.36,158.76,92.99,188.24,439.98,Single-ply,SBD,M
Boys,67.13,8,Dean Bagby,Van Vleck,64.41,156.49,92.99,176.9,426.38,Single-ply,SBD,M
Boys,67.13,9,Daniel Islet,Giddings,63.5,149.69,92.99,165.56,408.23,Single-ply,SBD,M
Boys,67.13,10,Marques Earles,Edna,63.5,136.08,88.45,149.69,374.21,Single-ply,SBD,M
Boys,67.13,11,Robert Gamble,Ganado,63.96,142.88,86.18,142.88,371.95,Single-ply,SBD,M
Boys,67.13,12,Will Love,Bellville,66.22,129.27,83.91,158.76,371.95,Single-ply,SBD,M
Boys,67.13,13,Victor De La Garza,Brookshire Royal,66.68,133.81,92.99,136.08,362.87,Single-ply,SBD,M
Boys,67.13,14,Tyler Kurtz,East Bernard,64.86,127.01,81.65,149.69,358.34,Single-ply,SBD,M
Boys,67.13,15,John Marek,Bellville,60.78,136.08,72.57,136.08,344.73,Single-ply,SBD,M
Boys,67.13,16,Andrew Smalls,Brookshire Royal,61.69,92.99,63.5,106.59,263.08,Single-ply,SBD,M
Boys,67.13,DQ,Austin Brzozowski,Wallis Brazos,67.13,151.95,,,,Single-ply,SBD,M
Boys,74.84,1,DeRon Bullard,Giddings,74.84,229.06,133.81,213.19,576.06,Single-ply,SBD,M
Boys,74.84,2,Jamey Adams,Altair Rice,73.03,229.06,113.4,199.58,542.04,Single-ply,SBD,M
Boys,74.84,3,Dalton Manning,Schulenburg,73.03,192.78,124.74,197.31,514.83,Single-ply,SBD,M
Boys,74.84,4,Gabe Valladares,Van Vleck,71.67,172.37,104.33,183.7,460.4,Single-ply,SBD,M
Boys,74.84,5,Eric Sanchez,Wallis Brazos,71.67,174.63,102.06,179.17,455.86,Single-ply,SBD,M
Boys,74.84,6,Allen Zapata,Brookshire Royal,74.84,165.56,92.99,183.7,442.25,Single-ply,SBD,M
Boys,74.84,7,Keith Jaynes,Smithville,74.39,149.69,97.52,174.63,421.84,Single-ply,SBD,M
Boys,74.84,8,Cedrik Perkins,East Bernard,73.94,145.15,88.45,185.97,419.57,Single-ply,SBD,M
Boys,74.84,9,Jorge Munoz,Luling,71.67,149.69,97.52,165.56,412.77,Single-ply,SBD,M
Boys,74.84,10,Triston Thomas,Edna,71.67,158.76,92.99,161.03,412.77,Single-ply,SBD,M
Boys,74.84,11,Josh Alvarez,Louise,73.94,142.88,90.72,163.29,396.89,Single-ply,SBD,M
Boys,74.84,12,Byron Randle,Brookshire Royal,70.31,154.22,97.52,142.88,394.63,Single-ply,SBD,M
Boys,74.84,13,Tomas Salinas,Bellville,67.59,142.88,65.77,136.08,344.73,Single-ply,SBD,M
Boys,74.84,DQ,Denzell Banks,Edna,73.03,181.44,97.52,,,Single-ply,SBD,M
Boys,74.84,DQ,Cutberto Ramos,Ganado,67.59,163.29,,,,Single-ply,SBD,M
Boys,74.84,DQ,Joseph Mendoza,Giddings,74.84,,,,,Single-ply,SBD,M
Boys,82.1,1,Simon Barrios,Altair Rice,77.56,226.8,140.61,226.8,594.21,Single-ply,SBD,M
Boys,82.1,2,Aaron Werlein,Luling,82.1,226.8,124.74,231.33,582.87,Single-ply,SBD,M
Boys,82.1,3,Sotero Lara,Giddings,76.2,197.31,113.4,199.58,510.29,Single-ply,SBD,M
Boys,82.1,4,Ty Winkler,Schulenburg,78.47,204.12,104.33,192.78,501.22,Single-ply,SBD,M
Boys,82.1,5,Michael Pacheco,Bastrop,78.02,190.51,124.74,183.7,498.95,Single-ply,SBD,M
Boys,82.1,6,Dan Gordan,Weimar,77.56,176.9,120.2,190.51,487.61,Single-ply,SBD,M
Boys,82.1,7,Cesar Garcia,East Bernard,81.19,190.51,106.59,190.51,487.61,Single-ply,SBD,M
Boys,82.1,8,Quentin Bradford,Bastrop,78.47,181.44,108.86,195.04,485.34,Single-ply,SBD,M
Boys,82.1,9,Aaron Bermudez,Luling,80.29,183.7,102.06,161.03,446.79,Single-ply,SBD,M
Boys,82.1,10,Jared Zbranek,El Maton Tidehaven,78.02,167.83,102.06,174.63,444.52,Single-ply,SBD,M
Boys,82.1,11,Aric Matura,East Bernard,81.56,170.1,113.4,158.76,442.25,Single-ply,SBD,M
Boys,82.1,12,Clint Cantu,Luling,78.02,158.76,97.52,165.56,421.84,Single-ply,SBD,M
Boys,82.1,13,Marvin Watson,Van Vleck,81.19,165.56,90.72,156.49,412.77,Single-ply,SBD,M
Boys,82.1,14,Ke'Von Brown,Edna,77.11,120.2,83.91,145.15,349.27,Single-ply,SBD,M
Boys,82.1,15,Rudy Alvarez,Louise,78.47,133.81,68.04,145.15,347,Single-ply,SBD,M
Boys,82.1,DQ,Tanner Nelson,Bastrop,75.75,185.97,86.18,,,Single-ply,SBD,M
Boys,82.1,DQ,Deondra Acosta,Giddings,78.02,183.7,113.4,,,Single-ply,SBD,M
Boys,82.1,DQ,Daneil Ortiz,Weimar,79.83,181.44,,,,Single-ply,SBD,M
Boys,89.81,1,Joe Woodson,El Maton Tidehaven,86.18,213.19,124.74,229.06,566.99,Single-ply,SBD,M
Boys,89.81,2,DaAaron Jackson,Smithville,87.09,226.8,117.93,204.12,548.85,Single-ply,SBD,M
Boys,89.81,3,Abraham Castillo,Altair Rice,88,215.46,136.08,188.24,539.77,Single-ply,SBD,M
Boys,89.81,4,Jeff McDonald,Van Vleck,88.9,210.92,113.4,199.58,523.9,Single-ply,SBD,M
Boys,89.81,5,Jimmy Foster,Altair Rice,88.45,204.12,104.33,210.92,519.36,Single-ply,SBD,M
Boys,89.81,6,Eddie Martinez,Sealy,83.91,208.65,113.4,188.24,510.29,Single-ply,SBD,M
Boys,89.81,7,Matt Lamb,Van Vleck,88.9,201.85,117.93,172.37,492.15,Single-ply,SBD,M
Boys,89.81,8,Jj Vernon,El Maton Tidehaven,89.36,197.31,102.06,192.78,492.15,Single-ply,SBD,M
Boys,89.81,9,Jake Dawson,Smithville,89.81,204.12,102.06,181.44,487.61,Single-ply,SBD,M
Boys,89.81,10,Abraham Juarez,Altair Rice,87.54,183.7,108.86,163.29,455.86,Single-ply,SBD,M
Boys,89.81,11,Duane Howard,Bastrop,82.55,163.29,102.06,158.76,424.11,Single-ply,SBD,M
Boys,89.81,12,Kade Hurta,Smithville,88.9,167.83,90.72,165.56,424.11,Single-ply,SBD,M
Boys,89.81,13,Dylan Ferguson,Altair Rice,87.09,142.88,102.06,161.03,405.97,Single-ply,SBD,M
Boys,89.81,14,Joshua Guerra,Victoria St. Joseph,86.64,161.03,77.11,161.03,399.16,Single-ply,SBD,M
Boys,89.81,15,Travis Vornkahl,Bellville,87.09,151.95,81.65,156.49,390.09,Single-ply,SBD,M
Boys,89.81,DQ,Jacob Garbs,Wallis Brazos,85.73,,,,,Single-ply,SBD,M
Boys,99.79,1,Deon Hutchinson,Giddings,94.8,258.55,147.42,258.55,664.51,Single-ply,SBD,M
Boys,99.79,2,Gabe Guillen,Luling,98.88,226.8,161.03,226.8,614.62,Single-ply,SBD,M
Boys,99.79,3,Brian Branecky,Bastrop,94.8,226.8,127.01,195.04,548.85,Single-ply,SBD,M
Boys,99.79,4,Collin Filapiando,Bastrop,96.16,204.12,127.01,199.58,530.7,Single-ply,SBD,M
Boys,99.79,5,Dreshawn Campbell,East Bernard,96.16,233.6,108.86,185.97,528.44,Single-ply,SBD,M
Boys,99.79,6,Jordan Darr,East Bernard,98.43,190.51,113.4,199.58,503.49,Single-ply,SBD,M
Boys,99.79,7,Trey Taylor,Brookshire Royal,94.35,204.12,115.67,165.56,485.34,Single-ply,SBD,M
Boys,99.79,8,John Lara,Schulenburg,94.35,181.44,122.47,181.44,485.34,Single-ply,SBD,M
Boys,99.79,9,Jody Rowe,Altair Rice,93.44,176.9,97.52,181.44,455.86,Single-ply,SBD,M
Boys,99.79,10,Cade Blezinger,Bellville,92.53,170.1,90.72,167.83,428.64,Single-ply,SBD,M
Boys,99.79,11,Jorge Franco,Louise,94.35,174.63,83.91,163.29,421.84,Single-ply,SBD,M
Boys,99.79,12,Carlos Martinez #16,Louise,99.79,156.49,99.79,136.08,392.36,Single-ply,SBD,M
Boys,99.79,13,Francisco Huerta,Brookshire Royal,98.88,136.08,92.99,138.35,367.41,Single-ply,SBD,M
Boys,99.79,14,Lucas Smith,Van Vleck,92.08,113.4,86.18,129.27,328.85,Single-ply,SBD,M
Boys,99.79,DQ,Thomas Aguilar,Wallis Brazos,92.99,188.24,124.74,,,Single-ply,SBD,M
Boys,99.79,DQ,Alex Tamez,Louise,96.62,244.94,,,,Single-ply,SBD,M
Boys,109.77,1,Orlando Ordonez,Luling,106.59,256.28,156.49,215.46,628.23,Single-ply,SBD,M
Boys,109.77,2,Omar Ordonez,Luling,107.95,240.4,154.22,201.85,596.47,Single-ply,SBD,M
Boys,109.77,3,Tyler Gibson,Luling,103.42,231.33,115.67,226.8,573.79,Single-ply,SBD,M
Boys,109.77,4,Austin Lee,East Bernard,102.51,195.04,136.08,179.17,510.29,Single-ply,SBD,M
Boys,109.77,5,Danny Calixto,El Maton Tidehaven,101.6,192.78,120.2,181.44,494.42,Single-ply,SBD,M
Boys,109.77,6,Charlie Holloway,Victoria St. Joseph,108.41,195.04,111.13,183.7,489.88,Single-ply,SBD,M
Boys,109.77,7,Anthony Norman,Edna,103.87,181.44,115.67,188.24,485.34,Single-ply,SBD,M
Boys,109.77,8,Logan Young,Altair Rice,107.05,195.04,102.06,188.24,485.34,Single-ply,SBD,M
Boys,109.77,9,Ron McGrew,Altair Rice,107.95,190.51,102.06,165.56,458.13,Single-ply,SBD,M
Boys,109.77,10,Austen Williams,Bellville,103.87,181.44,117.93,154.22,453.59,Single-ply,SBD,M
Boys,124.74,1,Michael Garcia,Ganado,110.22,247.21,165.56,226.8,639.57,Single-ply,SBD,M
Boys,124.74,2,Anthony Rivera,Bastrop,120.2,244.94,102.06,188.24,535.24,Single-ply,SBD,M
Boys,124.74,3,Will Malek,Ganado,121.56,183.7,122.47,181.44,487.61,Single-ply,SBD,M
Boys,124.74,4,Jarvis Brawley,Bastrop,117.03,174.63,111.13,142.88,428.64,Single-ply,SBD,M
Boys,124.74,5,Dustin Blankemeyer,Bellville,123.83,174.63,79.38,165.56,419.57,Single-ply,SBD,M
Boys,124.74+,1,LaPear Willrich,Giddings,132,272.16,172.37,240.4,684.92,Single-ply,SBD,M
Boys,124.74+,2,Anthony Parks,Ganado,130.63,235.87,158.76,233.6,628.23,Single-ply,SBD,M
Boys,124.74+,3,Denton Lesak,Ganado,136.98,267.62,122.47,233.6,623.69,Single-ply,SBD,M
Boys,124.74+,4,Dontae Green,Luling,146.96,215.46,108.86,206.38,530.7,Single-ply,SBD,M
Boys,124.74+,5,Derek Bedal,Bastrop,127.01,190.51,145.15,192.78,528.44,Single-ply,SBD,M
Boys,124.74+,6,Bobby Alonso,Altair Rice,128.82,195.04,92.99,185.97,474,Single-ply,SBD,M
Boys,124.74+,DQ,Chad Davis #3,Altair Rice,142.43,260.82,,,,Single-ply,SBD,M
Boys,124.74+,DQ,Jonathan Ramirez,Giddings,146.96,281.23,,,,Single-ply,SBD,M
Boys,124.74+,DQ,Mike Price,Giddings,134.72,272.16,,,,Single-ply,SBD,M
