Place,WeightClassKg,Sex,Division,Name,BirthYear,Country,BodyweightKg,Squat1Kg,Squat2Kg,Squat3Kg,Best3SquatKg,Bench1Kg,Bench2Kg,Bench3Kg,Best3BenchKg,Deadlift1Kg,Deadlift2Kg,Deadlift3Kg,Best3DeadliftKg,TotalKg,Event,Equipment,DeadliftEquipment
1,44,F,Open,Natalie Janot,1969,France,43.8,120,127.5,132.5,132.5,72.5,75,77.5,77.5,142.5,150,155,155,365,SBD,Single-ply,
2,44,F,Open,Anna-Liisa Prinkkala,1955,Finland,43.9,-140,140,142.5,142.5,-65,65,67.5,67.5,145,152.5,-157.5,152.5,362.5,SBD,Single-ply,
3,44,F,Open,Yen-Ping Hsu,1974,Taiwan,43.7,130,-137.5,-137.5,130,60,-65,65,65,-127.5,-127.5,127.5,127.5,322.5,SBD,Single-ply,
4,44,F,Open,C Samundeswari,1970,India,42.9,117.5,122.5,-127.5,122.5,50,55,-57.5,55,117.5,125,,125,302.5,SBD,Single-ply,
5,44,F,Open,Svetlana Tesleva,1975,Russia,43.35,110,117.5,-122.5,117.5,52.5,57.5,60,60,110,115,-127.5,115,292.5,SBD,Single-ply,
6,44,F,Open,Harumi Yamashiro,1953,Japan,43.6,100,-110,-110,100,52.5,55,57.5,57.5,117.5,125,130,130,287.5,SBD,Single-ply,
7,44,F,Open,Silvia Rodriguez,1965,Spain,43.35,100,-110,-110,100,50,-55,-55,50,100,110,115,115,265,SBD,Single-ply,
DQ,44,F,Open,Raija Koskinen-Jurkko,1963,Finland,43.8,-150,150,-156,150,-62.5,-62.5,-62.5,,,,,,,SBD,Single-ply,
DQ,44,F,Open,Valeria Somodi,1965,Hungary,43.45,-100,-100,-100,,,,,,,,,,,SBD,Single-ply,
1,48,F,Open,Claudine Cognacq,1955,France,47.6,135,140,142.5,142.5,65,67.5,70,70,160,165,170,170,382.5,SBD,Single-ply,
2,48,F,Open,Elena Yamskich,1974,Russia,47.85,-132.5,132.5,-140,132.5,70,75,77.5,77.5,145,155,160,160,370,SBD,Single-ply,
3,48,F,Open,Vuokko Viitasaari,1954,Finland,47.65,130,-137.5,137.5,137.5,70,72.5,75,75,150,155,-157.5,155,367.5,SBD,Single-ply,
4,48,F,Open,Malou Thill,1956,Luxembourg,47.5,125,-130,-130,125,-70,-70,72.5,72.5,152.5,-155,-155,152.5,350,SBD,Single-ply,
5,48,F,Open,Leena Jokitalo,1961,Finland,47.6,-137.5,137.5,-142.5,137.5,57.5,60,-62.5,60,-140,140,150,150,347.5,SBD,Single-ply,
6,48,F,Open,Elisabeth Street,1965,USA,47.65,125,-135,135,135,65,70,-75,70,-137.5,-137.5,137.5,137.5,342.5,SBD,Single-ply,
7,48,F,Open,Li-Min Lin,1970,Taiwan,47.4,132.5,-142.5,-142.5,132.5,65,70,-72.5,70,132.5,-142.5,-147.5,132.5,335,SBD,Single-ply,
8,48,F,Open,Etsuko Suzuki,1962,Japan,47.75,-115,-115,115,115,67.5,72.5,77.5,77.5,110,125,130,130,322.5,SBD,Single-ply,
9,48,F,Open,Nicola Gifford,1953,UK,47.25,112.5,-120,122.5,122.5,50,55,-57.5,55,125,135,140,140,317.5,SBD,Single-ply,
10,48,F,Open,Carine Stallaert,1963,Belgium,46.7,115,120,-122.5,120,-52.5,55,-60,55,130,140,-147.5,140,315,SBD,Single-ply,
11,48,F,Open,Pushpamma Joseph,1967,India,45.15,120,-127.5,-127.5,120,-52.5,52.5,-57.5,52.5,135,-142.5,-142.5,135,307.5,SBD,Single-ply,
12,48,F,Open,Bakhut Bitebaeva,1970,Kazakhstan,47.45,115,-125,125,125,40,-50,-50,40,120,135,142.5,142.5,307.5,SBD,Single-ply,
13,48,F,Open,Yelena Bespartochnaya,1974,Ukraine,48,-72.5,-72.5,72.5,72.5,55,60,-62.5,60,110,117.5,-127.5,117.5,250,SBD,Single-ply,
DQ,48,F,Open,April Delmore,1966,USA,47.4,-122.5,-122.5,-122.5,,,,,,,,,,,SBD,Single-ply,
1,52,F,Open,Gema Cristobal,1971,Spain,51.05,-160,160,167.5,167.5,67.5,70,72.5,72.5,165,-175,-175,165,405,SBD,Single-ply,
2,52,F,Open,Valentina Nelyubova,1966,Russia,52,135,145,-150,145,80,87.5,92.5,92.5,145,152.5,155,155,392.5,SBD,Single-ply,
3,52,F,Open,Sonja Junttila,1965,Finland,51.85,135,145,150,150,65,70,75,75,152.5,160,165,165,390,SBD,Single-ply,
4,52,F,Open,Ya-Ling Chen,1962,Taiwan,51.6,147.5,-155,-155,147.5,75,80,-85,80,-145,145,160,160,387.5,SBD,Single-ply,
5,52,F,Open,Liisa Jurkko,1959,Finland,51.7,155,-160,-160,155,72.5,-77.5,77.5,77.5,155,-160,-160,155,387.5,SBD,Single-ply,
6,52,F,Open,Audhild Hansen,1957,Norway,51.6,140,-145,-145,140,72.5,77.5,-80,77.5,160,-167.5,-170,160,377.5,SBD,Single-ply,
7,52,F,Open,Helen Whittington,1972,UK,51.95,127.5,135,-137.5,135,70,75,-77.5,75,150,157.5,162.5,162.5,372.5,SBD,Single-ply,
8,52,F,Open,Alena Záhumenská,1958,Czechia,51,-125,125,-132.5,125,-70,70,75,75,155,165,-167.5,165,365,SBD,Single-ply,
9,52,F,Open,Glynnis Bierria-Ramirez,1963,USA,51.8,120,-135,135,135,72.5,-77.5,-77.5,72.5,132.5,-140,140,140,347.5,SBD,Single-ply,
10,52,F,Open,Anna-Maija Honka,1951,Sweden,50.55,120,130,-135,130,60,65,-67.5,65,130,140,147.5,147.5,342.5,SBD,Single-ply,
11,52,F,Open,T. Molly,1968,India,50.15,130,-140,-145,130,50,55,57.5,57.5,140,-152.5,152.5,152.5,340,SBD,Single-ply,
12,52,F,Open,Maria Trentini,1966,South Africa,51.15,90,102.5,110,110,52.5,57.5,60,60,120,135,140,140,310,SBD,Single-ply,
13,52,F,Open,Jana Svěráková,1968,Czechia,51.9,102.5,110,-115,110,50,-55,-55,50,125,132.5,-140,132.5,292.5,SBD,Single-ply,
14,52,F,Open,Edith Scherpf,1956,Germany,49.85,100,-107.5,-107.5,100,50,55,60,60,110,120,122.5,122.5,282.5,SBD,Single-ply,
15,52,F,Open,Vera Fomina,1962,Uzbekistan,50.8,-90,-90,90,90,62.5,65,-67.5,65,95,-100,-100,95,250,SBD,Single-ply,
16,52,F,Open,Angela Johnson,1967,Canada,50.5,85,92.5,-97.5,92.5,42.5,45,-52.5,45,92.5,100,110,110,247.5,SBD,Single-ply,
DQ,52,F,Open,Svetlana Poplavskaya,1966,Ukraine,51.7,-130,-130,-130,,,,,,,,,,,SBD,Single-ply,
1,56,F,Open,Carrie Boudreau,1967,USA,55.15,167.5,180,187.5,187.5,95,102.5,-110,102.5,192.5,202.5,210.5,210.5,500,SBD,Single-ply,
2,56,F,Open,Ingeborg Marx,1970,Belgium,55.75,177.5,-185,-185,177.5,85,90,-95,90,170,177.5,-187.5,177.5,445,SBD,Single-ply,
3,56,F,Open,Nadezhda Mir,1970,Kazakhstan,55.7,145,155,-160,155,75,80,85,85,175,185,-205,185,425,SBD,Single-ply,
4,56,F,Open,Hsiu-Chiung Chen,1969,Taiwan,55.8,150,157.5,165,165,80,-85,85,85,155,165,-172.5,165,415,SBD,Single-ply,
5,56,F,Open,Cathleen Kelii,1954,USA,55.3,145,157.5,162.5,162.5,85,92.5,95,95,155,-162.5,-162.5,155,412.5,SBD,Single-ply,
6,56,F,Open,Yelena Fomina,1969,Russia,55.95,145,152.5,157.5,157.5,82.5,90,-95,90,150,160,-167.5,160,407.5,SBD,Single-ply,
7,56,F,Open,Gema Orellana,1972,Spain,55.6,145,-155,-155,145,67.5,72.5,75,75,170,177.5,-187.5,177.5,397.5,SBD,Single-ply,
8,56,F,Open,Mayumi Yamagishi,1967,Japan,55.95,135,142.5,150,150,77.5,82.5,-85,82.5,150,160,165,165,397.5,SBD,Single-ply,
9,56,F,Open,Toni Hollis,1954,UK,55.6,135,145,-150,145,80,85,87.5,87.5,150,155,-160,155,387.5,SBD,Single-ply,
10,56,F,Open,Svanhild Brekke,1967,Norway,55.95,150,-157.5,-157.5,150,90,95,-97.5,95,140,-150,-150,140,385,SBD,Single-ply,
11,56,F,Open,Ya-Ching Huang,1976,Taiwan,55.6,145,157.5,-160,157.5,75,80,-85,80,145,-162.5,-162.5,145,382.5,SBD,Single-ply,
12,56,F,Open,Susanne Hagersand,1970,Sweden,54.5,-145,145,155,155,70,-75,-75,70,140,-150,150,150,375,SBD,Single-ply,
13,56,F,Open,Mieke Vivijs,1954,Belgium,55.6,-135,-135,135,135,62.5,-65,65,65,155,162.5,-167.5,162.5,362.5,SBD,Single-ply,
14,56,F,Open,Mari Okuno,1971,Japan,55.75,112.5,122.5,127.5,127.5,77.5,82.5,87.5,87.5,135,147.5,-152.5,147.5,362.5,SBD,Single-ply,
15,56,F,Open,Daralyn D' Angelo,1966,Canada,55.7,125,137.5,-142.5,137.5,57.5,65,67.5,67.5,130,145,152.5,152.5,357.5,SBD,Single-ply,
16,56,F,Open,Estelle Gallowitz,1962,South Africa,55.6,110,125,-135,125,57.5,62.5,65,65,130,147.5,-160,147.5,337.5,SBD,Single-ply,
1,60,F,Open,Beate Amdahl,1969,Norway,60,192.5,202.5,207.5,207.5,87.5,92.5,95,95,170,-180,180,180,482.5,SBD,Single-ply,
2,60,F,Open,Irmgar Wohlhöfler,1962,Germany,59.3,150,157.5,162.5,162.5,100,106,107.5,107.5,175,185,190,190,460,SBD,Single-ply,
3,60,F,Open,Irene Frangi,1964,Argentina,59.95,165,175,180,180,80,85,87.5,87.5,170,180,190,190,457.5,SBD,Single-ply,
4,60,F,Open,Carin Åkervall,1963,Sweden,59.55,155,162.5,167.5,167.5,92.5,97.5,-100,97.5,167.5,177.5,182.5,182.5,447.5,SBD,Single-ply,
5,60,F,Open,Eriko Himeno,1964,Japan,59.4,145,155,165,165,92.5,100,-102.5,100,170,180,-192.5,180,445,SBD,Single-ply,
6,60,F,Open,Jackie Blasbery,1963,UK,59.35,145,155,-157.5,155,72.5,77.5,-80,77.5,175,185,190,190,422.5,SBD,Single-ply,
7,60,F,Open,Larysa Ivanova,1963,Ukraine,59.2,170,-180,-180,170,82.5,87.5,90,90,145,152.5,157.5,157.5,417.5,SBD,Single-ply,
8,60,F,Open,Heini Laitinen,1967,Finland,58.4,152.5,-160,160,160,-82.5,82.5,85,85,157.5,165,,165,410,SBD,Single-ply,
9,60,F,Open,Jessica Jones #1,1961,UK,58.45,-145,145,-152.5,145,77.5,82.5,-85,82.5,170,-177.5,-180,170,397.5,SBD,Single-ply,
10,60,F,Open,Svetlana Nazarenko,1965,Kazakhstan,59.55,140,-150,150,150,70,75,-80,75,160,170,-175,170,395,SBD,Single-ply,
11,60,F,Open,Anna Restrup,1967,Sweden,59.95,130,137.5,142.5,142.5,62.5,67.5,70,70,150,160,165,165,377.5,SBD,Single-ply,
12,60,F,Open,Shinde Jyothi,1963,India,58.7,125,135,-145,135,40,47.5,50,50,-130,140,-147.5,140,325,SBD,Single-ply,
13,60,F,Open,Jana Skýbová,1962,Czechia,59.2,120,-127.5,-127.5,120,55,60,-62.5,60,120,-130,130,130,310,SBD,Single-ply,
DQ,60,F,Open,Tonny Harms,1950,Netherlands,59.5,-145,-145,-145,,,,,,,,,,,SBD,Single-ply,
1,67.5,F,Open,Yekaterina Tanakova,1964,Russia,67.35,200,-210,212.5,212.5,100,107.5,112.5,112.5,200,207.5,210,210,535,SBD,Single-ply,
2,67.5,F,Open,Yelena Sukhoruk,1972,Ukraine,65.95,190,200,207.5,207.5,87.5,92.5,-95,92.5,210,225,-235,225,525,SBD,Single-ply,
3,67.5,F,Open,Lisa Sjöstrand,1966,Sweden,66.25,177.5,187.5,190,190,97.5,102.5,-105,102.5,200,207.5,212.5,212.5,505,SBD,Single-ply,
4,67.5,F,Open,Antonietta Orsini,1964,Italy,67.35,150,-170,170,170,90,-100,100,100,177.5,190,192.5,192.5,462.5,SBD,Single-ply,
5,67.5,F,Open,Marleen Nelis,1964,Belgium,67.4,-165,165,-170,165,105,-107.5,-107.5,105,177.5,-182.5,192.5,192.5,462.5,SBD,Single-ply,
6,67.5,F,Open,Isabelle Mary,1972,France,67.25,165,-172.5,177.5,177.5,90,-95,-95,90,162.5,172.5,-175,172.5,440,SBD,Single-ply,
7,67.5,F,Open,Ester Harris,1972,UK,66.25,160,167.5,-170,167.5,90,95,97.5,97.5,160,-170,172.5,172.5,437.5,SBD,Single-ply,
8,67.5,F,Open,Cécile Jamin,1966,France,65.85,162.5,170,-175,170,80,82.5,85,85,170,180,-185,180,435,SBD,Single-ply,
9,67.5,F,Open,Mariet Spronk,1955,Netherlands,66.5,-142.5,142.5,147.5,147.5,82.5,-87.5,87.5,87.5,175,182.5,187.5,187.5,422.5,SBD,Single-ply,
10,67.5,F,Open,Joke van der Meulen,1951,Netherlands,67.2,152.5,162.5,-170,162.5,75,80,-82.5,80,170,-180,180,180,422.5,SBD,Single-ply,
11,67.5,F,Open,Nataliya Chkondina,1974,Kazakhstan,66.4,150,160,165,165,55,60,-65,60,175,185,-187.5,185,410,SBD,Single-ply,
12,67.5,F,Open,Alina Kirsanova,1967,Kazakhstan,67.45,165,172.5,177.5,177.5,70,-77.5,-77.5,70,150,160,-170,160,407.5,SBD,Single-ply,
DQ,67.5,F,Open,Ibolya Hollo,1965,Hungary,63.5,-150,-150,-150,,,,,,,,,,,SBD,Single-ply,
1,75,F,Open,Tammy Dianda,1961,USA,72.25,172.5,185,192.5,192.5,120,127.5,132.5,132.5,200,212.5,215,215,540,SBD,Single-ply,
2,75,F,Open,Nataliya Magula,1966,Russia,68,200,210,212.5,212.5,87.5,-92.5,92.5,92.5,195,202.5,-205,202.5,507.5,SBD,Single-ply,
3,75,F,Open,Myriam Busselot,1952,Belgium,71.1,175,182.5,187.5,187.5,90,95,-97.5,95,180,190,195,195,477.5,SBD,Single-ply,
4,75,F,Open,Sirpa Kuronen,1964,Sweden,74.3,160,165,-167.5,165,97.5,100,102.5,102.5,187.5,192.5,197.5,197.5,465,SBD,Single-ply,
5,75,F,Open,Jolanda Mikic,1970,Netherlands,71.85,155,165,170,170,85,90,-92.5,90,150,160,-165,160,420,SBD,Single-ply,
6,75,F,Open,Alice Gulstad,1959,Denmark,72.25,-155,155,-162.5,155,82.5,-87.5,-87.5,82.5,160,170,175,175,412.5,SBD,Single-ply,
7,75,F,Open,Tatiana Samoilova,1963,Kazakhstan,69.3,150,160,-170,160,70,-75,-75,70,-165,165,180,180,410,SBD,Single-ply,
8,75,F,Open,Beate Dräbing,1967,Austria,72.3,155,-167.5,-167.5,155,80,-92.5,-92.5,80,155,170,-180,170,405,SBD,Single-ply,
9,75,F,Open,Deborah Thorman,1963,Canada,70.05,130,-142.5,-142.5,130,67.5,72.5,77.5,77.5,165,-175,-175,165,372.5,SBD,Single-ply,
DQ,75,F,Open,Marina Ceder,1960,Sweden,67.55,-170,,,,,,,,,,,,,SBD,Single-ply,
DQ,75,F,Open,Liz Odendaal,1954,Netherlands,74.5,-200,-200,-200,,,,,,,,,,,SBD,Single-ply,
1,82.5,F,Open,Natalya Rumiantseva,1971,Russia,82,190,200,205,205,100,105,107.5,107.5,200,210,220,220,532.5,SBD,Single-ply,
2,82.5,F,Open,Sara Robertson,1966,USA,76.45,-180,180,-195,180,115,125,130,130,180,-192.5,192.5,192.5,502.5,SBD,Single-ply,
3,82.5,F,Open,Monika Norberg,1961,Sweden,80.35,180,190,195,195,92.5,97.5,100,100,185,195,-200,195,490,SBD,Single-ply,
4,82.5,F,Open,Larisa Doragaya,1965,Russia,75.3,190,197.5,-202.5,197.5,90,-95,95,95,180,-187.5,-187.5,180,472.5,SBD,Single-ply,
5,82.5,F,Open,Gabriele Fuchs,1963,Germany,76.2,170,180,-185,180,100,107.5,-110,107.5,170,-185,-187.5,170,457.5,SBD,Single-ply,
6,82.5,F,Open,Hege Møller,1970,Norway,75.1,175,-180,-180,175,77.5,90,-92.5,90,177.5,182.5,-185,182.5,447.5,SBD,Single-ply,
7,82.5,F,Open,Tarja Rantanen,1957,Finland,80.2,155,-165,165,165,97.5,102.5,107.5,107.5,155,165,-170,165,437.5,SBD,Single-ply,
8,82.5,F,Open,Chiung-Hsueh Hsu,1974,Taiwan,76.15,170,185,-190,185,75,-82.5,-82.5,75,160,170,-187.5,170,430,SBD,Single-ply,
9,82.5,F,Open,Catharina Haraldsson,1964,Sweden,78,145,152.5,157.5,157.5,77.5,82.5,-87.5,82.5,175,185,-192.5,185,425,SBD,Single-ply,
10,82.5,F,Open,Sarala Shetty,1962,India,75.9,165,-175,-175,165,75,80,-85,80,165,175,-177.5,175,420,SBD,Single-ply,
11,82.5,F,Open,Robin May,1964,Australia,81.4,145,-155,-155,145,67.5,-70,70,70,175,190,-195,190,405,SBD,Single-ply,
1,90,F,Open,Cathy Millen,1967,New Zealand,83.2,230,245,255,255,142.5,150,157.5,157.5,242.5,-255,-255,242.5,655,SBD,Single-ply,
2,90,F,Open,Lyudmila Gaiduchenko,1966,Ukraine,87.45,200,205,210,210,130,-137.5,137.5,137.5,210,220,225,225,572.5,SBD,Single-ply,
3,90,F,Open,Shelby Corson,1967,USA,89.45,215,-240,-240,215,120,125,127.5,127.5,177.5,187.5,200,200,542.5,SBD,Single-ply,
4,90,F,Open,Alla Korshunova,1968,Russia,82.8,180,190,200,200,82.5,90,-95,90,-190,190,200,200,490,SBD,Single-ply,
5,90,F,Open,May Steffentorpet,1971,Norway,89.25,205,215,-220,215,100,-105,105,105,160,170,-180,170,490,SBD,Single-ply,
6,90,F,Open,Angelika Moser,1966,Germany,86.7,175,182.5,190,190,105,110,115,115,155,165,-170,165,470,SBD,Single-ply,
7,90,F,Open,Helena Koponen,1964,Finland,86.2,155,165,170,170,112.5,122.5,127.5,127.5,155,165,-172.5,165,462.5,SBD,Single-ply,
8,90,F,Open,Angelika Hoier,1966,Austria,83.5,-165,165,172.5,172.5,95,-100,-100,95,175,185,-195,185,452.5,SBD,Single-ply,
9,90,F,Open,Jacqueline Pepper,1960,UK,89.2,162.5,170,-172.5,170,82.5,87.5,92.5,92.5,170,182.5,-187.5,182.5,445,SBD,Single-ply,
1,90+,F,Open,Ulrike Herchenhein,1962,Germany,97.75,205,217.5,225,225,140,150,-155,150,215,227.5,235,235,610,SBD,Single-ply,
2,90+,F,Open,Juanita Trujillo,1964,USA,109.65,242.5,260,-265,260,120,130,135,135,197.5,215,-222.5,215,610,SBD,Single-ply,
3,90+,F,Open,Jessica Vencatachellum,1960,France,99.4,222.5,230,,230,107.5,112.5,115,115,212.5,222.5,-232.5,222.5,567.5,SBD,Single-ply,
4,90+,F,Open,Anastasia Pavlova,1968,Russia,108,200,-210,210,210,100,107.5,112.5,112.5,-200,200,215,215,537.5,SBD,Single-ply,
5,90+,F,Open,Chen-Yeh Chao,1971,Taiwan,95.55,210,-227.5,-227.5,210,110,-120,120,120,180,190,-202.5,190,520,SBD,Single-ply,
6,90+,F,Open,Siw Lidman,1955,Sweden,100.35,110,-120,,110,85,-90,-90,85,150,160,-170,160,355,SBD,Single-ply,
1,52,M,Open,Andrzej Stanaszek,,,51.45,195,242.5,252.5,252.5,150,168,172.5,172.5,120,132.5,142.5,142.5,567.5,SBD,Raw,
2,52,M,Open,Sergey Zhuravlev #1,,,51.9,200,210,220,220,105,115,-117.5,115,205,217.5,225,225,560,SBD,Single-ply,
3,52,M,Open,Hideaki Inaba,,,51.55,220,235,-240,235,90,97.5,-100,97.5,220,225,-237.5,225,557.5,SBD,Single-ply,
4,52,M,Open,Chun-Hsiung Hu,,,51.8,205,-220,220,220,87.5,92.5,-95,92.5,210,225,-230,225,537.5,SBD,Single-ply,
5,52,M,Open,Sajeevan Bhaskaran,,,52,180,190,,190,85,90,-95,90,230,-256,256,256,536,SBD,Single-ply,
6,52,M,Open,Chuck Dunbar,,,51.4,220,230,-235,230,130,140,-145,140,160,-170,-170,160,530,SBD,Single-ply,
7,52,M,Open,John Clay #3,,,51.1,190,200,-205,200,107.5,112.5,115,115,200,-210,210,210,525,SBD,Single-ply,
8,52,M,Open,Ivan Likhtner,,,51.85,180,190,-195,190,95,105,110,110,185,205,-210,205,505,SBD,Single-ply,
9,52,M,Open,Aleksandrs Radzēvičš,,,51.3,210,222.5,-230,222.5,115,,125,125,135,-145,-152.5,135,482.5,SBD,Single-ply,
10,52,M,Open,Mohan Krishna,,,51.75,167.5,175,180,180,90,95,97.5,97.5,177.5,190,197.5,197.5,475,SBD,Single-ply,
11,52,M,Open,Laurent Bach,,,51.75,145,152.5,157.5,157.5,-97.5,97.5,105,105,200,210,-222.5,210,472.5,SBD,Single-ply,
12,52,M,Open,Alastair Fleming,,,51.35,162.5,170,-177.5,170,82.5,87.5,90,90,175,185,192.5,192.5,452.5,SBD,Single-ply,
1,56,M,Open,Dennis Thios,,,55.45,205,215,220,220,135,-145,145,145,225,235,240,240,605,SBD,Single-ply,
2,56,M,Open,Wim Elyn,,,55.95,210,222.5,230,230,117.5,125,130,130,220,225,-247.5,225,585,SBD,Single-ply,
3,56,M,Open,Hiroyuki Isagawa,,,56,202.5,-212.5,-212.5,202.5,150,155,,155,215,225,-230,225,582.5,SBD,Single-ply,
4,56,M,Open,Tim Taylor #1,,,55.55,177.5,-190,190,190,122.5,130,-135,130,235,252.5,-265,252.5,572.5,SBD,Single-ply,
5,56,M,Open,Magnus Carlsson,,,55.8,227.5,250,257.5,257.5,165,172.5,175,175,132.5,140,-142.5,140,572.5,SBD,Single-ply,
6,56,M,Open,Ivelin Petrov,,,55.9,220,230,235,235,125,130,-132.5,130,200,-210,-210,200,565,SBD,Single-ply,
7,56,M,Open,Chan-Lung Chen,,,56,195,-210,210,210,110,117.5,-120,117.5,210,-230,230,230,557.5,SBD,Single-ply,
DQ,56,M,Open,Vladimirs Morozovs,,,55.9,200,210,-220,210,110,120,-125,120,-225,-225,-225,,,SBD,Single-ply,
1,60,M,Open,Nanda Talambanua,,,59.8,-250,-250,250,250,115,125,-132.5,125,240,255,-262.5,255,630,SBD,Single-ply,
2,60,M,Open,Todd Suttles,,,59.85,217.5,-232.5,-232.5,217.5,142.5,-152.5,-152.5,142.5,237.5,-255,-272.5,237.5,597.5,SBD,Single-ply,
3,60,M,Open,Phil Richard,,,57,220,227.5,232.5,232.5,120,125,127.5,127.5,200,210,-215,210,570,SBD,Single-ply,
4,60,M,Open,H. Dadapeer,,,59.7,195,205,210,210,95,-105,-105,95,225,237.5,,237.5,542.5,SBD,Single-ply,
5,60,M,Open,Alessandro Ventrone,,,59.8,-190,190,-210,190,120,130,-132.5,130,190,205,217.5,217.5,537.5,SBD,Single-ply,
6,60,M,Open,Jan-Erik Christiansen,,,59.85,190,197.5,202.5,202.5,125,130,132.5,132.5,190,-200,202.5,202.5,537.5,SBD,Single-ply,
7,60,M,Open,John Leidland,,,59.3,-180,180,-190,180,100,105,107.5,107.5,185,192.5,-200,192.5,480,SBD,Single-ply,
DQ,60,M,Open,Asko Sirviö,,,59.85,-205,-205,-205,,,,,,,,,,,SBD,Single-ply,
DQ,60,M,Open,Ronny Celis,,,59.6,-205,-205,-205,,,,,,,,,,,SBD,Single-ply,
1,67.5,M,Open,Alexey Sivokon,,,66.8,270,280,-285,280,170,180,185,185,270,285,-300,285,750,SBD,Single-ply,
3,67.5,M,Open,Rodney Hypolite,,,65.6,250,270,-280,270,130,142.5,145,145,280,290,-302.5,290,705,SBD,Single-ply,
4,67.5,M,Open,Jan Wilczyński,,,67.35,240,250,-255,250,145,150,155,155,270,-280,280,280,685,SBD,Single-ply,
5,67.5,M,Open,Serik Kuzhakhmetov,,,67,230,245,255,255,130,137.5,142.5,142.5,250,260,270,270,667.5,SBD,Single-ply,
6,67.5,M,Open,Josef Trnka,,,67.15,235,247.5,255,255,125,135,142.5,142.5,245,257.5,-265,257.5,655,SBD,Single-ply,
7,67.5,M,Open,Jussi Huhtanen,,,67.3,,-240,250,250,120,127.5,-130,127.5,255,260,-272.5,260,637.5,SBD,Single-ply,
8,67.5,M,Open,Lars Eriksson,,,67.35,220,227.5,230,230,140,145,-147.5,145,240,255,262.5,262.5,637.5,SBD,Single-ply,
9,67.5,M,Open,Chin-Tien Hsieh,,,66.3,230,240,247.5,247.5,-120,120,125,125,240,-255,-255,240,612.5,SBD,Single-ply,
10,67.5,M,Open,Walter Schmidt,,,67.3,200,-220,-220,200,120,125,127.5,127.5,225,242.5,257.5,257.5,585,SBD,Single-ply,
11,67.5,M,Open,Steve Loncke,,,66.35,190,210,220,220,120,130,132.5,132.5,215,-230,230,230,582.5,SBD,Single-ply,
12,67.5,M,Open,Alessandro Favorito,,,67.1,210,220,-225,220,120,-125,-125,120,220,230,237.5,237.5,577.5,SBD,Single-ply,
13,67.5,M,Open,Achille Carredda,,,64.95,215,-225,-225,215,117.5,122.5,127.5,127.5,217.5,227.5,-235,227.5,570,SBD,Single-ply,
14,67.5,M,Open,Rick Marshall #1,,,65.85,185,197.5,-202.5,197.5,125,130,137.5,137.5,212.5,232.5,-237.5,232.5,567.5,SBD,Single-ply,
DD,67.5,M,Open,Daniel Austin #1,,,67.45,260,-275,-275,260,140,150,155,155,287.5,302.5,316.5,316.5,,SBD,Single-ply,
1,75,M,Open,David Ricks,,,74.2,-280,280,285,285,180,-185,-185,180,275,285,-290,285,750,SBD,Single-ply,
2,75,M,Open,Valerij Bokhonov,,,74.45,265,-275,275,275,-160,-160,160,160,292.5,300,-315,300,735,SBD,Single-ply,
3,75,M,Open,Per Berglund,,,73.1,245,270,280,280,177.5,185,187.5,187.5,240,255,262.5,262.5,730,SBD,Single-ply,
4,75,M,Open,Jarmo Laine,,,74.85,-275,275,-282.5,275,170,177.5,182.5,182.5,-270,270,-275,270,727.5,SBD,Single-ply,
5,75,M,Open,Darimin Sahroni,,,72.45,250,265,275,275,130,-140,-140,130,290,312.5,-335,312.5,717.5,SBD,Single-ply,
6,75,M,Open,Yi-Ching Hsieh,,,74.25,270,282.5,-297.5,282.5,145,150,-152.5,150,-250,250,275,275,707.5,SBD,Single-ply,
8,75,M,Open,Charles Archdekin,,,75,-240,240,245,245,160,165,-167.5,165,272.5,280,-285,280,690,SBD,Single-ply,
9,75,M,Open,Sigve Valentinsen,,,74.9,255,-260,262.5,262.5,-150,152.5,-157.5,152.5,265,270,-277.5,270,685,SBD,Single-ply,
10,75,M,Open,Jean Vergnolles,,,74.25,240,255,-265,255,135,142.5,-147.5,142.5,280,-290,-290,280,677.5,SBD,Single-ply,
11,75,M,Open,Takaaki Matsuda,,,74.75,250,260,-270,260,150,-155,155,155,250,257.5,262.5,262.5,677.5,SBD,Single-ply,
12,75,M,Open,Iwo Sobczyk,,,74.8,-240,240,-252.5,240,150,162.5,170,170,260,-277.5,-277.5,260,670,SBD,Single-ply,
13,75,M,Open,Stefano Bettati,,,74.65,260,272.5,-275,272.5,105,115,,115,270,-285,-285,270,657.5,SBD,Single-ply,
14,75,M,Open,Sudhakar Kamath,,,71.2,200,215,-225,215,100,107.5,112.5,112.5,215,235,-245,235,562.5,SBD,Single-ply,
15,75,M,Open,Jan Sahlgren,,,74.65,210,-230,-230,210,130,137.5,-142.5,137.5,210,-230,-230,210,557.5,SBD,Single-ply,
16,75,M,Open,Noriano Coppari,,,72.15,190,-197.5,,190,120,130,-135,130,220,-230,-230,220,540,SBD,Single-ply,
DQ,75,M,Open,Miroslaw Szmeja,,,74.85,-240,-240,-240,,,,,,,,,,,SBD,Single-ply,
DQ,75,M,Open,Kader Baali,,,74.5,-262.5,-262.5,-262.5,,,,,,,,,,,SBD,Single-ply,
DQ,75,M,Open,Andrey Kazakov,,,74.75,-250,250,260,260,150,-160,-160,150,-280,-280,-280,,,SBD,Single-ply,
DQ,75,M,Open,Jan Theys,,,74.15,,,,,,,,,,,,,,SBD,Single-ply,
1,82.5,M,Open,Jarmo Virtanen,,,82.4,315,-325,-325,315,190,195,200,200,315,325,335,335,850,SBD,Single-ply,
2,82.5,M,Open,Roman Szymkowiak,,,82.2,280,290,295,295,175,-185,185,185,320,330,340,340,820,SBD,Single-ply,
3,82.5,M,Open,David Carter #2,,,81.45,277.5,287.5,292.5,292.5,165,170,175,175,320,332.5,340,340,807.5,SBD,Single-ply,
4,82.5,M,Open,Petr Theuser,,,82,290,300,310,310,175,182.5,-190,182.5,280,295,-305,295,787.5,SBD,Single-ply,
5,82.5,M,Open,Vladimir Shkirman,,,81.9,270,280,285,285,140,145,150,150,300,322.5,342.5,342.5,777.5,SBD,Single-ply,
6,82.5,M,Open,Teruo Akhiko,,,82.1,275,285,292.5,292.5,155,165,170,170,285,295,-300,295,757.5,SBD,Single-ply,
7,82.5,M,Open,Jurijs Ivaņūšins,,,81.65,260,-272.5,272.5,272.5,162.5,,,162.5,290,-305,310,310,745,SBD,Single-ply,
8,82.5,M,Open,Dirk Surma,,,82.3,-290,290,302.5,302.5,-187.5,187.5,-195,187.5,240,255,-270,255,745,SBD,Single-ply,
9,82.5,M,Open,Ab Bruggink,,,80.05,255,270,-275,270,160,-170,170,170,260,275,280,280,720,SBD,Single-ply,
10,82.5,M,Open,Bruce Markham,,,82.1,267.5,277.5,282.5,282.5,155,162.5,-167.5,162.5,245,260,265,265,710,SBD,Single-ply,
11,82.5,M,Open,Roberto Bettati,,,79.55,255,270,275,275,125,132.5,135,135,252.5,270,-275,270,680,SBD,Single-ply,
12,82.5,M,Open,Mike Lange,,,81.95,255,265,275,275,132.5,140,-145,140,245,-255,-255,245,660,SBD,Single-ply,
13,82.5,M,Open,Dan Kristensen,,,81.3,225,235,-240,235,145,150,155,155,245,255,-260,255,645,SBD,Single-ply,
14,82.5,M,Open,Simon Bradstock,,,81.75,220,-252.5,-252.5,220,140,150,-152.5,150,260,-270,-270,260,630,SBD,Single-ply,
DQ,82.5,M,Open,Hannu Malinen,,,82.4,-270,-270,-270,,,,,,,,,,,SBD,Single-ply,
DQ,82.5,M,Open,Jan Germanus,,,80.65,245,255,-260,255,170,185,-192.5,185,-250,-250,-250,,,SBD,Single-ply,
1,90,M,Open,Gene Bell,,,89.25,332.5,-340,-340,332.5,215,-222.5,222.5,222.5,300,307.5,315,315,870,SBD,Single-ply,
2,90,M,Open,Frank Schramm,,,89.25,340,-355,-355,340,210,217.5,-225,217.5,290,302.5,310,310,867.5,SBD,Single-ply,
3,90,M,Open,Jón Gunnarsson,,,88.9,335,-352.5,-352.5,335,177.5,-182.5,182.5,182.5,310,-320,-320,310,827.5,SBD,Single-ply,
4,90,M,Open,Hendrik Södermann,,,88.95,300,320,327.5,327.5,170,177.5,182.5,182.5,275,290,300,300,810,SBD,Single-ply,
5,90,M,Open,Gennadiy Vorobyev,,,89.05,305,315,320,320,-160,170,-180,170,320,-330,-340,320,810,SBD,Single-ply,
6,90,M,Open,Carl Olav Christoffersen,,,89.2,305,-312.5,312.5,312.5,195,-200,200,200,285,295,-300,295,807.5,SBD,Single-ply,
7,90,M,Open,Volodymyr Ukhach,,,89.5,300,-310,-310,300,215,-225,-225,215,290,-297.5,-297.5,290,805,SBD,Single-ply,
8,90,M,Open,Sven-Erik Persson,,,89.9,310,325,-330,325,175,182.5,185,185,290,-302.5,-302.5,290,800,SBD,Single-ply,
9,90,M,Open,Anatoly Tatarnikov,,,86.7,290,300,310,310,190,-197.5,197.5,197.5,-290,290,-302.5,290,797.5,SBD,Single-ply,
10,90,M,Open,Ariel Groeneboom,,,88.1,270,300,-310,300,180,192.5,200,200,270,290,-300,290,790,SBD,Single-ply,
11,90,M,Open,Fröde Gundersen #1,,,88.75,280,290,297.5,297.5,170,182.5,-187.5,182.5,280,290,-300,290,770,SBD,Single-ply,
12,90,M,Open,Peter Kyriakos,,,89.85,280,290,300,300,175,180,182.5,182.5,280,-287.5,287.5,287.5,770,SBD,Single-ply,
13,90,M,Open,Jan Seghers,,Belgium,89.7,260,-270,-270,260,170,177.5,-180,177.5,305,317.5,-325,317.5,755,SBD,Single-ply,
14,90,M,Open,Kim Andersen,,,86,250,-260,260,260,152.5,157.5,-160,157.5,270,285,290,290,707.5,SBD,Single-ply,
15,90,M,Open,Selwyn Calvin,,,88.9,265,275,-285,275,120,130,-140,130,125,200,240,240,645,SBD,Single-ply,
16,90,M,Open,Rastislav Sevcech,,,86.75,220,235,-245,235,140,147.5,-150,147.5,245,-255,255,255,637.5,SBD,Single-ply,
DQ,90,M,Open,Sakari Mäntylä,,,89.4,-305,-305,-305,,,,,,,,,,,SBD,Single-ply,
DQ,90,M,Open,Masaki Ozawa,,,89.55,-300,-305,-305,,,,,,,,,,,SBD,Single-ply,
DQ,90,M,Open,Dominique Desachy,,,88.2,-275,-285,-290,,,,,,,,,,,SBD,Single-ply,
1,100,M,Open,Ed Coan,,,97.9,390,-410,-410,390,227.5,237.5,-247.5,237.5,367.5,380,390,390,1017.5,SBD,Single-ply,Raw
2,100,M,Open,Vladimir Markovsky,,,98.15,325,340,345,345,202.5,-207.5,207.5,207.5,320,330,-332.5,330,882.5,SBD,Single-ply,
3,100,M,Open,Derek Pomana,,,100,345,360,-367.5,360,202.5,212.5,217.5,217.5,290,302.5,305,305,882.5,SBD,Single-ply,
4,100,M,Open,Sergei Ivanov,,,96.15,325,-340,340,340,197.5,202.5,205,205,320,-335,-337.5,320,865,SBD,Single-ply,
5,100,M,Open,Hugo de Grauwe,,,99.75,325,337.5,,337.5,195,200,-202.5,200,-300,300,312.5,312.5,850,SBD,Single-ply,
6,100,M,Open,Børge Øvrebø,,,99.9,305,325,332.5,332.5,205,215,-222.5,215,300,-310,-310,300,847.5,SBD,Single-ply,
7,100,M,Open,Arkadiy Nikitin,,,98,310,320,330,330,190,-202.5,202.5,202.5,310,-320,-320,310,842.5,SBD,Single-ply,
8,100,M,Open,Ulrich Rambow,,,99.55,-320,320,-345,320,195,200,-202.5,200,300,315,-325,315,835,SBD,Single-ply,
9,100,M,Open,Milan Gabrhel,,,98.3,305,325,-332.5,325,205,-212.5,-212.5,205,280,300,-305,300,830,SBD,Single-ply,
10,100,M,Open,Anton Tucek,,,99.9,320,335,-347.5,335,180,187.5,-190,187.5,295,305,,305,827.5,SBD,Single-ply,
12,100,M,Open,Clive Henry,,,98.85,305,315,325,325,180,192.5,-197.5,192.5,295,305,-315,305,822.5,SBD,Single-ply,
11,100,M,Open,Bernhard Klaus,,,99.55,290,-305,-305,290,200,210,-215,210,300,315,-327.5,315,815,SBD,Single-ply,
13,100,M,Open,Jörgen Ljungberg,,,99,300,-322.5,-322.5,300,185,192.5,-195,192.5,300,310,-315,310,802.5,SBD,Single-ply,
14,100,M,Open,Leif Wahlander,,,99,280,-295,-295,280,180,187.5,-192.5,187.5,300,317.5,-325,317.5,785,SBD,Single-ply,
15,100,M,Open,Alan Ferguson,,,99.15,260,280,-290,280,170,180,-187.5,180,270,290,-300,290,750,SBD,Single-ply,
16,100,M,Open,Vratislav Čech,,,99.1,-250,250,260,260,150,157.5,160,160,280,300,-310,300,720,SBD,Single-ply,
17,100,M,Open,Terence Delaney,,,99.65,-225,-225,225,225,160,170,175,175,245,260,-270,260,660,SBD,Single-ply,
18,100,M,Open,Michal Kuchta,,,91.1,225,240,-250,240,140,-145,145,145,240,255,-262.5,255,640,SBD,Single-ply,
19,100,M,Open,Sandro Rossi,,,95.3,240,260,277.5,277.5,50,,,50,260,-280,-290,260,587.5,SBD,Single-ply,
20,100,M,Open,Chun-Hsiung Lee,,,90.85,210,,,210,120,,,120,-240,240,-247.5,240,570,SBD,Single-ply,
DQ,100,M,Open,Arto Rajala,,,98.95,320,-340,-340,320,200,205,-210,205,-312.5,-312.5,-312.5,,,SBD,Single-ply,
DQ,100,M,Open,Yuji Hiragushi,,,99.4,-300,-300,-300,,,,,,,,,,,SBD,Single-ply,
2,110,M,Open,Andrey Mustrikov,,,109.6,345,-355,360,360,220,225,230,230,322.5,-362.5,-372.5,322.5,912.5,SBD,Single-ply,
3,110,M,Open,Ano Turtiainen,,,109.4,340,-350,350,350,180,190,-195,190,-322.5,322.5,327.5,327.5,867.5,SBD,Single-ply,
4,110,M,Open,Marko Haarakangas,,,109.4,-340,-340,340,340,190,200,207.5,207.5,250,300,317.5,317.5,865,SBD,Single-ply,
5,110,M,Open,Piebe Faber,,,109.75,315,325,-330,325,230,-237.5,237.5,237.5,-300,300,-305,300,862.5,SBD,Single-ply,
6,110,M,Open,Franz Siller,,,108.25,305,320,327.5,327.5,195,-202.5,202.5,202.5,300,-310,310,310,840,SBD,Single-ply,
7,110,M,Open,Michelangelo DiCerbo,,,108.15,290,-300,300,300,190,200,,200,300,312.5,-317.5,312.5,812.5,SBD,Single-ply,
8,110,M,Open,Edmund Ims,,,109.85,315,330,335,335,175,-185,-185,175,300,-310,,300,810,SBD,Single-ply,
9,110,M,Open,Anders Jansson,,,109.05,300,-315,-315,300,195,205,210,210,270,290,-300,290,800,SBD,Single-ply,
10,110,M,Open,Ralph Celio,,,108.85,290,310,-320,310,170,180,190,190,280,-300,-300,280,780,SBD,Single-ply,
11,110,M,Open,Nikolajs Pavilovskis,,,100.4,275,-285,-285,275,165,172.5,,172.5,305,-322.5,,305,752.5,SBD,Single-ply,
12,110,M,Open,J.S. Ubee,,,100.55,260,275,-280,275,140,145,150,150,260,,,260,685,SBD,Single-ply,
DQ,110,M,Open,Leopold Krendl,,,109.3,-350,-350,-350,,,,,,,,,,,SBD,Single-ply,
DD,110,M,Open,Phil Farmer,,,109.7,347.5,360,370,370,235,245,252.5,252.5,320,330,340,340,,SBD,Single-ply,
1,125,M,Open,Kirk Karwoski,,,119.65,377.5,395,410,410,225,237.5,-247.5,237.5,330,-345,-345,330,977.5,SBD,Single-ply,
2,125,M,Open,Viktor Naleykin,,,121.95,380,390,-395,390,210,217.5,-222.5,217.5,355,362.5,-372.5,362.5,970,SBD,Single-ply,
3,125,M,Open,Guðni Sigurjónsson,,,116.75,355,370,380,380,-212.5,215,220,220,345,362.5,-377.5,362.5,962.5,SBD,Single-ply,
4,125,M,Open,Detlef Glohmann,,,122.85,-360,360,-370,360,220,-230,-230,220,330,-340,-340,330,910,SBD,Single-ply,
5,125,M,Open,Yevgeny Kochubei,,,124.1,335,345,-350,345,190,202.5,207.5,207.5,-345,345,-360,345,897.5,SBD,Single-ply,
6,125,M,Open,Eberhard Schwanke,,,122.3,310,-325,330,330,220,-240,240,240,280,295,-305,295,865,SBD,Single-ply,
7,125,M,Open,Ed Brost,,,123.7,-320,-320,320,320,220,227.5,232.5,232.5,290,300,-305,300,852.5,SBD,Single-ply,
8,125,M,Open,Frank Jørgensen,,,124.55,-300,300,-310,300,185,192.5,200,200,300,320,-330,320,820,SBD,Single-ply,
9,125,M,Open,Michael Abdullah,,,124.8,305,-315,317.5,317.5,190,-200,200,200,270,282.5,287.5,287.5,805,SBD,Single-ply,
10,125,M,Open,Chien-Hsiung Chao,,,123.95,300,-320,-320,300,190,200,-207.5,200,270,-307.5,,270,770,SBD,Single-ply,
11,125,M,Open,Huai-Chin Liang,,,110.05,315,-335,,315,180,-207.5,207.5,207.5,60,,,60,582.5,SBD,Single-ply,
DQ,125,M,Open,Kjetil Tollefsen,,,124.35,-315,320,-332.5,320,195,205,-215,205,-270,-270,,,,SBD,Single-ply,
1,125+,M,Open,Hans Zerhoch,,,141.3,390,410,-425,410,210,220,-227.5,220,340,350,355,355,985,SBD,Single-ply,
2,125+,M,Open,Karl Saliger,,,139.55,360,380,390,390,245,255,-265,255,310,327.5,337.5,337.5,982.5,SBD,Single-ply,
3,125+,M,Open,Harold Collins,,,136.4,340,-367.5,370,370,255,272.5,-285,272.5,300,327.5,337.5,337.5,980,SBD,Single-ply,
4,125+,M,Open,Kyösti Vilmi,,,130.8,375,390,400,400,230,237.5,-242.5,237.5,320,-335,-335,320,957.5,SBD,Single-ply,
5,125+,M,Open,Yngve Gustafsson,,,152.1,352.5,367.5,375,375,242.5,250,255,255,310,-320,-320,310,940,SBD,Single-ply,
6,125+,M,Open,Roger Sandström,,,172.55,350,-367.5,-367.5,350,220,230,235,235,330,350,-357.5,350,935,SBD,Single-ply,
7,125+,M,Open,Eugeny Popov,,,150.65,340,355,362.5,362.5,-220,220,-227.5,220,350,-360,-360,350,932.5,SBD,Single-ply,
8,125+,M,Open,Søren Oldenborg,,,126.75,-332.5,342.5,-352.5,342.5,255,-262.5,-262.5,255,305,320,-335,320,917.5,SBD,Single-ply,
9,125+,M,Open,Miroslav Patro,,,141.5,-365,-365,365,365,200,205,-207.5,205,335,342.5,-350,342.5,912.5,SBD,Single-ply,
10,125+,M,Open,Cheng-Tsung Wu,,,156.5,335,355,,355,185,195,-202.5,195,260,-275,275,275,825,SBD,Single-ply,
11,125+,M,Open,Jiří Ondráček,,,127.75,250,-260,-270,250,170,180,185,185,290,-310,,290,725,SBD,Single-ply,
DQ,125+,M,Open,Ralf Gierz,,,138.15,350,365,372.5,372.5,235,-245,245,245,-325,-325,-325,,,SBD,Single-ply,
DQ,125+,M,Open,Yuriy Spinov,,,135.3,375,-390,-392.5,375,-190,-190,-190,,,,,,,SBD,Single-ply,
