Name,Division,Sex,Best3SquatKg,Best3BenchKg,Best3DeadliftKg,TotalKg,Event,Equipment,Place,BodyweightKg,WeightClassKg
Teresa Sawyer,F-E-Open,F,145,95,145,385,SBD,Single-ply,1,52.55,56
Erica Holz,F-E-Open,F,115,75,150,340,SBD,Single-ply,1,73.7,75
Doreen Dowsett,F-E-Open,F,105,52.5,132.5,290,SBD,Single-ply,2,68.05,75
Roger Powell #1,M-E-Open,M,125,85,175,385,SBD,Single-ply,1,66.95,75
Shuan Haynes,M-E-Open,M,237.5,180,240,657.5,SBD,Single-ply,1,74.9,75
Adam Tallis,M-E-Open,M,222.5,115,,,SBD,Single-ply,DQ,74.6,75
Mark Gregory,M-E-Open,M,205,150,220,575,SBD,Single-ply,1,88.85,90
Jason Talbot,M-C-Open,M,242.5,175,280,697.5,SBD,Raw,1,109.15,110
