Division,WeightClassKg,Place,Name,Team,BodyweightKg,Best3SquatKg,Best3BenchKg,Best3DeadliftKg,TotalKg,Equipment,Event,Sex,BirthDate
Boys,59.87,1,Alejandro Guzman,Garland Rowlett,58.88,124.74,65.77,142.88,333.39,Single-ply,SBD,M,
Boys,67.13,1,Alejandro Mojica,South Garland,66.5,136.08,83.91,142.88,362.87,Single-ply,SBD,M,
Boys,82.1,1,Cameron Kongamnach,Garland Rowlett,79.02,204.12,136.08,183.7,523.9,Single-ply,SBD,M,
Boys,82.1,2,Enrique Rivera,South Garland,76.11,129.27,79.38,122.47,331.12,Single-ply,SBD,M,
Boys,89.81,1,Dozie Enemo,Garland Rowlett,82.37,188.24,102.06,206.38,496.68,Single-ply,SBD,M,
Boys,89.81,2,Brayden White,Garland Rowlett,87.72,170.1,115.67,176.9,462.66,Single-ply,SBD,M,
Boys,89.81,3,Gabriel Cardenas,Garland Rowlett,86.64,161.03,90.72,158.76,410.5,Single-ply,SBD,M,
Boys,89.81,DQ,Daniel Rangel,Garland Rowlett,87.82,176.9,,,,Single-ply,SBD,M,
Boys,99.79,1,Matthew Martinez,South Garland,96.62,176.9,102.06,183.7,462.66,Single-ply,SBD,M,
Boys,99.79,2,Terry Davis,South Garland,90.36,181.44,102.06,163.29,446.79,Single-ply,SBD,M,
Boys,109.77,1,Anthony Menjivar,Garland Rowlett,108.14,219.99,129.27,210.92,560.19,Single-ply,SBD,M,
Boys,109.77,2,Standrick Cole,Garland Rowlett,106.68,210.92,117.93,188.24,517.1,Single-ply,SBD,M,
Boys,109.77,3,Luis Hernandez,South Garland,107.77,172.37,104.33,170.1,446.79,Single-ply,SBD,M,
Boys,109.77,4,Eitan Madrigal,South Garland,109.23,172.37,97.52,161.03,430.91,Single-ply,SBD,M,
Boys,109.77,5,Jacob Benavidez,South Garland,109.59,145.15,79.38,151.95,376.48,Single-ply,SBD,M,
Boys,124.74,1,Alex Mateo,Garland Rowlett,124.56,201.85,88.45,176.9,467.2,Single-ply,SBD,M,
Boys,139.71+,1,Ismael Alvarez,South Garland,144.15,260.82,156.49,251.74,669.05,Single-ply,SBD,M,
Boys,139.71+,2,Serafin Ortega,South Garland,149.32,181.44,102.06,165.56,449.06,Single-ply,SBD,M,
